# This file uses centimeters as units for non-parametric coordinates.

mtllib New_Mushroom.mtl
g default
v 0.661198 0.204643 -0.685074
v -0.004089 0.204643 -0.958950
v -0.661198 0.204643 -0.685074
v -0.935074 0.204643 -0.023876
v -0.661198 0.204643 0.637321
v -0.004091 0.204643 0.911199
v 0.661198 0.204643 0.637321
v 0.935074 0.204643 -0.023876
v 1.239191 0.156839 -1.318672
v -0.004089 0.156839 -1.826609
v -1.239191 0.156839 -1.318672
v -1.752481 0.156841 -0.092403
v -1.239191 0.156841 1.133863
v -0.004091 0.156841 1.641800
v 1.239191 0.156841 1.133863
v 1.752481 0.156841 -0.092403
v 1.379513 0.354664 -1.553080
v -0.003885 0.354664 -2.118534
v -1.379511 0.354664 -1.553080
v -1.950924 0.354665 -0.187956
v -1.379511 0.354666 1.177168
v -0.003889 0.354666 1.742621
v 1.379513 0.354665 1.177168
v 1.950924 0.354665 -0.187956
v 0.965620 0.781275 -1.248812
v -0.004089 0.764949 -1.648014
v -0.965620 0.781275 -1.248814
v -1.365593 0.820688 -0.285055
v -0.965620 0.860102 0.678702
v -0.004093 0.876428 1.077904
v 0.965620 0.860102 0.678702
v 1.365593 0.820688 -0.285055
v 0.806177 1.126132 -1.240070
v -0.004089 1.112501 -1.573357
v -0.806177 1.126132 -1.240070
v -1.140106 1.159037 -0.435448
v -0.806177 1.191942 0.369173
v -0.004093 1.205573 0.702459
v 0.806177 1.191942 0.369174
v 1.140106 1.159037 -0.435448
v 0.513859 4.640219 -0.340706
v -0.003138 4.768231 -0.517204
v -0.513859 4.640219 -0.340706
v -0.726706 4.331175 0.085402
v -0.513859 4.022131 0.511509
v -0.003141 3.894120 0.688008
v 0.513859 4.022131 0.511509
v 0.726706 4.331175 0.085402
v 0.853777 6.055986 0.782798
v -0.003899 6.413018 0.484307
v -0.423717 6.371804 0.502573
v -0.903324 5.956486 0.826897
v -0.853777 5.410352 1.267291
v -0.003901 5.053320 1.565783
v 0.423719 5.094535 1.547517
v 0.903326 5.509853 1.223194
v 1.283710 6.528853 0.698692
v -0.003895 6.904889 0.330238
v -1.283710 6.528853 0.698692
v -1.815441 5.621023 1.588217
v -1.283710 4.713193 2.477741
v -0.003897 4.337158 2.846195
v 1.283710 4.713193 2.477741
v 1.815443 5.621023 1.588217
v 2.545465 7.396120 -0.193338
v -0.004684 8.141758 -0.923943
v -2.545465 7.396120 -0.193338
v -3.599831 5.595988 1.570497
v -2.545465 3.795857 3.334332
v -0.004686 3.050218 4.064936
v 2.545465 3.795856 3.334332
v 3.599831 5.595988 1.570497
v 3.580929 7.872472 -1.230070
v -0.383411 9.342019 -2.257875
v -3.580929 7.872472 -1.230070
v -5.064199 5.340069 1.251271
v -3.580929 2.807666 3.732613
v -0.004545 1.758711 4.760418
v 3.580929 2.807666 3.732613
v 5.064199 5.340069 1.251271
v 3.777147 8.175040 -1.166327
v -0.383410 9.702066 -2.250450
v -3.777149 8.175039 -1.166327
v -5.341694 5.503873 1.450981
v -3.777149 2.832705 4.068289
v -0.004543 1.726272 5.152412
v 3.777149 2.832705 4.068289
v 5.341694 5.503873 1.450981
v 2.118147 7.958344 1.061710
v -0.003887 8.578808 0.453756
v -2.118147 7.958344 1.061710
v -2.995510 6.460409 2.529443
v -2.118147 4.962473 3.997174
v -0.003887 4.342009 4.605128
v 2.118147 4.962473 3.997174
v 2.995510 6.460409 2.529443
v 1.615953 8.085263 2.103231
v -0.004429 8.558621 1.639418
v -1.615953 8.085263 2.103231
v -2.285303 6.942474 3.222978
v -1.615953 5.799686 4.342724
v -0.004431 5.326327 4.806538
v 1.615953 5.799686 4.342724
v 2.285303 6.942474 3.222978
v 0.428425 7.627612 3.484642
v -0.003532 7.753109 3.361675
v -0.428425 7.627612 3.484642
v -0.605885 7.324633 3.781511
v -0.428425 7.021654 4.078381
v -0.003534 6.896157 4.201349
v 0.428425 7.021654 4.078381
v 0.605885 7.324633 3.781511
v -0.004089 0.204643 -0.023876
v -0.004684 7.423670 3.864171
v 3.561001 3.110779 4.118523
v -0.004614 2.067662 5.140608
v -3.561001 3.110779 4.118523
v -5.036015 5.629090 1.650990
v -3.561001 8.147400 -0.816542
v -0.383480 9.611109 -1.838627
v 3.561001 8.147400 -0.816542
v 5.036015 5.629090 1.650990
v 3.714056 2.966155 4.133430
v -0.004587 1.878203 5.199444
v -3.714056 2.966155 4.133430
v -5.252468 5.592704 1.559840
v -3.714056 8.219252 -1.013748
v -0.383451 9.727798 -2.079763
v 3.714056 8.219253 -1.013748
v 5.252468 5.592704 1.559840
v 3.205891 3.379538 3.937956
v -0.004519 2.440443 4.858115
v -3.205891 3.379538 3.937956
v -4.533813 5.646716 1.716490
v -3.205891 7.913895 -0.504974
v -0.383385 9.273582 -1.425135
v 3.205891 7.913895 -0.504974
v 4.533813 5.646716 1.716490
v 1.273487 6.184211 4.301468
v -0.004450 5.811171 4.666987
v -1.273487 6.184211 4.301468
v -1.800983 7.084811 3.419027
v -1.273487 7.985412 2.536588
v -0.004448 8.358452 2.171068
v 1.273487 7.985412 2.536588
v 1.800983 7.084811 3.419027
v 0.839867 6.620891 4.195932
v -0.004234 6.374872 4.436994
v -0.839865 6.620891 4.195932
v -1.187750 7.214838 3.613964
v -0.839865 7.808784 3.031994
v -0.004232 8.054804 2.790934
v 0.839865 7.808784 3.031994
v 1.187750 7.214838 3.613964
v 3.682686 2.787542 3.882028
v -0.004530 1.708779 4.939038
v -3.682686 2.787542 3.882028
v -5.208103 5.391905 1.330175
v -3.682686 7.996269 -1.221676
v -0.383396 9.495625 -2.278687
v 3.682686 7.996270 -1.221676
v 5.208103 5.391905 1.330175
v -0.004686 3.843389 3.520773
v -1.881954 4.394666 2.980610
v -2.661484 5.725568 1.676544
v -1.881954 7.056470 0.372478
v -0.004684 7.607748 -0.167685
v 1.881954 7.056470 0.372478
v 2.661484 5.725568 1.676544
v 1.881954 4.394666 2.980610
v -0.004631 2.677967 4.231182
v -2.957003 3.544157 3.382458
v -4.181833 5.635324 1.333455
v -2.957003 7.726492 -0.715548
v -0.383497 9.013273 -1.564272
v 2.957003 7.726492 -0.715548
v 4.181833 5.635324 1.333455
v 2.957003 3.544157 3.382458
v 0.967110 1.775450 -0.421270
v 0.683849 1.760548 0.255758
v -0.003704 1.754375 0.536193
v -0.683849 1.760548 0.255758
v -0.967110 1.775450 -0.421270
v -0.683849 1.790353 -1.098301
v -0.003700 1.796525 -1.378736
v 0.683849 1.790353 -1.098301
v 1.688192 0.613180 -0.226297
v 1.193733 0.627923 0.958056
v -0.003878 0.634031 1.448631
v -1.193733 0.627923 0.958055
v -1.688192 0.613180 -0.226297
v -1.193733 0.598435 -1.410650
v -0.003874 0.592328 -1.901224
v 1.193733 0.598435 -1.410650
v 1.332117 0.227508 1.184138
v -0.004093 0.227508 1.730165
v -1.332117 0.227508 1.184138
v -1.883898 0.227507 -0.134087
v -1.332117 0.227506 -1.452311
v -0.004089 0.227506 -1.998337
v 1.332117 0.227506 -1.452311
v 1.883898 0.227507 -0.134087
v 1.897696 0.474219 -0.206356
v 1.341873 0.481588 1.123057
v -0.004038 0.484641 1.673718
v -1.341873 0.481589 1.123057
v -1.897696 0.474219 -0.206356
v -1.341873 0.466849 -1.535769
v -0.004036 0.463796 -2.086430
v 1.341873 0.466849 -1.535769
v -0.256845 6.970976 4.128037
v -0.502420 6.521544 4.293278
v -0.761023 6.033570 4.449073
v -0.965187 5.608534 4.530022
v -1.264364 4.711917 4.242679
v -1.699541 2.588140 4.874538
v -1.805342 2.263971 5.118320
v -1.858252 2.096001 5.163704
v -1.881874 1.955717 5.114143
v -1.861443 1.929292 4.917337
v -1.840611 1.966766 4.754644
v -1.764772 3.194371 3.725191
v -1.519445 3.494752 3.629364
v -1.123873 4.172049 3.198739
v -0.766895 4.561342 2.626531
v -0.510578 5.266175 1.387829
v -0.307619 3.970438 0.582783
v -0.409193 1.758055 0.369003
v -0.482279 1.197447 0.503761
v -0.577335 0.866695 0.839909
v -0.713243 0.630390 1.156160
v -0.801628 0.482821 1.345426
v -0.824005 0.354666 1.405510
v -0.795834 0.227508 1.404634
v -0.740433 0.156841 1.338979
v -0.395844 0.204643 0.747919
v 0.227251 6.963207 4.135650
v 0.446749 6.506314 4.308200
v 0.678322 6.010478 4.471699
v 0.861303 5.579231 4.558732
v 1.129866 4.673509 4.280313
v 1.710730 2.644999 4.989571
v 1.900414 2.482520 5.346745
v 1.982199 2.317015 5.382111
v 2.015928 2.174959 5.325405
v 1.965464 2.142682 5.126516
v 1.911091 2.176688 4.963499
v 1.577702 3.140753 3.777728
v 1.357801 3.448596 3.674591
v 1.003302 4.137923 3.232176
v 0.684042 4.538064 2.649339
v 0.224566 5.075340 1.556023
v 0.273081 3.962513 0.593708
v 0.363640 1.757673 0.386363
v 0.428816 1.198290 0.524392
v 0.514002 0.867705 0.864620
v 0.635979 0.630768 1.186528
v 0.715052 0.483010 1.379513
v 0.735231 0.354666 1.440513
v 0.709814 0.227508 1.438436
v 0.660166 0.156841 1.370420
v 0.351357 0.204643 0.764873
v 0.517326 7.173437 3.929659
v 1.014145 6.918439 3.904385
v 1.537746 6.635383 3.859393
v 1.951277 6.372186 3.781767
v 2.557678 5.712891 3.261888
v 4.308493 4.298091 3.085344
v 4.737293 4.155142 3.142640
v 4.922108 4.064741 3.104416
v 4.998291 3.953644 3.017374
v 4.884228 3.875014 2.863903
v 4.761356 3.859088 2.749812
v 4.007959 4.374535 2.616245
v 3.073669 4.697665 2.450706
v 2.272474 5.061406 2.327314
v 1.550091 5.167987 2.032118
v 0.663986 5.302596 1.385041
v 0.620489 4.176951 0.298042
v 0.825754 1.768014 -0.083412
v 0.973465 1.175458 -0.033916
v 1.165995 0.840357 0.195890
v 1.441441 0.620537 0.364733
v 1.620323 0.477897 0.457064
v 1.665771 0.354665 0.493284
v 1.608541 0.227507 0.523750
v 1.496334 0.156841 0.519543
v 0.798401 0.204643 0.306083
v 0.513266 7.482761 3.626572
v 1.006184 7.524826 3.310225
v 1.525677 7.554847 2.958469
v 1.935961 7.538912 2.638566
v 2.537601 7.184534 1.715281
v 4.400854 6.695277 0.219767
v 4.826288 6.801182 0.019548
v 5.009653 6.821288 -0.126953
v 5.085239 6.755743 -0.258631
v 4.972069 6.608911 -0.345272
v 4.850163 6.519516 -0.387377
v 4.102680 6.584485 -0.079550
v 3.049541 6.535502 0.649926
v 2.254637 6.420185 0.995934
v 1.537924 6.094832 1.123960
v 0.877464 5.794888 0.993345
v 0.615618 4.492470 -0.136990
v 0.819273 1.783228 -0.774622
v 0.965824 1.141863 -0.855392
v 1.156841 0.800118 -0.788054
v 1.430126 0.605484 -0.844427
v 1.607603 0.470373 -0.900194
v 1.652697 0.354665 -0.900434
v 1.595917 0.227507 -0.822086
v 1.484589 0.156840 -0.732410
v 0.792133 0.204643 -0.368963
v 0.163944 7.704452 3.409352
v 0.323040 7.959417 2.884398
v 0.491032 8.213817 2.312786
v 0.623823 8.375092 1.819247
v 0.818865 8.338243 0.689471
v 1.410994 8.789276 -1.696543
v 1.548618 9.086472 -2.070517
v 1.607977 9.185776 -2.294621
v 1.632465 9.152880 -2.458286
v 1.595848 8.957167 -2.497034
v 1.556387 8.815119 -2.487547
v 1.342192 8.559465 -1.863375
v 0.984055 7.852660 -0.640675
v 0.726799 7.394007 0.041746
v 0.495333 6.759092 0.473094
v 0.328638 6.274590 0.600038
v 0.197311 4.718598 -0.448772
v 0.262875 1.794132 -1.270006
v 0.310066 1.117786 -1.444136
v 0.371883 0.771279 -1.493237
v 0.460459 0.594696 -1.711020
v 0.517797 0.464980 -1.872929
v 0.532482 0.354664 -1.899298
v 0.513983 0.227506 -1.786633
v 0.477953 0.156839 -1.629671
v 0.253855 0.204643 -0.852762
v -0.248899 7.680637 3.432687
v -0.486794 7.912732 2.930141
v -0.737293 8.143028 2.382149
v -0.935053 8.285266 1.907261
v -1.224831 8.220502 0.804838
v -1.853249 8.856791 -1.276590
v -2.058359 9.134247 -1.631224
v -2.146734 9.225043 -1.846991
v -2.183149 9.188639 -2.007219
v -2.128593 8.998178 -2.051113
v -2.069838 8.861786 -2.047169
v -1.709568 8.638584 -1.456980
v -1.471937 7.711166 -0.502031
v -1.088772 7.289396 0.144249
v -0.742964 6.687735 0.543013
v -0.246336 6.389217 0.494855
v -0.298069 4.694307 -0.415281
v -0.396475 1.792961 -1.216789
v -0.467279 1.120372 -1.380890
v -0.559355 0.774377 -1.417482
v -0.690994 0.595855 -1.617928
v -0.776611 0.465560 -1.768433
v -0.798283 0.354664 -1.791996
v -0.771000 0.227506 -1.683016
v -0.717337 0.156839 -1.533285
v -0.383556 0.204643 -0.800791
v -0.503033 7.500232 3.609453
v -0.986124 7.559074 3.276669
v -1.495260 7.606776 2.907588
v -1.897366 7.604805 2.574001
v -2.487013 7.328574 1.678782
v -4.119242 6.960715 0.428986
v -4.536194 7.088638 0.220871
v -4.715902 7.114985 0.068253
v -4.789982 7.052012 -0.065945
v -4.679070 6.901328 -0.148813
v -4.559593 6.807785 -0.186852
v -3.471952 6.847312 0.145906
v -2.988747 6.639298 0.548223
v -2.209688 6.496925 0.920740
v -1.507265 6.147178 1.072670
v -0.625357 6.197194 0.638927
v -0.603346 4.510289 -0.161558
v -0.802940 1.784087 -0.813660
v -0.946569 1.139966 -0.901787
v -1.133780 0.797845 -0.843624
v -1.401615 0.604634 -0.912718
v -1.575556 0.469948 -0.976849
v -1.619747 0.354665 -0.979147
v -1.564100 0.227506 -0.898094
v -1.454992 0.156840 -0.803118
v -0.776342 0.204643 -0.407089
v -0.535334 7.204180 3.899536
v -1.049444 6.978707 3.845333
v -1.591270 6.726767 3.769852
v -2.019196 6.488144 3.668146
v -2.646704 5.864886 3.112957
v -4.005880 4.745372 2.599661
v -4.449606 4.627905 2.631989
v -4.640854 4.548487 2.583002
v -4.719688 4.441917 2.491524
v -4.601654 4.356509 2.344695
v -4.474506 4.333282 2.237759
v -3.694887 4.803955 2.148062
v -3.180655 4.880324 2.271730
v -2.351572 5.196452 2.194992
v -1.604046 5.260104 1.941858
v -0.883627 5.739364 1.001981
v -0.642086 4.208311 0.254807
v -0.854496 1.769526 -0.152109
v -1.007349 1.172119 -0.115561
v -1.206579 0.836358 0.098099
v -1.491613 0.619041 0.244556
v -1.676722 0.477149 0.322168
v -1.723753 0.354666 0.354766
v -1.664532 0.227507 0.389990
v -1.548416 0.156841 0.395113
v -0.826191 0.204643 0.238991
vt 0.099087 0.076007
vt 0.101895 0.077113
vt 0.705414 0.034868
vt 0.096787 0.084464
vt 0.105973 0.075339
vt 0.108957 0.074041
vt 0.768833 0.041076
vt 0.109713 0.083222
vt 0.110156 0.071015
vt 0.111809 0.066843
vt 0.831162 0.054303
vt 0.117579 0.075192
vt 0.110588 0.064018
vt 0.108736 0.059737
vt 0.355799 0.033288
vt 0.118391 0.062202
vt 0.105848 0.058585
vt 0.101583 0.056884
vt 0.408837 0.026650
vt 0.109485 0.052116
vt 0.097763 0.058526
vt 0.094433 0.059957
vt 0.462203 0.033029
vt 0.094313 0.052009
vt 0.093003 0.063563
vt 0.091580 0.067154
vt 0.516823 0.049921
vt 0.085401 0.061363
vt 0.093184 0.070864
vt 0.094653 0.074261
vt 0.640871 0.039469
vt 0.085738 0.074917
vt 0.704963 0.043036
vt 0.681131 0.042717
vt 0.766385 0.048395
vt 0.740441 0.044257
vt 0.299859 0.057258
vt 0.792262 0.053117
vt 0.355873 0.038656
vt 0.323766 0.049503
vt 0.408911 0.031534
vt 0.377336 0.035548
vt 0.462362 0.038341
vt 0.437360 0.035041
vt 0.578804 0.059127
vt 0.488980 0.047122
vt 0.642953 0.046919
vt 0.613315 0.052058
vt 0.682381 0.051192
vt 0.704682 0.050631
vt 0.704602 0.055653
vt 0.682784 0.057007
vt 0.739094 0.052663
vt 0.763873 0.054978
vt 0.762525 0.059934
vt 0.738222 0.058463
vt 0.788629 0.059968
vt 0.827603 0.068651
vt 0.300975 0.070059
vt 0.786697 0.065794
vt 0.323637 0.056390
vt 0.355984 0.044593
vt 0.357133 0.050746
vt 0.325508 0.062666
vt 0.377295 0.041905
vt 0.408971 0.037263
vt 0.409011 0.043900
vt 0.378169 0.048986
vt 0.437400 0.041386
vt 0.462403 0.044245
vt 0.461340 0.050413
vt 0.436688 0.048497
vt 0.488961 0.053960
vt 0.519939 0.063839
vt 0.584226 0.071923
vt 0.487260 0.060350
vt 0.616687 0.059019
vt 0.645214 0.053756
vt 0.646429 0.058868
vt 0.618572 0.064919
vt 0.684439 0.081542
vt 0.704441 0.079566
vt 0.704271 0.096410
vt 0.687675 0.098046
vt 0.733492 0.082803
vt 0.755204 0.084340
vt 0.746745 0.100807
vt 0.728665 0.099166
vt 0.775661 0.091084
vt 0.804058 0.098997
vt 0.787395 0.113763
vt 0.763812 0.106468
vt 0.337514 0.090302
vt 0.363561 0.081457
vt 0.365497 0.104157
vt 0.340995 0.109428
vt 0.382539 0.081321
vt 0.409129 0.077033
vt 0.409130 0.102192
vt 0.383283 0.104519
vt 0.433128 0.081004
vt 0.455112 0.081250
vt 0.453139 0.104032
vt 0.432531 0.104402
vt 0.476651 0.088861
vt 0.499790 0.094809
vt 0.494182 0.112123
vt 0.473550 0.108621
vt 0.629896 0.090525
vt 0.653266 0.083488
vt 0.661368 0.100100
vt 0.641884 0.106175
vt 0.704043 0.129913
vt 0.689897 0.131093
vt 0.740102 0.133406
vt 0.724884 0.131938
vt 0.337056 0.135833
vt 0.754630 0.137323
vt 0.371980 0.133073
vt 0.350684 0.135017
vt 0.409121 0.132096
vt 0.386870 0.132731
vt 0.446571 0.133130
vt 0.429261 0.132692
vt 0.633229 0.141881
vt 0.464320 0.134764
vt 0.667612 0.132933
vt 0.651080 0.137205
vt 0.684601 0.363394
vt 0.693173 0.274804
vt 0.703378 0.275769
vt 0.751903 0.720541
vt 0.714789 0.365675
vt 0.718464 0.274444
vt 0.729523 0.273452
vt 0.803242 0.692359
vt 0.737358 0.360758
vt 0.740516 0.270949
vt 0.755713 0.267297
vt 0.817724 0.674711
vt 0.349711 0.321528
vt 0.366249 0.244151
vt 0.381689 0.239470
vt 0.798488 0.641789
vt 0.384778 0.311866
vt 0.392661 0.238033
vt 0.409008 0.236485
vt 0.769064 0.626608
vt 0.418101 0.308370
vt 0.423800 0.238320
vt 0.436546 0.239964
vt 0.733615 0.625275
vt 0.441427 0.313890
vt 0.449231 0.243861
vt 0.461549 0.247434
vt 0.716619 0.642243
vt 0.641317 0.350759
vt 0.664602 0.270317
vt 0.677002 0.273291
vt 0.726363 0.704492
vt 0.750236 0.736383
vt 0.735114 0.729178
vt 0.832295 0.692536
vt 0.815094 0.700738
vt 0.849706 0.651414
vt 0.839608 0.675116
vt 0.813512 0.593993
vt 0.825608 0.619822
vt 0.769396 0.576491
vt 0.795671 0.586905
vt 0.703777 0.591948
vt 0.724129 0.583768
vt 0.684293 0.634321
vt 0.694001 0.613203
vt 0.711133 0.717617
vt 0.703475 0.698465
vt 0.793009 0.739247
vt 0.726536 0.752503
vt 0.852480 0.712029
vt 0.827359 0.723447
vt 0.862916 0.635931
vt 0.862706 0.686676
vt 0.833726 0.573285
vt 0.851259 0.611028
vt 0.747617 0.546305
vt 0.807637 0.563074
vt 0.683702 0.571640
vt 0.713440 0.559812
vt 0.668766 0.677538
vt 0.669579 0.602759
vt 0.691504 0.736002
vt 0.680676 0.708054
vt 0.717131 0.777590
vt 0.747113 0.791570
vt 0.807075 0.803418
vt 0.703290 0.820868
vt 0.840741 0.747843
vt 0.874763 0.732521
vt 0.888850 0.751887
vt 0.849658 0.790564
vt 0.888498 0.698258
vt 0.907818 0.651055
vt 0.916305 0.639369
vt 0.904765 0.712093
vt 0.879766 0.600165
vt 0.856102 0.549240
vt 0.870482 0.540985
vt 0.898059 0.600249
vt 0.820887 0.535412
vt 0.768716 0.514991
vt 0.747826 0.500215
vt 0.829477 0.524741
vt 0.701585 0.531976
vt 0.661440 0.548082
vt 0.647174 0.540058
vt 0.693908 0.521102
vt 0.642420 0.590088
vt 0.623260 0.631983
vt 0.620558 0.681946
vt 0.611118 0.577492
vt 0.655225 0.717586
vt 0.669821 0.755344
vt 0.656128 0.773802
vt 0.619289 0.734732
vt 0.694619 0.841046
vt 0.402809 0.879956
vt 0.139135 0.889238
vt 0.442094 0.834652
vt 0.863330 0.809549
vt 0.059630 0.803383
vt 0.063876 0.800819
vt 0.098552 0.850705
vt 0.940868 0.718619
vt 0.018851 0.689453
vt 0.051960 0.569819
vt 0.041781 0.750619
vt 0.925400 0.584974
vt 0.132250 0.492258
vt 0.135651 0.495867
vt 0.086370 0.539930
vt 0.831128 0.469872
vt 0.238725 0.450204
vt 0.310670 0.432015
vt 0.191066 0.470295
vt 0.683920 0.469184
vt 0.430025 0.478993
vt 0.426485 0.483555
vt 0.366958 0.454968
vt 0.584983 0.560605
vt 0.517570 0.568555
vt 0.485615 0.645857
vt 0.470937 0.520121
vt 0.594652 0.739895
vt 0.473316 0.765894
vt 0.468965 0.763789
vt 0.490595 0.707664
vt 0.436592 0.832065
vt 0.392718 0.874432
vt 0.148618 0.881383
vt 0.432304 0.829398
vt 0.103704 0.847103
vt 0.069679 0.797769
vt 0.073462 0.793837
vt 0.107802 0.843822
vt 0.047687 0.748372
vt 0.029520 0.683118
vt 0.058934 0.578088
vt 0.052400 0.746069
vt 0.090092 0.544803
vt 0.139280 0.500533
vt 0.142488 0.503906
vt 0.093589 0.548127
vt 0.193736 0.475205
vt 0.242959 0.461336
vt 0.307157 0.443899
vt 0.195287 0.479263
vt 0.364503 0.460492
vt 0.422442 0.489118
vt 0.419874 0.493719
vt 0.362277 0.464813
vt 0.466482 0.524677
vt 0.508542 0.577308
vt 0.473568 0.644147
vt 0.462723 0.528009
vt 0.484637 0.706530
vt 0.463019 0.761461
vt 0.457941 0.760358
vt 0.479839 0.705353
vt 0.355317 0.767636
vt 0.339848 0.791586
vt 0.316790 0.760281
vt 0.329445 0.743186
vt 0.168448 0.771258
vt 0.144866 0.750049
vt 0.173592 0.728431
vt 0.191474 0.743389
vt 0.135785 0.720165
vt 0.123095 0.679111
vt 0.159340 0.675263
vt 0.167779 0.706120
vt 0.150528 0.596151
vt 0.180134 0.567704
vt 0.197750 0.591488
vt 0.176429 0.613371
vt 0.207627 0.560227
vt 0.247293 0.547631
vt 0.247740 0.578993
vt 0.217652 0.586904
vt 0.335879 0.549397
vt 0.370009 0.561226
vt 0.349142 0.586302
vt 0.324062 0.578661
vt 0.395404 0.590291
vt 0.421264 0.617136
vt 0.385534 0.629393
vt 0.366942 0.607922
vt 0.385297 0.696709
vt 0.381710 0.731457
vt 0.349649 0.716958
vt 0.350557 0.691414
vt 0.221875 0.746446
vt 0.317772 0.731193
vt 0.187709 0.718705
vt 0.202205 0.730272
vt 0.178065 0.633205
vt 0.183448 0.700858
vt 0.205626 0.603567
vt 0.189135 0.621428
vt 0.296147 0.586323
vt 0.221677 0.600226
vt 0.339517 0.599017
vt 0.319353 0.593338
vt 0.335364 0.668334
vt 0.353328 0.616573
vt 0.334203 0.710687
vt 0.334593 0.690415
vt 0.101739 0.066998
vt 0.297314 0.695713
vt 0.291482 0.702380
vt 0.287788 0.706587
vt 0.305411 0.646261
vt 0.226532 0.698986
vt 0.221525 0.695300
vt 0.220296 0.689237
vt 0.218596 0.680888
vt 0.219315 0.638834
vt 0.224559 0.632497
vt 0.230007 0.631630
vt 0.238043 0.630335
vt 0.309635 0.627874
vt 0.316553 0.629437
vt 0.320930 0.635577
vt 0.325282 0.641681
vt 0.297177 0.688896
vt 0.359327 0.469743
vt 0.414688 0.498142
vt 0.405525 0.510556
vt 0.352804 0.480958
vt 0.196991 0.484086
vt 0.305621 0.450512
vt 0.301597 0.466097
vt 0.199880 0.495552
vt 0.098751 0.551851
vt 0.145064 0.509109
vt 0.151813 0.520754
vt 0.109349 0.560522
vt 0.058750 0.742281
vt 0.065506 0.580497
vt 0.079359 0.586559
vt 0.072317 0.735725
vt 0.113412 0.838443
vt 0.080470 0.790086
vt 0.093937 0.780693
vt 0.124372 0.827788
vt 0.426294 0.824785
vt 0.153164 0.873813
vt 0.161290 0.857817
vt 0.414547 0.815488
vt 0.473116 0.703099
vt 0.451198 0.756320
vt 0.436421 0.750286
vt 0.459004 0.700020
vt 0.457423 0.531726
vt 0.465876 0.643809
vt 0.449408 0.645812
vt 0.446614 0.540615
vt 0.327711 0.614582
vt 0.314188 0.611112
vt 0.298717 0.607052
vt 0.226097 0.616365
vt 0.215359 0.618363
vt 0.204694 0.630553
vt 0.197649 0.638595
vt 0.202448 0.694767
vt 0.205080 0.706675
vt 0.214842 0.714151
vt 0.228114 0.724422
vt 0.304070 0.716335
vt 0.315254 0.702968
vt 0.315265 0.689518
vt 0.315329 0.674884
vt 0.336647 0.626482
vt 0.483038 0.071497
vt 0.591303 0.082264
vt 0.435189 0.060992
vt 0.458972 0.061783
vt 0.380059 0.061419
vt 0.409072 0.056075
vt 0.330332 0.073502
vt 0.359597 0.062085
vt 0.783070 0.076467
vt 0.308018 0.079943
vt 0.736582 0.069049
vt 0.760232 0.069749
vt 0.683158 0.067680
vt 0.704517 0.065492
vt 0.622267 0.075695
vt 0.648544 0.068848
vt 0.324050 0.043034
vt 0.114917 0.054258
vt 0.801112 0.656042
vt 0.368328 0.315930
vt 0.083176 0.536203
vt 0.891987 0.513216
vt 0.795547 0.046246
vt 0.301833 0.050345
vt 0.120677 0.067447
vt 0.809524 0.685113
vt 0.802748 0.665467
vt 0.336927 0.325107
vt 0.756396 0.354755
vt 0.037376 0.752699
vt 0.049643 0.565316
vt 0.947490 0.632345
vt 0.956793 0.652513
vt 0.741641 0.036100
vt 0.115325 0.080808
vt 0.797673 0.693761
vt 0.723464 0.365156
vt 0.094918 0.853498
vt 0.910558 0.767039
vt 0.679597 0.034563
vt 0.102039 0.086512
vt 0.741986 0.714318
vt 0.789989 0.695401
vt 0.702884 0.366363
vt 0.446036 0.836568
vt 0.134703 0.891589
vt 0.809632 0.827994
vt 0.756814 0.848409
vt 0.610411 0.045079
vt 0.088496 0.081221
vt 0.725898 0.694099
vt 0.655990 0.358050
vt 0.495060 0.708933
vt 0.635234 0.788378
vt 0.489018 0.040772
vt 0.578043 0.051711
vt 0.082735 0.068032
vt 0.725101 0.633774
vt 0.725376 0.682743
vt 0.625445 0.342851
vt 0.457297 0.318896
vt 0.474813 0.516744
vt 0.490873 0.647273
vt 0.591988 0.676997
vt 0.571826 0.631303
vt 0.437151 0.029897
vt 0.088086 0.054671
vt 0.740334 0.624618
vt 0.426470 0.309627
vt 0.369212 0.450326
vt 0.625722 0.512897
vt 0.377701 0.030378
vt 0.101461 0.048965
vt 0.786624 0.635636
vt 0.748044 0.623865
vt 0.408638 0.307516
vt 0.188424 0.466432
vt 0.313143 0.426557
vt 0.750098 0.464487
vt 0.768157 0.464749
vt 0.824525 0.074340
vt 0.817219 0.084473
vt 0.517644 0.069667
vt 0.510658 0.079613
vt 0.518780 0.056837
vt 0.581277 0.066154
vt 0.830233 0.061692
vt 0.298675 0.064246
vt 0.318957 0.094914
vt 0.604177 0.097182
vt 0.774442 0.142666
vt 0.356242 0.247055
vt 0.481392 0.136002
vt 0.651014 0.266976
vt 0.602749 0.637753
vt 0.759429 0.824796
vt 0.927078 0.657274
vt 0.768827 0.501044
vt 0.655409 0.633743
vt 0.639240 0.676291
vt 0.748720 0.762965
vt 0.794176 0.768932
vt 0.877171 0.651796
vt 0.895476 0.633836
vt 0.769090 0.547908
vt 0.747921 0.513927
vt 0.513484 0.572335
vt 0.478911 0.644631
vt 0.398555 0.877596
vt 0.145001 0.885730
vt 0.023383 0.686259
vt 0.054856 0.575368
vt 0.240808 0.455252
vt 0.308276 0.438672
vt 0.345619 0.638267
vt 0.297026 0.681462
vt 0.297000 0.724776
vt 0.233369 0.704024
vt 0.198749 0.678419
vt 0.215871 0.643015
vt 0.241899 0.613268
vt 0.301706 0.626086
vt 0.367538 0.633911
vt 0.307439 0.744331
vt 0.177244 0.676309
vt 0.245468 0.594666
vt 0.481064 0.591134
vt 0.388004 0.660205
vt 0.371802 0.851396
vt 0.199695 0.800733
vt 0.058819 0.678765
vt 0.130925 0.614713
vt 0.246985 0.486481
vt 0.297357 0.534051
vt 0.503822 0.580221
vt 0.496541 0.583393
vt 0.458629 0.758552
vt 0.388315 0.871127
vt 0.382422 0.864938
vt 0.074655 0.795677
vt 0.034777 0.681843
vt 0.042342 0.680188
vt 0.141175 0.504772
vt 0.243961 0.466113
vt 0.244998 0.472145
vt 0.418276 0.492524
vt 0.233343 0.648372
vt 0.237791 0.685288
vt 0.279553 0.689854
vt 0.352295 0.663668
vt 0.294769 0.568860
vt 0.162124 0.627862
vt 0.215986 0.764533
vt 0.695264 0.677686
vt 0.747424 0.574450
vt 0.833649 0.636787
vt 0.791764 0.711744
vt 0.620612 0.112464
vt 0.324551 0.112042
vn -0.012953 -0.999416 0.031621
vn 0.003053 -0.999292 0.037509
vn -0.007000 -0.996233 -0.086433
vn 0.018802 -0.998759 -0.046126
vn 0.013010 -0.999420 0.031487
vn 0.025765 -0.999345 0.025409
vn -0.066143 -0.996009 -0.059925
vn -0.017748 -0.998901 -0.043370
vn 0.032114 -0.999394 0.013394
vn 0.039009 -0.999236 0.002358
vn -0.091713 -0.995784 0.001847
vn -0.048873 -0.998594 -0.020526
vn 0.033543 -0.999339 -0.013989
vn 0.031119 -0.999142 -0.027346
vn -0.070622 -0.994884 0.072238
vn -0.057175 -0.998076 0.024009
vn 0.014386 -0.999290 -0.034819
vn 0.001019 -0.999016 -0.044330
vn -0.002555 -0.993737 0.111711
vn -0.024936 -0.997832 0.060908
vn -0.014164 -0.999302 -0.034576
vn -0.028778 -0.999161 -0.029125
vn 0.068931 -0.994326 0.081024
vn 0.023294 -0.998094 0.057154
vn -0.033066 -0.999358 -0.013790
vn -0.039702 -0.999212 -0.000333
vn 0.096520 -0.995295 0.008534
vn 0.050429 -0.998503 0.021186
vn -0.031839 -0.999405 0.013279
vn -0.026401 -0.999231 0.028987
vn 0.061599 -0.996176 -0.061962
vn 0.046152 -0.998746 -0.019387
vn -0.048556 -0.798065 -0.600611
vn 0.226675 -0.800594 -0.554679
vn -0.460904 -0.767307 -0.445878
vn -0.226058 -0.804100 -0.549836
vn -0.730807 -0.681804 -0.032633
vn -0.627375 -0.733103 -0.262605
vn -0.635458 -0.518936 0.571751
vn -0.756103 -0.572838 0.316489
vn -0.020758 -0.400120 0.916228
vn -0.347307 -0.407158 0.844749
vn 0.603961 -0.495400 0.624348
vn 0.344333 -0.414087 0.842596
vn 0.749654 -0.661572 0.018482
vn 0.746997 -0.586709 0.312677
vn 0.431645 -0.773765 -0.463648
vn 0.623132 -0.737343 -0.260829
vn 0.358896 -0.316051 -0.878240
vn -0.076033 -0.316621 -0.945500
vn -0.062890 0.626260 -0.777074
vn 0.291242 0.633577 -0.716769
vn -0.359340 -0.326595 -0.874191
vn -0.670161 -0.249377 -0.699068
vn -0.535718 0.643800 -0.546378
vn -0.293436 0.631402 -0.717793
vn -0.911386 -0.153496 -0.381857
vn -0.988692 -0.106630 -0.105440
vn -0.743679 0.665607 -0.062519
vn -0.687506 0.664667 -0.292495
vn -0.920295 0.072369 0.384475
vn -0.771533 0.097449 0.628681
vn -0.555432 0.685322 0.470988
vn -0.670474 0.689008 0.275193
vn -0.372451 0.205348 0.905048
vn -0.021527 0.201932 0.979163
vn -0.016301 0.693066 0.720690
vn -0.275043 0.696180 0.663088
vn 0.370765 0.203085 0.906250
vn 0.726301 0.117389 0.677279
vn 0.519938 0.688393 0.505746
vn 0.273477 0.696591 0.663303
vn 0.921037 0.060124 0.384807
vn 0.996427 -0.074879 -0.039074
vn 0.740870 0.671552 -0.011384
vn 0.671363 0.687988 0.275581
vn 0.910171 -0.161768 -0.381341
vn 0.630571 -0.266697 -0.728871
vn 0.510008 0.638916 -0.575915
vn 0.688344 0.663651 -0.292832
vn 0.316844 0.531369 -0.785657
vn -0.063771 0.603520 -0.794793
vn -0.077689 0.247762 -0.965701
vn 0.367466 0.233325 -0.900293
vn -0.317257 0.538963 -0.780299
vn -0.536685 0.659987 -0.525725
vn -0.649212 0.287240 -0.704285
vn -0.370619 0.233262 -0.899016
vn -0.708050 0.632827 -0.313362
vn -0.667722 0.742851 -0.048163
vn -0.914572 0.385851 -0.121150
vn -0.874534 0.310968 -0.372142
vn -0.639187 0.729821 0.242490
vn -0.467243 0.791956 0.393053
vn -0.678489 0.510700 0.528051
vn -0.840197 0.425529 0.336146
vn -0.250066 0.776669 0.578145
vn -0.013783 0.808580 0.588224
vn -0.019237 0.570268 0.821233
vn -0.335451 0.509748 0.792231
vn 0.248192 0.776888 0.578659
vn 0.435911 0.794380 0.423015
vn 0.636828 0.519032 0.570137
vn 0.332606 0.509822 0.793382
vn 0.637049 0.731968 0.241644
vn 0.666063 0.745892 -0.002419
vn 0.915834 0.396805 -0.061593
vn 0.839324 0.427640 0.335649
vn 0.705825 0.635744 -0.312476
vn 0.510538 0.657832 -0.553722
vn 0.612408 0.281052 -0.738895
vn 0.874351 0.311520 -0.372110
vn -0.077046 0.276815 -0.957829
vn 0.367152 0.258473 -0.893528
vn -0.667053 0.239944 -0.705313
vn -0.370718 0.258339 -0.892093
vn -0.982988 0.153278 -0.101190
vn -0.912146 0.178212 -0.369094
vn -0.764066 0.057703 0.642552
vn -0.911703 0.072032 0.404485
vn -0.022089 0.019237 0.999571
vn -0.369769 0.011633 0.929051
vn 0.718396 0.053362 0.693584
vn 0.366200 0.010732 0.930474
vn 0.988650 0.145852 -0.036033
vn 0.911714 0.070938 0.404655
vn 0.626290 0.244896 -0.740126
vn 0.912204 0.177962 -0.369071
vn 0.385464 0.250953 -0.887941
vn 0.399034 0.356817 -0.844662
vn -0.007358 0.373432 -0.927628
vn 0.072283 0.247623 -0.966156
vn -0.245324 0.269558 -0.931212
vn -0.338598 0.327166 -0.882221
vn -0.632151 0.281819 -0.721777
vn -0.478497 0.162713 -0.862882
vn -0.713550 -0.031104 -0.699913
vn -0.880516 0.185065 -0.436396
vn -0.975000 0.090910 -0.202755
vn -0.747808 -0.202764 -0.632195
vn -0.776510 -0.543373 -0.319027
vn -0.955480 -0.082896 0.283171
vn -0.803629 -0.170183 0.570279
vn -0.627866 -0.727785 -0.275887
vn -0.340177 -0.940356 -0.003214
vn -0.412372 -0.287025 0.864619
vn -0.090819 -0.279269 0.955908
vn -0.136037 -0.988929 -0.059273
vn 0.206407 -0.978092 -0.027056
vn 0.341736 -0.267511 0.900919
vn 0.736233 -0.197125 0.647382
vn 0.444670 -0.882741 -0.151778
vn 0.667442 -0.726090 -0.165269
vn 0.899684 -0.153176 0.408785
vn 0.998517 0.004429 -0.054258
vn 0.739627 -0.528066 -0.417251
vn 0.818825 -0.229867 -0.526010
vn 0.938762 0.108148 -0.327156
vn 0.625404 0.291072 -0.723980
vn 0.570563 0.009503 -0.821199
vn -0.008418 -0.527579 -0.849464
vn 0.103079 -0.498647 -0.860654
vn -0.159487 -0.578818 -0.799709
vn -0.090823 -0.499433 -0.861579
vn -0.210727 -0.677100 -0.705074
vn -0.249350 -0.574846 -0.779344
vn -0.153738 -0.784652 -0.600571
vn -0.255831 -0.726263 -0.638038
vn -0.018635 -0.832822 -0.553227
vn -0.105044 -0.832824 -0.543480
vn 0.148174 -0.791026 -0.593567
vn 0.085055 -0.839425 -0.536779
vn 0.214393 -0.690621 -0.690709
vn 0.226902 -0.750075 -0.621211
vn 0.148533 -0.566963 -0.810241
vn 0.243162 -0.607201 -0.756426
vn 0.006755 -0.757041 -0.653333
vn -0.019377 -0.732747 -0.680225
vn 0.058084 -0.739942 -0.670159
vn 0.019117 -0.732235 -0.680784
vn 0.082520 -0.702255 -0.707127
vn 0.045678 -0.712660 -0.700021
vn 0.062234 -0.659311 -0.749290
vn 0.046379 -0.685125 -0.726948
vn 0.001860 -0.639049 -0.769164
vn 0.019104 -0.665754 -0.745926
vn -0.058402 -0.656402 -0.752147
vn -0.018455 -0.666856 -0.744958
vn -0.082499 -0.698238 -0.711096
vn -0.044554 -0.685738 -0.726483
vn -0.055166 -0.742180 -0.667926
vn -0.044813 -0.712434 -0.700307
vn -0.110428 -0.809668 -0.576406
vn -0.070312 -0.743696 -0.664810
vn -0.054252 -0.797224 -0.601241
vn -0.184202 -0.848193 -0.496626
vn 0.069940 -0.746599 -0.661587
vn 0.133340 -0.754571 -0.642529
vn 0.205499 -0.775169 -0.597397
vn 0.153711 -0.777650 -0.609617
vn 0.191317 -0.741823 -0.642726
vn 0.209013 -0.689421 -0.693551
vn 0.252780 -0.691356 -0.676853
vn 0.236335 -0.748666 -0.619391
vn 0.214124 -0.616771 -0.757459
vn 0.174609 -0.564100 -0.807033
vn 0.205408 -0.587554 -0.782680
vn 0.268939 -0.589104 -0.761990
vn 0.096509 -0.509162 -0.855243
vn 0.005726 -0.494804 -0.868986
vn 0.047246 -0.595299 -0.802114
vn 0.084719 -0.559999 -0.824151
vn -0.095630 -0.510331 -0.854645
vn -0.132913 -0.564734 -0.814500
vn -0.154384 -0.622671 -0.767103
vn -0.045673 -0.638252 -0.768471
vn -0.161060 -0.640542 -0.750843
vn -0.204658 -0.715277 -0.668202
vn -0.278133 -0.738270 -0.614492
vn -0.223404 -0.616680 -0.754849
vn -0.253443 -0.749549 -0.611509
vn -0.174701 -0.792044 -0.584932
vn -0.199929 -0.815722 -0.542794
vn -0.317083 -0.748731 -0.582117
vn -0.133211 -0.789931 -0.598552
vn -0.103895 -0.777402 -0.620364
vn -0.115226 0.076455 -0.990393
vn 0.256381 -0.014899 -0.966461
vn 0.150425 -0.755352 -0.637821
vn 0.134928 -0.738874 -0.660197
vn -0.525730 -0.129064 -0.840803
vn -0.309997 -0.004146 -0.950728
vn 0.119668 -0.726670 -0.676484
vn 0.093672 -0.697611 -0.710327
vn -0.704857 -0.510108 -0.492917
vn -0.662914 -0.290918 -0.689864
vn 0.145347 -0.647695 -0.747907
vn 0.063883 -0.675860 -0.734256
vn -0.536784 -0.817965 -0.206874
vn -0.644409 -0.693376 -0.322437
vn -0.003800 -0.679144 -0.733995
vn 0.055578 -0.683497 -0.727835
vn 0.057662 -0.995751 -0.071803
vn -0.266879 -0.961834 -0.060414
vn 0.047165 -0.755072 -0.653943
vn -0.084481 -0.706524 -0.702629
vn 0.413310 -0.897278 -0.155136
vn 0.267170 -0.962512 -0.046799
vn -0.090250 -0.661813 -0.744217
vn -0.145701 -0.749322 -0.645978
vn 0.709847 -0.543463 -0.448069
vn 0.641265 -0.696056 -0.322931
vn -0.149236 -0.738099 -0.657981
vn -0.118724 -0.739032 -0.663127
vn 0.500246 -0.070201 -0.863033
vn 0.642171 -0.317465 -0.697733
vn 0.378840 0.544290 -0.748484
vn -0.064742 0.707896 -0.703344
vn 0.035804 0.977434 0.208183
vn 0.302223 0.938699 0.165846
vn -0.467363 0.562350 -0.682154
vn -0.732716 0.405249 -0.546718
vn -0.463954 0.834637 0.296864
vn -0.340073 0.914747 0.218148
vn -0.914610 0.197591 -0.352771
vn -0.991717 -0.093610 -0.087951
vn -0.645453 0.526535 0.553309
vn -0.570605 0.721030 0.393098
vn -0.911129 -0.381916 0.154869
vn -0.769972 -0.555468 0.314004
vn -0.559331 0.209683 0.801986
vn -0.617101 0.335828 0.711622
vn -0.366493 -0.758054 0.539478
vn 0.024127 -0.857343 0.514181
vn -0.050368 -0.043712 0.997774
vn -0.261563 0.050023 0.963889
vn 0.383518 -0.725516 0.571438
vn 0.662619 -0.660917 0.352312
vn 0.533684 0.168237 0.828781
vn 0.260674 0.086506 0.961544
vn 0.915417 -0.369493 0.159647
vn 0.993773 -0.092920 -0.061486
vn 0.618858 0.589993 0.518578
vn 0.613515 0.343130 0.711239
vn 0.906564 0.146521 -0.395819
vn 0.683781 0.488876 -0.541705
vn 0.404576 0.864112 0.299380
vn 0.604176 0.706213 0.369099
vn 0.271416 0.945363 0.180619
vn 0.032044 0.965657 0.257836
vn -0.052719 0.995096 0.083695
vn 0.251535 0.962283 0.103640
vn -0.273677 0.930149 0.244795
vn -0.435337 0.848622 0.300536
vn -0.476130 0.855395 0.203962
vn -0.252146 0.961939 0.105332
vn -0.585032 0.716474 0.380003
vn -0.619164 0.566083 0.544230
vn -0.700783 0.526998 0.480807
vn -0.638554 0.695925 0.328538
vn -0.630619 0.322373 0.705971
vn -0.501426 0.279142 0.818933
vn -0.558856 0.112853 0.821550
vn -0.681531 0.268025 0.680939
vn -0.243978 0.145362 0.958825
vn -0.026818 0.146581 0.988835
vn -0.017392 -0.101604 0.994673
vn -0.294228 -0.067955 0.953316
vn 0.232702 0.170478 0.957490
vn 0.436981 0.284416 0.853320
vn 0.525878 0.082002 0.846598
vn 0.292506 -0.066200 0.953970
vn 0.573638 0.380082 0.725587
vn 0.601226 0.600900 0.526732
vn 0.711166 0.496194 0.498030
vn 0.679219 0.270631 0.682217
vn 0.599111 0.711022 0.368122
vn 0.419432 0.867783 0.266514
vn 0.466008 0.864175 0.189837
vn 0.650807 0.691141 0.314285
vn -0.031533 0.922828 0.383919
vn 0.154051 0.908457 0.388553
vn -0.279004 0.843263 0.459418
vn -0.154806 0.908031 0.389249
vn -0.408748 0.660337 0.629985
vn -0.386201 0.750994 0.535590
vn -0.326221 0.431579 0.841023
vn -0.406091 0.507064 0.760248
vn -0.009937 0.313309 0.949599
vn -0.174529 0.319030 0.931536
vn 0.306622 0.415465 0.856371
vn 0.173291 0.319256 0.931690
vn 0.410933 0.639979 0.649277
vn 0.405219 0.507648 0.760323
vn 0.263605 0.853325 0.449833
vn 0.385788 0.751015 0.535859
vn 0.000000 -1.000000 0.000000
vn 0.191314 0.819608 0.540038
vn 0.109319 0.861526 0.495805
vn -0.017534 0.871056 0.490870
vn -0.000500 0.701511 0.712659
vn -0.110668 0.861240 0.496002
vn -0.197468 0.812211 0.548926
vn -0.270877 0.749963 0.603474
vn -0.286455 0.680536 0.674399
vn -0.277530 0.584514 0.762443
vn -0.220193 0.526664 0.821060
vn -0.117200 0.463317 0.878409
vn -0.005496 0.449218 0.893405
vn 0.115516 0.463703 0.878428
vn 0.207523 0.519091 0.829143
vn 0.275348 0.585687 0.762335
vn 0.287249 0.669398 0.685123
vn 0.269095 0.749844 0.604418
vn 0.031665 0.639109 0.768464
vn 0.195000 0.631888 0.750128
vn 0.328524 0.448600 0.831162
vn 0.114594 0.444358 0.888490
vn -0.088167 0.518542 0.850495
vn -0.068370 0.534421 0.842449
vn -0.037423 0.333325 0.942069
vn -0.149957 0.360627 0.920577
vn -0.219580 0.614139 0.758035
vn -0.222949 0.574838 0.787309
vn -0.366638 0.433711 0.823086
vn -0.480249 0.454047 0.750468
vn -0.206585 0.742652 0.637017
vn -0.236462 0.672698 0.701116
vn -0.450308 0.630801 0.631912
vn -0.426274 0.746890 0.510339
vn -0.178252 0.794560 0.580432
vn -0.184507 0.771940 0.608330
vn -0.339668 0.831075 0.440385
vn -0.226061 0.872083 0.434014
vn 0.165425 0.822096 0.544787
vn 0.082920 0.813629 0.575440
vn 0.036071 0.910780 0.411314
vn 0.222831 0.901652 0.370636
vn 0.245758 0.746159 0.618749
vn 0.149879 0.774140 0.615014
vn 0.337737 0.849840 0.404605
vn 0.434772 0.748193 0.501179
vn 0.220415 0.611043 0.760292
vn 0.207755 0.741772 0.637662
vn 0.458193 0.673094 0.580520
vn 0.393342 0.512335 0.763410
vn 0.255862 0.471438 0.843967
vn 0.147766 0.385555 0.910776
vn -0.008354 0.386726 0.922157
vn -0.149010 0.385841 0.910452
vn -0.272641 0.484946 0.830960
vn -0.345769 0.545526 0.763443
vn -0.341674 0.675237 0.653692
vn -0.328663 0.752158 0.571173
vn -0.233358 0.827644 0.510440
vn -0.131917 0.885236 0.446045
vn -0.026354 0.894189 0.446914
vn 0.130911 0.885625 0.445569
vn 0.220307 0.836205 0.502221
vn 0.328532 0.752157 0.571250
vn 0.343312 0.658280 0.669929
vn 0.345483 0.545699 0.763449
vn 0.535295 0.818585 0.208273
vn 0.548841 0.835907 -0.005755
vn 0.222470 0.819935 0.527459
vn 0.390991 0.838248 0.380087
vn -0.223784 0.819911 0.526941
vn -0.012372 0.837990 0.545545
vn -0.535088 0.818749 0.208160
vn -0.417290 0.837569 0.352629
vn -0.536120 0.809848 -0.238161
vn -0.548869 0.834764 -0.043728
vn -0.225439 0.797158 -0.560103
vn -0.396052 0.827573 -0.397826
vn 0.224053 0.797253 -0.560525
vn -0.045486 0.820091 -0.570423
vn 0.536276 0.809733 -0.238200
vn 0.377014 0.826252 -0.418531
s 1
g pCylinder5
usemtl unwrapChekcerShaderSG
f 340/1/1 2/2/2 10/443/3 339/4/4
f 366/5/5 3/6/6 11/437/7 365/8/8
f 392/9/9 4/10/10 12/427/11 391/12/12
f 418/13/13 5/14/14 13/420/15 417/16/16
f 236/17/17 6/18/18 14/475/19 235/20/20
f 262/21/21 7/22/22 15/469/23 261/24/24
f 288/25/25 8/26/26 16/459/27 287/28/28
f 314/29/29 1/30/30 9/452/31 313/32/32
f 339/442/4 10/3/3 200/33/33 338/34/34
f 365/436/8 11/7/7 199/35/35 364/36/36
f 391/425/12 12/11/11 198/489/37 390/38/38
f 417/419/16 13/15/15 197/39/39 416/40/40
f 235/474/20 14/19/19 196/41/41 234/42/42
f 261/468/24 15/23/23 195/43/43 260/44/44
f 287/457/28 16/27/27 202/487/45 286/46/46
f 313/451/32 9/31/31 201/47/47 312/48/48
f 337/49/49 18/50/50 209/51/51 336/52/52
f 363/53/53 19/54/54 208/55/55 362/56/56
f 389/57/57 20/58/58 207/483/59 388/60/60
f 415/61/61 21/62/62 206/63/63 414/64/64
f 233/65/65 22/66/66 205/67/67 232/68/68
f 259/69/69 23/70/70 204/71/71 258/72/72
f 285/73/73 24/74/74 203/485/75 284/76/76
f 311/77/77 17/78/78 210/79/79 310/80/80
f 334/81/81 26/82/82 34/83/83 333/84/84
f 360/85/85 27/86/86 35/87/87 359/88/88
f 386/89/89 28/90/90 36/91/91 385/92/92
f 412/93/93 29/94/94 37/95/95 411/96/96
f 230/97/97 30/98/98 38/99/99 229/100/100
f 256/101/101 31/102/102 39/103/103 255/104/104
f 282/105/105 32/106/106 40/107/107 281/108/108
f 308/109/109 25/110/110 33/111/111 307/112/112
f 333/84/84 34/83/83 185/113/113 332/114/114
f 359/88/88 35/87/87 184/115/115 358/116/116
f 385/92/92 36/91/91 183/493/117 384/118/118
f 411/96/96 37/95/95 182/119/119 410/120/120
f 229/100/100 38/99/99 181/121/121 228/122/122
f 255/104/104 39/103/103 180/123/123 254/124/124
f 281/108/108 40/107/107 179/495/125 280/126/126
f 307/112/112 33/111/111 186/127/127 306/128/128
f 330/129/129 331/130/130 42/131/131 50/446/132
f 356/133/133 357/134/134 43/135/135 51/439/136
f 382/137/137 383/138/138 44/139/139 52/431/140
f 408/141/141 409/142/142 45/143/143 53/422/144
f 226/145/145 227/146/146 46/147/147 54/478/148
f 252/149/149 253/150/150 47/151/151 55/471/152
f 278/153/153 279/154/154 48/155/155 56/463/156
f 304/157/157 305/158/158 41/159/159 49/454/160
f 330/444/129 50/132/132 58/161/161 329/162/162
f 356/438/133 51/136/136 59/163/163 355/164/164
f 382/428/137 52/140/140 60/165/165 381/166/166
f 408/421/141 53/144/144 61/167/167 407/168/168
f 226/476/145 54/148/148 62/169/169 225/170/170
f 252/470/149 55/152/152 63/171/171 251/172/172
f 278/460/153 56/156/156 64/173/173 277/174/174
f 304/453/157 49/160/160 57/175/175 303/176/176
f 329/162/162 58/161/161 167/503/177 328/178/178
f 355/164/164 59/163/163 166/179/179 354/180/180
f 381/166/166 60/165/165 165/505/181 380/182/182
f 407/168/168 61/167/167 164/183/183 406/184/184
f 225/170/170 62/169/169 163/507/185 224/186/186
f 251/172/172 63/171/171 170/187/187 250/188/188
f 277/174/174 64/173/173 169/501/189 276/190/190
f 303/176/176 57/175/175 168/191/191 302/192/192
f 327/193/193 66/194/194 175/498/195 326/196/196
f 353/197/197 67/198/198 174/199/199 352/200/200
f 379/201/201 68/202/202 173/499/203 378/204/204
f 405/205/205 69/206/206 172/207/207 404/208/208
f 223/209/209 70/210/210 171/500/211 222/212/212
f 249/213/213 71/214/214 178/215/215 248/216/216
f 275/217/217 72/218/218 177/497/219 274/220/220
f 301/221/221 65/222/222 176/223/223 300/224/224
f 325/447/225 74/226/226 160/511/227 324/228/228
f 351/440/229 75/230/230 159/231/231 350/232/232
f 377/432/233 76/234/234 158/513/235 376/236/236
f 403/423/237 77/238/238 157/239/239 402/240/240
f 221/479/241 78/242/242 156/515/243 220/244/244
f 247/472/245 79/246/246 155/247/247 246/248/248
f 273/464/249 80/250/250 162/509/251 272/252/252
f 299/455/253 73/254/254 161/255/255 298/256/256
f 323/257/257 82/258/258 128/540/259 322/260/260
f 349/261/261 83/262/262 127/542/263 348/264/264
f 375/265/265 84/266/266 126/543/267 374/268/268
f 401/269/269 85/270/270 125/545/271 400/272/272
f 219/273/273 86/274/274 124/546/275 218/276/276
f 245/277/277 87/278/278 123/548/279 244/280/280
f 271/281/281 88/282/282 130/537/283 270/284/284
f 297/285/285 81/286/286 129/539/287 296/288/288
f 319/289/289 90/290/290 98/291/291 318/292/292
f 345/293/293 91/294/294 99/295/295 344/296/296
f 371/297/297 92/298/298 100/299/299 370/300/300
f 397/301/301 93/302/302 101/303/303 396/304/304
f 215/305/305 94/306/306 102/307/307 214/308/308
f 241/309/309 95/310/310 103/311/311 240/312/312
f 267/313/313 96/314/314 104/315/315 266/316/316
f 293/317/317 89/318/318 97/319/319 292/320/320
f 318/292/292 98/291/291 144/526/321 317/322/322
f 344/296/296 99/295/295 143/323/323 343/324/324
f 370/300/300 100/299/299 142/527/325 369/326/326
f 396/304/304 101/303/303 141/327/327 395/328/328
f 214/308/308 102/307/307 140/528/329 213/330/330
f 240/312/312 103/311/311 139/331/331 239/332/332
f 266/316/316 104/315/315 146/525/333 265/334/334
f 292/320/320 97/319/319 145/335/335 291/336/336
f 2/2/2 340/1/1 1/30/30 113/337/337
f 3/6/6 366/5/5 2/2/2 113/337/337
f 4/10/10 392/9/9 3/6/6 113/337/337
f 5/14/14 418/13/13 4/10/10 113/337/337
f 6/18/18 236/17/17 5/14/14 113/337/337
f 7/22/22 262/21/21 6/18/18 113/337/337
f 8/26/26 288/25/25 7/22/22 113/337/337
f 1/30/30 314/29/29 8/26/26 113/337/337
f 105/338/338 315/339/339 106/340/340 114/551/341
f 106/520/340 341/342/342 107/343/343 114/550/341
f 107/343/343 367/344/344 108/345/345 114/550/341
f 108/522/345 393/346/346 109/347/347 114/549/341
f 109/347/347 211/348/348 110/349/349 114/549/341
f 110/524/349 237/350/350 111/351/351 114/341/341
f 111/351/351 263/352/352 112/353/353 114/341/341
f 112/518/353 289/354/354 105/338/338 114/551/341
f 243/355/355 115/356/356 131/357/357 242/358/358
f 217/359/359 116/547/360 132/535/361 216/362/362
f 399/363/363 117/364/364 133/365/365 398/366/366
f 373/367/367 118/544/368 134/533/369 372/370/370
f 347/371/371 119/372/372 135/373/373 346/374/374
f 321/375/375 120/541/376 136/531/377 320/378/378
f 295/379/379 121/380/380 137/381/381 294/382/382
f 269/383/383 122/538/384 138/529/385 268/386/386
f 244/280/280 123/548/279 115/356/356 243/355/355
f 218/276/276 124/546/275 116/547/360 217/359/359
f 400/272/272 125/545/271 117/364/364 399/363/363
f 374/268/268 126/543/267 118/544/368 373/367/367
f 348/264/264 127/542/263 119/372/372 347/371/371
f 322/260/260 128/540/259 120/541/376 321/375/375
f 296/288/288 129/539/287 121/380/380 295/379/379
f 270/284/284 130/537/283 122/538/384 269/383/383
f 242/358/358 131/357/357 95/310/310 241/309/309
f 216/362/362 132/535/361 94/306/306 215/305/305
f 398/366/366 133/365/365 93/302/302 397/301/301
f 372/370/370 134/533/369 92/298/298 371/297/297
f 346/374/374 135/373/373 91/294/294 345/293/293
f 320/378/378 136/531/377 90/290/290 319/289/289
f 294/382/382 137/381/381 89/318/318 293/317/317
f 268/386/386 138/529/385 96/314/314 267/313/313
f 239/332/332 139/331/331 147/387/387 238/388/388
f 213/330/330 140/528/329 148/523/389 212/390/390
f 395/328/328 141/327/327 149/391/391 394/392/392
f 369/326/326 142/527/325 150/521/393 368/394/394
f 343/324/324 143/323/323 151/395/395 342/396/396
f 317/322/322 144/526/321 152/519/397 316/398/398
f 291/336/336 145/335/335 153/399/399 290/400/400
f 265/334/334 146/525/333 154/517/401 264/402/402
f 238/388/388 147/387/387 111/351/351 237/350/350
f 212/390/390 148/523/389 110/349/349 211/348/348
f 394/392/392 149/391/391 109/347/347 393/346/346
f 368/394/394 150/521/393 108/345/345 367/344/344
f 342/396/396 151/395/395 107/343/343 341/342/342
f 316/398/398 152/519/397 106/340/340 315/339/339
f 290/400/400 153/399/399 105/338/338 289/354/354
f 264/402/402 154/517/401 112/353/353 263/352/352
f 246/248/248 155/247/247 87/278/278 245/277/277
f 220/244/244 156/515/243 86/274/274 219/273/273
f 402/240/240 157/239/239 85/270/270 401/269/269
f 376/236/236 158/513/235 84/266/266 375/265/265
f 350/232/232 159/231/231 83/262/262 349/261/261
f 324/228/228 160/511/227 82/258/258 323/257/257
f 298/256/256 161/255/255 81/286/286 297/285/285
f 272/252/252 162/509/251 88/282/282 271/281/281
f 224/186/186 163/507/185 70/210/210 223/209/209
f 406/184/184 164/183/183 69/206/206 405/205/205
f 380/182/182 165/505/181 68/202/202 379/201/201
f 354/180/180 166/179/179 67/198/198 353/197/197
f 328/178/178 167/503/177 66/194/194 327/193/193
f 302/192/192 168/191/191 65/222/222 301/221/221
f 276/190/190 169/501/189 72/218/218 275/217/217
f 250/188/188 170/187/187 71/214/214 249/213/213
f 222/212/212 171/500/211 78/482/242 221/241/241
f 404/208/208 172/207/207 77/424/238 403/237/237
f 378/204/204 173/499/203 76/435/234 377/233/233
f 352/200/200 174/199/199 75/441/230 351/229/229
f 326/196/196 175/498/195 74/450/226 325/225/225
f 300/224/224 176/223/223 73/456/254 299/253/253
f 274/220/220 177/497/219 80/467/250 273/249/249
f 248/216/216 178/215/215 79/473/246 247/245/245
f 280/126/126 179/495/125 48/155/155 279/154/154
f 254/124/124 180/123/123 47/151/151 253/150/150
f 228/122/122 181/121/121 46/147/147 227/146/146
f 410/120/120 182/119/119 45/143/143 409/142/142
f 384/118/118 183/493/117 44/139/139 383/138/138
f 358/116/116 184/115/115 43/135/135 357/134/134
f 332/114/114 185/113/113 42/131/131 331/130/130
f 306/128/128 186/127/127 41/159/159 305/158/158
f 283/403/403 187/486/404 32/106/106 282/105/105
f 257/405/405 188/406/406 31/102/102 256/101/101
f 231/407/407 189/408/408 30/98/98 230/97/97
f 413/409/409 190/410/410 29/94/94 412/93/93
f 387/411/411 191/484/412 28/90/90 386/89/89
f 361/413/413 192/414/414 27/86/86 360/85/85
f 335/415/415 193/416/416 26/82/82 334/81/81
f 309/417/417 194/418/418 25/110/110 308/109/109
f 260/44/44 195/43/43 23/70/70 259/69/69
f 234/42/42 196/41/41 22/66/66 233/65/65
f 416/40/40 197/39/39 21/62/62 415/61/61
f 390/38/38 198/489/37 20/58/58 389/57/57
f 364/36/36 199/35/35 19/54/54 363/53/53
f 338/34/34 200/33/33 18/50/50 337/49/49
f 312/48/48 201/47/47 17/78/78 311/77/77
f 286/46/46 202/487/45 24/74/74 285/73/73
f 284/76/76 203/485/75 187/486/404 283/403/403
f 258/72/72 204/71/71 188/406/406 257/405/405
f 232/68/68 205/67/67 189/408/408 231/407/407
f 414/64/64 206/63/63 190/410/410 413/409/409
f 388/60/60 207/483/59 191/484/412 387/411/411
f 362/56/56 208/55/55 192/414/414 361/413/413
f 336/52/52 209/51/51 193/416/416 335/415/415
f 310/80/80 210/79/79 194/418/418 309/417/417
f 149/391/391 212/390/390 211/348/348 109/347/347
f 141/327/327 213/330/330 212/390/390 149/391/391
f 101/303/303 214/308/308 213/330/330 141/327/327
f 93/302/302 215/305/305 214/308/308 101/303/303
f 133/365/365 216/362/362 215/305/305 93/302/302
f 117/364/364 217/359/359 216/362/362 133/365/365
f 125/271/271 218/276/276 217/359/359 117/364/364
f 85/270/270 219/273/273 218/276/276 125/271/271
f 157/239/239 220/244/244 219/273/273 85/270/270
f 77/238/238 221/479/241 220/244/244 157/239/239
f 172/207/207 222/212/212 221/241/241 77/424/238
f 69/206/206 223/209/209 222/212/212 172/207/207
f 164/183/183 224/186/186 223/209/209 69/206/206
f 61/167/167 225/170/170 224/186/186 164/183/183
f 53/144/144 226/476/145 225/170/170 61/167/167
f 45/143/143 227/146/146 226/145/145 53/422/144
f 182/119/119 228/122/122 227/146/146 45/143/143
f 37/95/95 229/100/100 228/122/122 182/119/119
f 29/94/94 230/97/97 229/100/100 37/95/95
f 190/410/410 231/407/407 230/97/97 29/94/94
f 206/63/63 232/68/68 231/407/407 190/410/410
f 21/62/62 233/65/65 232/68/68 206/63/63
f 197/39/39 234/42/42 233/65/65 21/62/62
f 13/15/15 235/474/20 234/42/42 197/39/39
f 5/14/14 236/17/17 235/20/20 13/420/15
f 148/389/389 238/388/388 237/350/350 110/524/349
f 140/329/329 239/332/332 238/388/388 148/389/389
f 102/553/307 240/312/312 239/332/332 140/329/329
f 94/536/306 241/309/309 240/312/312 102/553/307
f 132/361/361 242/358/358 241/309/309 94/536/306
f 116/360/360 243/355/355 242/358/358 132/361/361
f 124/275/275 244/280/280 243/355/355 116/360/360
f 86/516/274 245/277/277 244/280/280 124/275/275
f 156/243/243 246/248/248 245/277/277 86/516/274
f 78/480/242 247/472/245 246/248/248 156/243/243
f 171/211/211 248/216/216 247/245/245 78/481/242
f 70/508/210 249/213/213 248/216/216 171/211/211
f 163/185/185 250/188/188 249/213/213 70/508/210
f 62/557/169 251/172/172 250/188/188 163/185/185
f 54/477/148 252/470/149 251/172/172 62/557/169
f 46/147/147 253/150/150 252/149/149 54/478/148
f 181/121/121 254/124/124 253/150/150 46/147/147
f 38/99/99 255/104/104 254/124/124 181/121/121
f 30/98/98 256/101/101 255/104/104 38/99/99
f 189/408/408 257/405/405 256/101/101 30/98/98
f 205/67/67 258/72/72 257/405/405 189/408/408
f 22/66/66 259/69/69 258/72/72 205/67/67
f 196/41/41 260/44/44 259/69/69 22/66/66
f 14/19/19 261/468/24 260/44/44 196/41/41
f 6/18/18 262/21/21 261/24/24 14/475/19
f 147/387/387 264/402/402 263/352/352 111/351/351
f 139/331/331 265/334/334 264/402/402 147/387/387
f 103/311/311 266/316/316 265/334/334 139/331/331
f 95/310/310 267/313/313 266/316/316 103/311/311
f 131/357/357 268/386/386 267/313/313 95/310/310
f 115/356/356 269/383/383 268/386/386 131/357/357
f 123/279/279 270/284/284 269/383/383 115/356/356
f 87/278/278 271/281/281 270/284/284 123/279/279
f 155/247/247 272/252/252 271/281/281 87/278/278
f 79/246/246 273/464/249 272/252/252 155/247/247
f 178/215/215 274/220/220 273/249/249 79/473/246
f 71/214/214 275/217/217 274/220/220 178/215/215
f 170/187/187 276/190/190 275/217/217 71/214/214
f 63/171/171 277/174/174 276/190/190 170/187/187
f 55/152/152 278/460/153 277/174/174 63/171/171
f 47/151/151 279/154/154 278/153/153 55/471/152
f 180/123/123 280/126/126 279/154/154 47/151/151
f 39/103/103 281/108/108 280/126/126 180/123/123
f 31/102/102 282/105/105 281/108/108 39/103/103
f 188/406/406 283/403/403 282/105/105 31/102/102
f 204/71/71 284/76/76 283/403/403 188/406/406
f 23/70/70 285/73/73 284/76/76 204/71/71
f 195/43/43 286/46/46 285/73/73 23/70/70
f 15/23/23 287/457/28 286/46/46 195/43/43
f 7/22/22 288/25/25 287/28/28 15/469/23
f 154/401/401 290/400/400 289/354/354 112/518/353
f 146/333/333 291/336/336 290/400/400 154/401/401
f 104/552/315 292/320/320 291/336/336 146/333/333
f 96/530/314 293/317/317 292/320/320 104/552/315
f 138/385/385 294/382/382 293/317/317 96/530/314
f 122/384/384 295/379/379 294/382/382 138/385/385
f 130/283/283 296/288/288 295/379/379 122/384/384
f 88/510/282 297/285/285 296/288/288 130/283/283
f 162/251/251 298/256/256 297/285/285 88/510/282
f 80/465/250 299/455/253 298/256/256 162/251/251
f 177/219/219 300/224/224 299/253/253 80/466/250
f 72/502/218 301/221/221 300/224/224 177/219/219
f 169/189/189 302/192/192 301/221/221 72/502/218
f 64/556/173 303/176/176 302/192/192 169/189/189
f 56/461/156 304/453/157 303/176/176 64/556/173
f 48/496/155 305/158/158 304/157/157 56/462/156
f 179/125/125 306/128/128 305/158/158 48/496/155
f 40/560/107 307/112/112 306/128/128 179/125/125
f 32/492/106 308/109/109 307/112/112 40/560/107
f 187/404/404 309/417/417 308/109/109 32/492/106
f 203/75/75 310/80/80 309/417/417 187/404/404
f 24/488/74 311/77/77 310/80/80 203/75/75
f 202/45/45 312/48/48 311/77/77 24/488/74
f 16/458/27 313/451/32 312/48/48 202/45/45
f 8/26/26 314/29/29 313/32/32 16/459/27
f 153/399/399 316/398/398 315/339/339 105/338/338
f 145/335/335 317/322/322 316/398/398 153/399/399
f 97/319/319 318/292/292 317/322/322 145/335/335
f 89/318/318 319/289/289 318/292/292 97/319/319
f 137/381/381 320/378/378 319/289/289 89/318/318
f 121/380/380 321/375/375 320/378/378 137/381/381
f 129/287/287 322/260/260 321/375/375 121/380/380
f 81/286/286 323/257/257 322/260/260 129/287/287
f 161/255/255 324/228/228 323/257/257 81/286/286
f 73/254/254 325/447/225 324/228/228 161/255/255
f 176/223/223 326/196/196 325/225/225 73/456/254
f 65/222/222 327/193/193 326/196/196 176/223/223
f 168/191/191 328/178/178 327/193/193 65/222/222
f 57/175/175 329/162/162 328/178/178 168/191/191
f 49/160/160 330/444/129 329/162/162 57/175/175
f 41/159/159 331/130/130 330/129/129 49/454/160
f 186/127/127 332/114/114 331/130/130 41/159/159
f 33/111/111 333/84/84 332/114/114 186/127/127
f 25/110/110 334/81/81 333/84/84 33/111/111
f 194/418/418 335/415/415 334/81/81 25/110/110
f 210/79/79 336/52/52 335/415/415 194/418/418
f 17/78/78 337/49/49 336/52/52 210/79/79
f 201/47/47 338/34/34 337/49/49 17/78/78
f 9/31/31 339/442/4 338/34/34 201/47/47
f 1/30/30 340/1/1 339/4/4 9/452/31
f 152/397/397 342/396/396 341/342/342 106/520/340
f 144/321/321 343/324/324 342/396/396 152/397/397
f 98/555/291 344/296/296 343/324/324 144/321/321
f 90/532/290 345/293/293 344/296/296 98/555/291
f 136/377/377 346/374/374 345/293/293 90/532/290
f 120/376/376 347/371/371 346/374/374 136/377/377
f 128/259/259 348/264/264 347/371/371 120/376/376
f 82/512/258 349/261/261 348/264/264 128/259/259
f 160/227/227 350/232/232 349/261/261 82/512/258
f 74/448/226 351/440/229 350/232/232 160/227/227
f 175/195/195 352/200/200 351/229/229 74/449/226
f 66/504/194 353/197/197 352/200/200 175/195/195
f 167/177/177 354/180/180 353/197/197 66/504/194
f 58/559/161 355/164/164 354/180/180 167/177/177
f 50/445/132 356/438/133 355/164/164 58/559/161
f 42/131/131 357/134/134 356/133/133 50/446/132
f 185/113/113 358/116/116 357/134/134 42/131/131
f 34/83/83 359/88/88 358/116/116 185/113/113
f 26/82/82 360/85/85 359/88/88 34/83/83
f 193/416/416 361/413/413 360/85/85 26/82/82
f 209/51/51 362/56/56 361/413/413 193/416/416
f 18/50/50 363/53/53 362/56/56 209/51/51
f 200/33/33 364/36/36 363/53/53 18/50/50
f 10/3/3 365/436/8 364/36/36 200/33/33
f 2/2/2 366/5/5 365/8/8 10/443/3
f 151/395/395 368/394/394 367/344/344 107/343/343
f 143/323/323 369/326/326 368/394/394 151/395/395
f 99/295/295 370/300/300 369/326/326 143/323/323
f 91/294/294 371/297/297 370/300/300 99/295/295
f 135/373/373 372/370/370 371/297/297 91/294/294
f 119/372/372 373/367/367 372/370/370 135/373/373
f 127/263/263 374/268/268 373/367/367 119/372/372
f 83/262/262 375/265/265 374/268/268 127/263/263
f 159/231/231 376/236/236 375/265/265 83/262/262
f 75/230/230 377/432/233 376/236/236 159/231/231
f 174/199/199 378/204/204 377/233/233 75/441/230
f 67/198/198 379/201/201 378/204/204 174/199/199
f 166/179/179 380/182/182 379/201/201 67/198/198
f 59/163/163 381/166/166 380/182/182 166/179/179
f 51/136/136 382/428/137 381/166/166 59/163/163
f 43/135/135 383/138/138 382/137/137 51/439/136
f 184/115/115 384/118/118 383/138/138 43/135/135
f 35/87/87 385/92/92 384/118/118 184/115/115
f 27/86/86 386/89/89 385/92/92 35/87/87
f 192/414/414 387/411/411 386/89/89 27/86/86
f 208/55/55 388/60/60 387/411/411 192/414/414
f 19/54/54 389/57/57 388/60/60 208/55/55
f 199/35/35 390/38/38 389/57/57 19/54/54
f 11/7/7 391/425/12 390/38/38 199/35/35
f 3/6/6 392/9/9 391/12/12 11/437/7
f 150/393/393 394/392/392 393/346/346 108/522/345
f 142/325/325 395/328/328 394/392/392 150/393/393
f 100/554/299 396/304/304 395/328/328 142/325/325
f 92/534/298 397/301/301 396/304/304 100/554/299
f 134/369/369 398/366/366 397/301/301 92/534/298
f 118/368/368 399/363/363 398/366/366 134/369/369
f 126/267/267 400/272/272 399/363/363 118/368/368
f 84/514/266 401/269/269 400/272/272 126/267/267
f 158/235/235 402/240/240 401/269/269 84/514/266
f 76/433/234 403/423/237 402/240/240 158/235/235
f 173/203/203 404/208/208 403/237/237 76/434/234
f 68/506/202 405/205/205 404/208/208 173/203/203
f 165/181/181 406/184/184 405/205/205 68/506/202
f 60/558/165 407/168/168 406/184/184 165/181/181
f 52/429/140 408/421/141 407/168/168 60/558/165
f 44/494/139 409/142/142 408/141/141 52/430/140
f 183/117/117 410/120/120 409/142/142 44/494/139
f 36/561/91 411/96/96 410/120/120 183/117/117
f 28/491/90 412/93/93 411/96/96 36/561/91
f 191/412/412 413/409/409 412/93/93 28/491/90
f 207/59/59 414/64/64 413/409/409 191/412/412
f 20/490/58 415/61/61 414/64/64 207/59/59
f 198/37/37 416/40/40 415/61/61 20/490/58
f 12/426/11 417/419/16 416/40/40 198/37/37
f 4/10/10 418/13/13 417/16/16 12/427/11
