# This file uses centimeters as units for non-parametric coordinates.

mtllib Snowman.mtl
g default
v 0.000000 0.076252 -1.183992
v 0.000000 0.569556 -1.479950
v 1.479950 0.569556 0.000000
v -1.052455 0.130211 1.052455
v -1.151108 0.109137 0.657804
v -0.657804 0.109137 1.151108
v -1.151108 0.602440 1.151108
v -1.397740 0.577777 0.682467
v -1.578603 1.260244 0.000000
v -1.479950 1.260244 0.690688
v -1.479950 1.950933 0.000000
v -0.657804 2.411352 -1.151108
v -0.682467 1.942712 -1.397740
v -1.052455 2.312699 -1.052455
v -1.151108 2.411352 -0.657804
v -1.397740 1.942712 -0.682467
v 0.000000 1.950933 -1.479950
v 0.000000 0.076252 1.183992
v 0.000000 1.260244 -1.578603
v 1.578603 1.260244 0.000000
v -0.679481 2.628122 -0.739209
v -0.739209 2.628122 -0.679481
v -0.682467 0.577777 1.397740
v 1.183992 0.076252 0.000000
v 1.151108 0.109137 0.657804
v -1.183992 0.076252 0.000000
v -1.397740 1.942712 0.682467
v -1.183992 2.444236 0.000000
v 0.000000 2.444236 -1.183992
v -1.183992 1.260244 1.183992
v -0.832595 2.617654 -0.369729
v -0.369729 2.617654 -0.832595
v -0.756526 2.632357 -0.756526
v 1.479950 1.950933 0.000000
v -1.151108 2.411352 0.657804
v -1.151108 1.918048 1.151108
v 0.000000 2.632112 -0.870841
v -0.472843 2.622809 -0.827440
v -0.827440 2.622809 -0.472843
v -1.004724 2.959677 -0.490571
v -0.490571 2.959677 -1.004724
v -0.827440 2.977406 -0.827440
v 0.000000 0.569556 1.479950
v -0.690688 1.260244 1.479950
v -0.870841 2.632112 0.000000
v -0.496481 3.450249 -1.063819
v -1.063819 3.450249 -0.496481
v 0.000000 2.953768 -1.063819
v -1.063819 2.953768 0.000000
v -0.851078 3.450249 -0.851078
v 0.657804 0.109137 1.151108
v -0.832595 2.617654 0.369729
v 1.183992 2.444236 0.000000
v -1.052455 2.312699 1.052455
v -0.827440 3.923092 -0.827440
v 1.052455 0.103389 1.052455
v -1.134732 3.450249 0.000000
v 0.000000 3.450249 -1.134732
v -1.004724 2.959677 0.490571
v 0.870841 2.632112 0.000000
v -0.490571 3.940820 -1.004724
v -1.004724 3.940820 -0.490571
v 1.397740 0.577777 0.682467
v 0.682467 0.577777 1.397740
v -0.682467 1.942712 1.397740
v -0.733959 2.630885 0.679757
v -0.827440 2.622809 0.472843
v 0.000000 1.260244 1.578603
v -1.063819 3.946730 0.000000
v 0.000000 3.946730 -1.063819
v -1.063819 3.450249 0.496481
v -0.756526 2.637958 0.756526
v -0.756526 4.206775 -0.756526
v -0.679757 2.630885 0.733959
v 1.063819 2.953768 0.000000
v 1.151108 0.602440 1.151108
v -0.657804 2.411352 1.151108
v -0.827440 4.277689 -0.472843
v -0.472843 4.277689 -0.827440
v 0.000000 1.950933 1.479950
v 0.690688 1.260244 1.479950
v 1.479950 1.260244 0.690688
v -0.472843 2.622809 0.827440
v -0.369729 2.617654 0.832595
v -0.821031 2.865542 0.863311
v -0.845703 2.913268 0.896804
v -0.865990 2.917494 0.837896
v -0.516343 4.430923 -0.516343
v -0.490571 2.959677 1.004724
v -0.873347 3.021418 0.847884
v -0.853061 3.017192 0.906792
v -0.835745 3.073370 0.883285
v -1.004724 3.940820 0.490571
v -0.851078 4.301327 0.000000
v 0.000000 4.301327 -0.851078
v -0.700851 2.917494 0.959541
v -0.763126 2.913268 0.957632
v -0.738454 2.865542 0.924139
v 0.000000 2.444236 1.183992
v -0.753168 3.073370 0.944114
v -0.770483 3.017192 0.967621
v -0.708209 3.021418 0.969529
v 1.134732 3.450249 0.000000
v -0.532204 4.433064 -0.488380
v -0.488380 4.433064 -0.532204
v -0.590045 4.424076 -0.316258
v -0.316258 4.424076 -0.590045
v -0.828537 3.245647 0.873500
v -0.849680 3.297967 0.902203
v -0.869818 3.297967 0.843092
v 1.183992 1.260244 1.183992
v 0.000000 2.632112 0.870841
v -0.827440 3.923092 0.827440
v -0.827440 4.277689 0.472843
v 0.000000 4.435228 -0.627890
v -0.869818 3.402629 0.843092
v -0.849680 3.402629 0.902203
v -0.828537 3.454950 0.873500
v -0.851078 3.450249 0.851078
v -0.849723 3.423153 0.849723
v -0.827959 3.450249 0.864948
v -0.323511 4.561892 -0.662573
v -0.662573 4.561892 -0.323511
v -0.545662 4.573583 -0.545662
v -0.704679 3.297967 0.964737
v -0.767103 3.297967 0.963031
v -0.745960 3.245647 0.934329
v 0.000000 2.953768 1.063819
v -0.627890 4.435228 0.000000
v 1.397740 1.942712 0.682467
v 0.682467 1.942712 1.397740
v -0.745960 3.454950 0.934329
v -0.767103 3.402629 0.963031
v -0.704679 3.402629 0.964737
v -0.327408 4.885403 -0.701544
v -0.701544 4.885403 -0.327408
v 0.369729 2.617654 0.832595
v -0.828537 3.595374 0.873500
v -0.849680 3.647695 0.902203
v -0.869818 3.647695 0.843092
v -0.561250 4.885403 -0.561250
v -0.701544 4.557995 0.000000
v 0.000000 4.557995 -0.701544
v 1.151108 2.411352 0.657804
v 0.657804 2.411352 1.151108
v 1.151108 1.918048 1.151108
v 0.832595 2.617654 0.369729
v 1.063819 3.946730 0.000000
v -0.869818 3.752357 0.843092
v -0.849680 3.752357 0.902203
v -0.828537 3.804677 0.873500
v -0.590045 4.424076 0.316258
v -0.496481 3.450249 1.063819
v -0.704679 3.647695 0.964737
v -0.767103 3.647695 0.963031
v -0.745960 3.595374 0.934329
v -0.756526 4.206775 0.756526
v -0.545662 5.197223 -0.545662
v 0.827440 2.622809 0.472843
v 0.754199 2.620234 0.678692
v 0.678692 2.620234 0.754199
v 0.472843 2.622809 0.827440
v -0.748308 4.885403 0.000000
v 0.000000 4.885403 -0.748308
v -0.662573 4.561892 0.323511
v -0.745960 3.804677 0.934329
v -0.767103 3.752357 0.963031
v -0.704679 3.752357 0.964737
v 0.756526 2.618677 0.756526
v -0.821383 3.991276 0.876572
v -0.829310 4.053160 0.887334
v -0.850998 4.039760 0.830329
v -0.662573 5.208914 -0.323511
v -0.323511 5.208914 -0.662573
v 0.490571 2.959677 1.004724
v 1.004724 2.959677 0.490571
v 0.851078 4.301327 0.000000
v -0.531566 4.433399 0.488414
v 0.000000 5.212811 -0.701544
v -0.701544 5.212811 0.000000
v -0.701544 4.885403 0.327408
v 1.052455 2.312699 1.052455
v -0.827664 4.136745 0.798652
v -0.805976 4.150146 0.855657
v -0.774719 4.185229 0.813225
v -0.515938 4.431301 0.515938
v 0.000000 3.450249 1.134732
v -0.498897 5.384300 -0.498897
v 0.627890 4.435228 0.000000
v -0.685860 4.039760 0.951974
v -0.746733 4.053160 0.948163
v -0.738805 3.991276 0.937401
v -0.692142 4.185229 0.874054
v -0.723399 4.150146 0.916486
v -0.662526 4.136745 0.920297
v -0.545662 5.431065 -0.311820
v -0.311820 5.431065 -0.545662
v 0.827440 2.977406 0.827440
v -0.545662 4.573583 0.545662
v -0.472843 4.277689 0.827440
v -0.731563 5.013402 0.187960
v -0.766218 5.076896 0.196321
v -0.749574 5.076896 0.113314
v -0.490571 3.940820 1.004724
v 0.000000 3.946730 1.063819
v 0.496481 3.450249 1.063819
v 1.063819 3.450249 0.496481
v -0.488414 4.433399 0.531566
v -0.686125 5.013402 0.325866
v -0.316258 4.424076 0.590045
v -0.323511 4.561892 0.662573
v -0.323511 5.547976 -0.323511
v -0.749574 5.203911 0.113314
v -0.766218 5.203911 0.196321
v -0.731563 5.267406 0.187960
v -0.561250 5.446653 0.000000
v 0.000000 5.446653 -0.561250
v -0.677523 5.076896 0.411925
v -0.730188 5.076896 0.345642
v -0.695534 5.013402 0.337280
v 0.748308 4.885403 0.000000
v -0.670442 5.238495 0.137245
v -0.662241 5.267406 0.171233
v -0.637946 5.267406 0.271922
v 0.701544 4.557995 0.000000
v 0.000000 4.301327 0.851078
v -0.587503 4.846999 0.512372
v -0.901109 4.907243 1.002006
v -0.595252 4.870964 0.502651
v -0.576183 4.828552 0.528781
v 0.311820 5.431065 -0.545662
v -0.545662 5.431065 0.311820
v -0.562677 4.817511 0.549820
v -0.597478 4.897691 0.499228
v -0.593641 4.924313 0.502073
v 0.000000 4.435228 0.627890
v -0.695534 5.267406 0.337280
v -0.730188 5.203911 0.345642
v -0.677523 5.203911 0.411925
v -0.585362 4.947863 0.512734
v -0.327408 5.586946 0.000000
v 0.000000 5.586946 -0.327408
v -0.520869 4.816597 0.579973
v -0.543078 4.813289 0.566385
v -0.327408 4.885403 0.701544
v 0.851078 3.450249 0.851078
v -0.501008 4.827881 0.592791
v -0.573679 4.965712 0.529827
v -0.485543 4.846016 0.603520
v -0.560008 4.976096 0.551230
v -0.476057 4.869140 0.611061
v -0.840295 2.976120 0.803014
v -0.539489 4.979559 0.566775
v -0.517466 4.975203 0.580336
v -0.474322 4.920687 0.610581
v -0.472486 4.894837 0.613749
v -0.498014 4.963023 0.592980
v -0.483125 4.944216 0.603417
v 0.000000 4.557995 0.701544
v 0.490571 3.940820 1.004724
v 1.004724 3.940820 0.490571
v 0.316258 4.424076 0.590045
v 0.827440 4.277689 0.472843
v 0.827440 3.923092 0.827440
v 0.472843 4.277689 0.827440
v 0.662573 4.561892 0.323511
v 0.323511 4.561892 0.662573
v 0.590045 4.424076 0.316258
v -0.323511 5.547976 0.323511
v 0.323511 5.547976 -0.323511
v -0.545662 5.197223 0.545662
v -0.323511 5.208914 0.662573
v -0.498897 5.384300 0.498897
v 0.000000 5.633711 0.000000
v 0.000000 4.885403 0.748308
v 0.488302 4.432282 0.533688
v 0.533688 4.432282 0.488302
v 0.545662 5.431065 -0.311820
v 0.517286 4.430042 0.517286
v -0.247340 5.013402 0.706011
v -0.255425 5.076896 0.740731
v -0.322127 5.076896 0.688597
v -0.658893 2.926472 0.902580
v -0.658855 2.925946 0.902530
v -0.696458 2.873994 0.867128
v -0.706145 2.873994 0.859992
v -0.311820 5.431065 0.545662
v 0.545662 4.573583 0.545662
v 0.000000 5.586946 0.327408
v 0.327408 5.586946 0.000000
v 0.701544 4.885403 0.327408
v 0.327408 4.885403 0.701544
v 0.756526 4.206775 0.756526
v -0.322127 5.203911 0.688597
v -0.255425 5.203911 0.740731
v -0.247340 5.267406 0.706011
v 0.701544 5.212811 0.000000
v -0.022950 5.076896 0.758260
v -0.105821 5.076896 0.775566
v -0.097736 5.013402 0.740846
v -0.719288 3.080189 0.898121
v -0.670130 3.029082 0.917835
v 0.000000 5.212811 0.701544
v -0.169263 5.267406 0.650971
v -0.081564 5.267406 0.671392
v -0.054745 5.244636 0.677637
v 0.561250 5.446653 0.000000
v 0.000000 5.446653 0.561250
v 0.561250 4.885403 0.561250
v -0.855417 3.297967 0.823543
v -0.860031 3.402629 0.829806
v -0.097736 5.267406 0.740846
v -0.105821 5.203911 0.775566
v -0.022950 5.203911 0.758260
v -0.727288 3.245647 0.908981
v -0.815631 3.245647 0.855980
v 0.323511 5.547976 0.323511
v 0.323511 5.208914 0.662573
v 0.662573 5.208914 0.323511
v 0.311820 5.431065 0.545662
v 0.545662 5.431065 0.311820
v 0.545662 5.197223 0.545662
v -0.685263 3.297967 0.938379
v 0.498897 5.384300 0.498897
v -0.823799 3.454950 0.867068
v -0.735456 3.454950 0.920069
v -0.689539 3.402629 0.944184
v -0.853426 3.647695 0.820840
v -0.848813 3.752357 0.814577
v -0.729718 3.595374 0.912280
v -0.818061 3.595374 0.859279
v -0.683417 3.647695 0.935874
v -0.834788 3.776112 0.834788
v -0.809509 3.804677 0.847669
v -0.720337 3.804677 0.899545
v -0.678120 3.752357 0.928683
v -0.815990 4.015815 0.782804
v -0.794228 4.113875 0.753260
v -0.771603 4.146463 0.771603
v -0.747829 4.166836 0.776721
v -0.699613 3.964470 0.884196
v -0.646668 4.012953 0.898769
v -0.810187 2.894822 0.810187
v -0.830733 2.924590 0.790033
v -0.623334 4.109939 0.867092
v -0.704125 5.013402 0.181339
v -0.706265 5.076896 0.102864
v -0.786206 2.872551 0.816035
v -0.690549 5.203911 0.099072
v -0.688529 5.211510 0.108038
v -0.637367 5.076896 0.402236
v -0.681807 5.013402 0.333968
v -0.808813 3.078790 0.846724
v -0.831106 3.050747 0.831106
v -0.843492 3.027427 0.807353
v -0.596986 4.885403 0.501686
v -0.557808 4.816550 0.557808
v -0.623088 5.203911 0.398791
v -0.556691 4.976609 0.556691
v -0.474435 4.885403 0.613335
v -0.842359 3.275851 0.842359
v -0.623614 5.205019 0.397541
v -0.245005 5.013402 0.695984
v -0.319918 5.076896 0.679108
v -0.316411 5.203911 0.664049
v -0.842313 3.625568 0.842313
v -0.731680 3.450249 0.922711
v -0.013805 5.076896 0.718985
v -0.092152 5.013402 0.716864
v -0.019937 5.212571 0.699142
v -0.009720 5.203911 0.701444
v -0.808474 3.998961 0.808474
v -0.788097 3.968510 0.831386
v -0.714776 3.964470 0.873027
v -0.653966 4.159117 0.822228
v -0.645263 4.145838 0.832851
v -0.666091 2.968915 0.912353
v -0.631791 5.267406 0.320433
v -0.631272 5.267406 0.321775
v -0.232652 5.267406 0.642929
v -0.310032 5.209076 0.664197
v -1.151108 1.918048 -1.151108
v -1.479950 0.569556 0.000000
v -1.479950 1.260244 -0.690688
v -0.690688 1.260244 -1.479950
v -1.151108 0.109137 -0.657804
v -0.657804 0.109137 -1.151108
v -1.183992 1.260244 -1.183992
v -0.682467 0.577777 -1.397740
v -1.397740 0.577777 -0.682467
v -1.151108 0.602440 -1.151108
v -1.052455 0.122419 -1.052455
vt 0.710514 0.011088
vt 0.710514 0.063675
vt 0.653402 0.060479
vt 0.650656 0.008291
vt 0.654318 0.136477
vt 0.710514 0.136927
vt 0.577404 0.059563
vt 0.577404 0.004630
vt 0.577404 0.136477
vt 0.710514 0.210179
vt 0.653402 0.212476
vt 0.504152 0.008291
vt 0.501405 0.060479
vt 0.577404 0.213391
vt 0.500490 0.136477
vt 0.702141 0.269487
vt 0.650306 0.268998
vt 0.444020 0.063438
vt 0.444202 0.009947
vt 0.501405 0.212476
vt 0.577078 0.268558
vt 0.443770 0.136702
vt 0.503807 0.268117
vt 0.443520 0.209941
vt 0.451378 0.267939
vt 0.319944 0.958874
vt 0.318864 0.926807
vt 0.356386 0.929019
vt 0.358360 0.966533
vt 0.355728 0.874390
vt 0.317274 0.915467
vt 0.319909 0.874390
vt 0.411015 0.929678
vt 0.411015 0.969165
vt 0.411015 0.874390
vt 0.356386 0.819761
vt 0.317159 0.833280
vt 0.318859 0.821966
vt 0.463670 0.966533
vt 0.465644 0.929019
vt 0.411015 0.819103
vt 0.466302 0.874390
vt 0.320573 0.789913
vt 0.349164 0.784169
vt 0.352478 0.786413
vt 0.358217 0.784968
vt 0.506827 0.956795
vt 0.506642 0.925252
vt 0.465644 0.819761
vt 0.363930 0.784484
vt 0.366527 0.781839
vt 0.391594 0.780586
vt 0.394057 0.782681
vt 0.405712 0.781984
vt 0.407998 0.779766
vt 0.411015 0.779615
vt 0.506332 0.872614
vt 0.346244 0.777550
vt 0.351688 0.781083
vt 0.343365 0.780182
vt 0.363261 0.779971
vt 0.463670 0.782248
vt 0.430538 0.780591
vt 0.433002 0.782982
vt 0.444657 0.783680
vt 0.447303 0.781429
vt 0.506021 0.819945
vt 0.369043 0.777191
vt 0.369650 0.780100
vt 0.389161 0.776684
vt 0.394057 0.780505
vt 0.387950 0.777660
vt 0.405712 0.780505
vt 0.410610 0.776682
vt 0.411539 0.777835
vt 0.411015 0.778071
vt 0.351218 0.775685
vt 0.362790 0.773411
vt 0.505835 0.788309
vt 0.472119 0.784360
vt 0.473996 0.787218
vt 0.484916 0.790508
vt 0.488545 0.788465
vt 0.428106 0.776683
vt 0.433002 0.780505
vt 0.427122 0.777475
vt 0.444657 0.780505
vt 0.449549 0.776687
vt 0.451335 0.778130
vt 0.394059 0.775084
vt 0.405712 0.775084
vt 0.351218 0.766588
vt 0.362790 0.766637
vt 0.471227 0.777238
vt 0.476662 0.781926
vt 0.466846 0.779495
vt 0.487462 0.785453
vt 0.433004 0.775084
vt 0.444650 0.775084
vt 0.369050 0.768093
vt 0.394055 0.765986
vt 0.405712 0.765987
vt 0.478154 0.775578
vt 0.488955 0.779105
vt 0.433001 0.765986
vt 0.444664 0.765986
vt 0.472102 0.766780
vt 0.478215 0.768824
vt 0.488895 0.772312
vt 0.492861 0.783831
vt 0.060581 0.008291
vt 0.133833 0.004630
vt 0.133833 0.059563
vt 0.057835 0.060479
vt 0.133833 0.576630
vt 0.133833 0.540170
vt 0.133833 0.503710
vt 0.133833 0.490039
vt 0.133833 0.475128
vt 0.133833 0.435640
vt 0.133833 0.380353
vt 0.133833 0.325066
vt 0.133833 0.289246
vt 0.133833 0.268325
vt 0.133833 0.213391
vt 0.133833 0.136477
vt 0.288360 0.004406
vt 0.304651 0.059339
vt 0.309882 0.136252
vt 0.304126 0.213166
vt 0.287460 0.268098
vt 0.246752 0.289442
vt 0.257367 0.325261
vt 0.261115 0.380548
vt 0.256966 0.435834
vt 0.244978 0.475321
vt 0.210779 0.490098
vt 0.214957 0.503769
vt 0.217767 0.540227
vt 0.215368 0.576686
vt 0.207704 0.602726
vt 0.194597 0.600934
vt 0.168557 0.600934
vt 0.133833 0.602670
vt 0.056919 0.136477
vt 0.016633 0.007651
vt 0.005647 0.063225
vt 0.097373 0.540170
vt 0.097807 0.576196
vt 0.097807 0.504144
vt 0.098615 0.488797
vt 0.081178 0.472496
vt 0.079204 0.434982
vt 0.078546 0.380353
vt 0.079204 0.325724
vt 0.081178 0.288211
vt 0.092661 0.287636
vt 0.060581 0.264663
vt 0.057835 0.212476
vt 0.099109 0.600934
vt 0.001985 0.136477
vt 0.073069 0.574894
vt 0.071333 0.540170
vt 0.073069 0.505446
vt 0.076229 0.489461
vt 0.079457 0.489711
vt 0.049587 0.464599
vt 0.041691 0.433008
vt 0.039058 0.380353
vt 0.041691 0.327698
vt 0.049587 0.287750
vt 0.016633 0.253677
vt 0.005647 0.209729
vt 0.078277 0.595726
vt 0.948215 0.983137
vt 0.945105 0.982852
vt 0.925925 0.983563
vt 0.926964 0.968230
vt 0.951719 0.967302
vt 0.890729 0.981790
vt 0.890936 0.968120
vt 0.927942 0.932215
vt 0.953979 0.932608
vt 0.854921 0.967142
vt 0.855497 0.982500
vt 0.891486 0.931665
vt 0.952768 0.897862
vt 0.928052 0.896187
vt 0.855031 0.931114
vt 0.836344 0.981172
vt 0.833275 0.981359
vt 0.830205 0.965467
vt 0.892037 0.895209
vt 0.948250 0.868665
vt 0.927487 0.868624
vt 0.880991 0.896033
vt 0.880005 0.895172
vt 0.855418 0.916864
vt 0.871510 0.917107
vt 0.880355 0.910170
vt 0.829261 0.938393
vt 0.830152 0.938300
vt 0.832513 0.937106
vt 0.834371 0.935079
vt 0.835494 0.932427
vt 0.835626 0.930821
vt 0.892789 0.868554
vt 0.858046 0.868484
vt 0.876798 0.892118
vt 0.861851 0.888673
vt 0.856450 0.888591
vt 0.831253 0.896027
vt 0.847759 0.895408
vt 0.847618 0.895529
vt 0.847021 0.909666
vt 0.854516 0.916851
vt 0.835920 0.929457
vt 0.835648 0.926488
vt 0.834501 0.923848
vt 0.835362 0.921536
vt 0.827477 0.920049
vt 0.829655 0.919415
vt 0.777219 0.927844
vt 0.833458 0.868659
vt 0.856300 0.888589
vt 0.224973 0.663387
vt 0.232044 0.662336
vt 0.228509 0.671819
vt 0.224974 0.646520
vt 0.232044 0.645708
vt 0.246188 0.662336
vt 0.249732 0.671819
vt 0.228509 0.638088
vt 0.246188 0.645708
vt 0.253263 0.663387
vt 0.249715 0.638089
vt 0.253255 0.646520
vt 0.262818 0.667257
vt 0.261206 0.663418
vt 0.261200 0.652044
vt 0.116362 0.644302
vt 0.117419 0.644304
vt 0.117399 0.658448
vt 0.114666 0.658444
vt 0.121761 0.636665
vt 0.123506 0.637240
vt 0.123219 0.644312
vt 0.123210 0.658456
vt 0.121666 0.665525
vt 0.118099 0.669127
vt 0.114681 0.659019
vt 0.149102 0.644312
vt 0.153475 0.644311
vt 0.155431 0.658455
vt 0.149103 0.658456
vt 0.144142 0.637240
vt 0.148043 0.635868
vt 0.145965 0.665526
vt 0.155687 0.659419
vt 0.158083 0.662990
vt 0.149856 0.669494
vt 0.500497 0.317407
vt 0.493766 0.323978
vt 0.447871 0.325839
vt 0.535113 0.307423
vt 0.576333 0.303660
vt 0.478198 0.399462
vt 0.443328 0.399042
vt 0.482952 0.358343
vt 0.617452 0.308414
vt 0.651841 0.319813
vt 0.657804 0.325921
vt 0.704224 0.328924
vt 0.668372 0.360575
vt 0.707005 0.402215
vt 0.672135 0.401796
vt 0.667381 0.442914
vt 0.702461 0.475418
vt 0.658237 0.477212
vt 0.690948 0.519230
vt 0.646871 0.529687
vt 0.649729 0.485519
vt 0.573580 0.532467
vt 0.574000 0.497597
vt 0.615220 0.493834
vt 0.773913 0.432457
vt 0.847165 0.428795
vt 0.979013 0.560643
vt 0.975351 0.633895
vt 0.964365 0.677843
vt 0.920417 0.688828
vt 0.847165 0.692490
vt 0.773913 0.688828
vt 0.729965 0.677843
vt 0.718979 0.633895
vt 0.715317 0.560643
vt 0.718979 0.487391
vt 0.729965 0.443443
vt 0.291752 0.975393
vt 0.280870 0.979103
vt 0.311173 0.959618
vt 0.315739 0.951394
vt 0.292714 0.772846
vt 0.315671 0.797114
vt 0.311676 0.789570
vt 0.281907 0.768921
vt 0.544823 0.927894
vt 0.547958 0.929624
vt 0.550075 0.962478
vt 0.543020 0.924801
vt 0.602465 0.939638
vt 0.602757 0.964490
vt 0.567199 0.935839
vt 0.536354 0.905712
vt 0.531725 0.870545
vt 0.535524 0.835280
vt 0.541810 0.816034
vt 0.543514 0.812949
vt 0.547904 0.778206
vt 0.546559 0.811172
vt 0.565652 0.804435
vt 0.600525 0.774954
vt 0.600818 0.799806
vt 0.636083 0.803605
vt 0.653207 0.776966
vt 0.655314 0.809655
vt 0.658563 0.811443
vt 0.684889 0.784490
vt 0.693157 0.815985
vt 0.660427 0.814649
vt 0.696409 0.868606
vt 0.671557 0.868898
vt 0.666928 0.833732
vt 0.059804 0.807825
vt 0.060268 0.839900
vt 0.058948 0.851297
vt 0.057568 0.815962
vt 0.051304 0.805855
vt 0.019804 0.789493
vt 0.030852 0.792676
vt 0.928879 0.841065
vt 0.953601 0.839489
vt 0.892860 0.841898
vt 0.928914 0.805036
vt 0.954952 0.804748
vt 0.856832 0.841863
vt 0.892456 0.805440
vt 0.952832 0.770045
vt 0.928080 0.769017
vt 0.830026 0.841239
vt 0.855999 0.805844
vt 0.892052 0.768983
vt 0.926505 0.744295
vt 0.829834 0.806526
vt 0.856033 0.769816
vt 0.891764 0.742944
vt 0.829641 0.771794
vt 0.857061 0.745064
vt 0.829526 0.750933
vt 0.753782 0.872435
vt 0.770271 0.911554
vt 0.751000 0.872303
vt 0.756550 0.871725
vt 0.754821 0.872508
vt 0.759216 0.870587
vt 0.761661 0.869611
vt 0.762190 0.859758
vt 0.827505 0.915929
vt 0.827576 0.918148
vt 0.827350 0.913053
vt 0.827148 0.910478
vt 0.826920 0.908466
vt 0.386578 0.764830
vt 0.390083 0.764827
vt 0.386434 0.759120
vt 0.390080 0.759118
vt 0.410572 0.776246
vt 0.409682 0.764825
vt 0.411654 0.764825
vt 0.409682 0.759115
vt 0.412525 0.759115
vt 0.411667 0.764312
vt 0.425980 0.764828
vt 0.429030 0.764827
vt 0.425035 0.759119
vt 0.429027 0.759117
vt 0.508172 0.763755
vt 0.508455 0.769617
vt 0.497047 0.770169
vt 0.496764 0.764307
vt 0.491142 0.766254
vt 0.496417 0.757148
vt 0.507928 0.758712
vt 0.490836 0.759938
vt 0.494956 0.757596
vt 0.513980 0.765667
vt 0.510448 0.759703
vt 0.513677 0.759396
vt 0.338700 0.766765
vt 0.338700 0.765426
vt 0.346585 0.765426
vt 0.347276 0.759716
vt 0.339391 0.759716
vt 0.375415 0.766940
vt 0.374096 0.778359
vt 0.369752 0.761223
vt 0.376902 0.761232
vt 0.448641 0.764834
vt 0.453452 0.764846
vt 0.448655 0.759125
vt 0.453642 0.759137
vt 0.464630 0.767798
vt 0.464804 0.765708
vt 0.470428 0.760447
vt 0.463094 0.759837
vt 0.131037 0.673471
vt 0.223401 0.646401
vt 0.221830 0.663506
vt 0.223657 0.647391
vt 0.220374 0.637850
vt 0.220012 0.672057
vt 0.260612 0.646394
vt 0.260591 0.646552
vt 0.259478 0.637844
vt 0.259454 0.637993
vt 0.260021 0.671027
vt 0.260038 0.672050
vt 0.382515 0.264710
vt 0.385618 0.212543
vt 0.387052 0.136552
vt 0.386655 0.060549
vt 0.384264 0.008344
vt 0.770372 0.009191
vt 0.767626 0.061378
vt 0.843624 0.005529
vt 0.843624 0.060463
vt 0.766710 0.137377
vt 0.916877 0.009191
vt 0.919623 0.061378
vt 0.843624 0.137377
vt 0.767626 0.213376
vt 0.960824 0.008551
vt 0.971810 0.064125
vt 0.920539 0.137377
vt 0.843624 0.214291
vt 0.770372 0.265563
vt 0.975472 0.137377
vt 0.919623 0.213376
vt 0.843624 0.269225
vt 0.971810 0.210629
vt 0.916877 0.265563
vt 0.960824 0.254577
vt 0.317058 0.326510
vt 0.315356 0.288984
vt 0.346938 0.290276
vt 0.354556 0.328756
vt 0.303878 0.288327
vt 0.317321 0.381143
vt 0.356807 0.381429
vt 0.353793 0.434064
vt 0.316267 0.435766
vt 0.345668 0.465596
vt 0.314021 0.473264
vt 0.061953 0.976559
vt 0.060266 0.944968
vt 0.097779 0.946943
vt 0.098808 0.966488
vt 0.094015 0.965739
vt 0.088304 0.970896
vt 0.088077 0.979864
vt 0.090557 0.982535
vt 0.097121 0.892313
vt 0.059692 0.933486
vt 0.061302 0.892313
vt 0.111043 0.982382
vt 0.111199 0.972412
vt 0.105508 0.966938
vt 0.152408 0.947601
vt 0.152408 0.973792
vt 0.147105 0.969099
vt 0.135450 0.968623
vt 0.129624 0.973303
vt 0.129624 0.983141
vt 0.132987 0.986117
vt 0.107920 0.984864
vt 0.093081 0.970359
vt 0.094023 0.965683
vt 0.104654 0.971179
vt 0.152408 0.892313
vt 0.097779 0.837684
vt 0.207038 0.946943
vt 0.205063 0.984456
vt 0.188696 0.985274
vt 0.191877 0.982459
vt 0.191877 0.972529
vt 0.186051 0.967828
vt 0.174396 0.968418
vt 0.168569 0.973574
vt 0.168569 0.983411
vt 0.171932 0.986112
vt 0.152408 0.987088
vt 0.152408 0.984514
vt 0.152932 0.984050
vt 0.152932 0.974213
vt 0.147105 0.970785
vt 0.135450 0.970785
vt 0.092611 0.977294
vt 0.104184 0.978113
vt 0.152408 0.837026
vt 0.207696 0.892313
vt 0.099753 0.800171
vt 0.209891 0.971825
vt 0.210121 0.980075
vt 0.213512 0.982344
vt 0.244551 0.944968
vt 0.236654 0.976559
vt 0.229938 0.978238
vt 0.232206 0.975591
vt 0.231347 0.965138
vt 0.229648 0.964253
vt 0.174396 0.970785
vt 0.186051 0.970785
vt 0.135450 0.977737
vt 0.147105 0.977737
vt 0.110439 0.976185
vt 0.152408 0.797539
vt 0.207038 0.837684
vt 0.247183 0.892313
vt 0.174396 0.977737
vt 0.186051 0.977737
vt 0.129624 0.975382
vt 0.152932 0.975382
vt 0.205063 0.800171
vt 0.244551 0.839658
vt 0.168569 0.975382
vt 0.191877 0.975382
vt 0.236654 0.808068
vt 0.272184 0.489303
vt 0.275295 0.489030
vt 0.278738 0.504878
vt 0.253987 0.503855
vt 0.253006 0.488518
vt 0.254827 0.539874
vt 0.280866 0.539580
vt 0.279522 0.574322
vt 0.254799 0.575902
vt 0.274549 0.595212
vt 0.253777 0.600654
vt 0.480557 0.762289
vt 0.480302 0.757007
vt 0.716639 0.864373
vt 0.716873 0.861308
vt 0.715835 0.842137
vt 0.731182 0.842945
vt 0.732484 0.867683
vt 0.717077 0.806919
vt 0.730748 0.806919
vt 0.767208 0.843379
vt 0.767208 0.859752
vt 0.765397 0.859932
vt 0.760802 0.862711
vt 0.759546 0.864923
vt 0.759177 0.867396
vt 0.759540 0.869036
vt 0.731182 0.770894
vt 0.715835 0.771701
vt 0.767208 0.806919
vt 0.803233 0.842945
vt 0.801932 0.867683
vt 0.777364 0.868912
vt 0.777693 0.866996
vt 0.777208 0.864544
vt 0.775851 0.862378
vt 0.773757 0.860719
vt 0.771137 0.859739
vt 0.768258 0.859535
vt 0.767208 0.770460
vt 0.716749 0.752543
vt 0.716499 0.749315
vt 0.732484 0.746155
vt 0.781461 0.817181
vt 0.781461 0.834203
vt 0.788532 0.842545
vt 0.802676 0.842154
vt 0.803251 0.841444
vt 0.803667 0.806919
vt 0.803641 0.809139
vt 0.802676 0.808002
vt 0.788532 0.808457
vt 0.767208 0.744419
vt 0.803233 0.770894
vt 0.809747 0.832827
vt 0.809747 0.825768
vt 0.807211 0.813016
vt 0.801932 0.746155
vt 0.139874 0.644312
vt 0.139874 0.658456
vt 0.143859 0.675992
vt 0.246191 0.632269
vt 0.232046 0.633852
vt 0.232044 0.676403
vt 0.246188 0.678153
vt 0.093934 0.965849
vt 0.089155 0.970965
vt 0.210295 0.972971
vt 0.226036 0.968699
vt 0.215874 0.973780
vn -0.059687 -0.996547 0.057714
vn -0.693086 -0.198154 0.693086
vn -0.932612 -0.255180 0.255180
vn -0.068459 -0.997464 0.019476
vn -0.956513 0.291690 -0.000000
vn -1.000000 0.000000 -0.000000
vn -0.956513 0.000000 0.291690
vn -0.930952 0.258195 0.258195
vn -0.577740 0.576569 -0.577741
vn -0.211205 0.669374 -0.712272
vn -0.258195 0.258195 -0.930952
vn -0.692565 0.201763 -0.692565
vn -0.930952 0.258195 -0.258195
vn -0.712272 0.669374 -0.211205
vn -0.707107 -0.000000 0.707107
vn 0.677244 0.062422 -0.733106
vn 0.688163 0.074980 -0.721672
vn -0.739345 0.673327 0.000083
vn -0.436583 0.858150 -0.270137
vn -0.270138 0.858150 -0.436583
vn -0.021452 -0.997556 0.066491
vn -0.255180 -0.255180 0.932612
vn -0.021572 -0.998243 -0.055191
vn 0.595390 -0.505771 -0.624265
vn 0.623195 -0.505786 -0.596497
vn 0.054559 -0.998313 0.019888
vn 0.042988 -0.997460 0.056796
vn 0.006091 -0.997646 0.068306
vn -0.007810 -0.997125 0.075373
vn -0.077320 -0.996989 0.005852
vn -0.068942 -0.997590 -0.007770
vn -0.059418 -0.997190 -0.045626
vn -0.493752 0.865495 -0.084423
vn -0.495479 0.868620 0.000191
vn -0.823681 -0.533627 -0.191813
vn -0.624454 -0.469163 -0.624454
vn -0.191813 -0.533627 -0.823681
vn -0.050022 -0.997494 -0.050028
vn -0.050022 -0.997494 -0.050028
vn -0.050022 -0.997494 -0.050028
vn -0.050022 -0.997494 -0.050028
vn -0.712005 0.669659 0.211200
vn -0.692565 0.201763 0.692565
vn 0.685928 0.063931 -0.724856
vn -0.084423 0.865495 -0.493752
vn -0.933041 -0.252175 -0.256597
vn -0.693138 -0.197786 -0.693138
vn -0.256597 -0.252175 -0.933041
vn -0.000000 -0.291690 0.956513
vn -0.291690 -0.000000 0.956513
vn -0.957668 -0.287876 0.000000
vn -0.866925 -0.490194 -0.090280
vn -0.870480 -0.492204 0.000000
vn -0.090281 -0.490194 -0.866925
vn 0.691910 0.040278 -0.720860
vn -0.291690 -0.000000 -0.956513
vn -0.707107 -0.000000 -0.707107
vn -0.956513 -0.000000 -0.291690
vn -0.493663 0.865537 0.084515
vn -0.436272 0.858000 0.271116
vn 0.734160 0.032072 -0.678218
vn 0.933173 -0.254153 0.254153
vn 0.254153 -0.254153 0.933173
vn -0.258195 0.258195 0.930952
vn -1.000000 -0.000000 -0.000000
vn 0.689247 0.047910 -0.722941
vn -0.000000 -0.000000 1.000000
vn -0.577671 0.576707 0.577672
vn -0.933214 -0.253475 0.254679
vn -0.866925 -0.490194 0.090280
vn -0.817555 -0.543542 0.190174
vn -0.692565 0.201763 -0.692565
vn -0.258195 0.258195 -0.930952
vn -0.930952 0.258195 -0.258195
vn 0.693266 -0.196886 0.693266
vn -0.271116 0.858000 0.436271
vn -0.211200 0.669659 0.712005
vn -0.177106 -0.554109 0.813386
vn -0.628355 -0.491303 0.603151
vn -0.059164 -0.996494 0.059165
vn -0.059164 -0.996494 0.059165
vn -0.059164 -0.996494 0.059165
vn -0.059164 -0.996493 0.059165
vn -0.956513 0.291690 0.000000
vn 0.691180 0.055969 -0.720512
vn -0.957119 0.000133 0.289695
vn -0.858613 -0.364058 0.360895
vn -0.858613 -0.364058 0.360895
vn -0.873046 -0.187316 0.450225
vn -0.577988 0.576072 -0.577988
vn -0.712585 0.668998 -0.211341
vn -0.211341 0.668998 -0.712585
vn -0.931412 0.258647 0.256075
vn -0.000000 0.291690 0.956513
vn 0.291690 0.000000 0.956513
vn 0.956513 -0.000000 0.291690
vn 0.737631 0.047071 -0.673561
vn -0.739716 0.672919 0.000011
vn 0.696953 0.062433 -0.714394
vn -0.084515 0.865537 0.493663
vn -0.000320 0.672802 0.739823
vn -0.000741 0.868550 0.495601
vn -0.788782 -0.569706 0.230777
vn -0.788782 -0.569706 0.230777
vn -0.788782 -0.569706 0.230777
vn 0.707107 -0.000000 0.707107
vn -0.389462 0.834649 -0.389462
vn -0.263887 0.859031 -0.438668
vn -0.438669 0.859031 -0.263886
vn -0.231052 -0.264915 0.936181
vn -0.435237 -0.211084 0.875221
vn -0.346694 -0.376255 0.859207
vn -0.346693 -0.376255 0.859207
vn -0.346694 -0.376255 0.859207
vn -0.346693 -0.376255 0.859207
vn -0.857425 0.399841 0.323959
vn -0.857425 0.399841 0.323959
vn -0.857425 0.399841 0.323959
vn 0.013473 -0.569705 0.821739
vn 0.013473 -0.569705 0.821739
vn 0.013473 -0.569705 0.821739
vn 0.000000 -0.287876 0.957668
vn -0.090280 -0.490194 0.866925
vn 0.000000 -0.492204 0.870480
vn 0.733106 0.062422 -0.677244
vn 0.930952 0.258195 0.258195
vn 0.258195 0.258195 0.930952
vn -0.055164 0.399839 0.914924
vn -0.055164 0.399839 0.914924
vn -0.055164 0.399839 0.914924
vn -0.492587 0.866188 -0.084115
vn -0.494334 0.869272 0.000026
vn -0.826100 -0.488218 0.281430
vn -0.826100 -0.488218 0.281430
vn -0.826100 -0.488218 0.281430
vn -0.711991 0.203826 0.671955
vn -0.781631 0.028526 0.623089
vn -0.803393 0.092887 0.588160
vn -0.866693 0.089819 0.490689
vn -0.866693 0.089819 0.490689
vn -0.805157 0.092824 0.585753
vn -0.711357 0.670823 0.209686
vn 0.698298 0.059728 -0.713311
vn -0.084115 0.866188 -0.492587
vn -0.826100 0.488218 0.281430
vn -0.826100 0.488218 0.281430
vn -0.826100 0.488218 0.281430
vn -0.866527 -0.089876 0.490973
vn -0.486983 0.093147 0.868430
vn -0.399170 -0.347700 -0.848392
vn -0.399170 -0.347700 -0.848391
vn -0.697295 -0.166013 -0.697295
vn -0.274576 -0.212490 -0.937793
vn -0.231562 -0.433871 -0.870710
vn -0.848391 -0.347700 -0.399170
vn -0.848391 -0.347700 -0.399170
vn -0.870710 -0.433871 -0.231562
vn -0.937793 -0.212490 -0.274576
vn -0.023844 -0.488219 0.872395
vn -0.023844 -0.488219 0.872395
vn -0.023844 -0.488219 0.872395
vn 0.700939 0.046125 -0.711728
vn -0.870962 -0.491351 0.000000
vn -0.969855 -0.243684 0.000000
vn -0.023844 0.488219 0.872395
vn -0.023844 0.488219 0.872395
vn -0.023844 0.488219 0.872395
vn -0.291690 0.000000 -0.956513
vn -0.707107 -0.000000 -0.707107
vn -0.956513 0.000000 -0.291690
vn 0.084157 0.865374 0.494009
vn 0.211177 0.668525 0.713077
vn 0.267254 0.858601 0.437470
vn -0.826100 -0.488218 0.281430
vn -0.826100 -0.488218 0.281430
vn -0.826100 -0.488218 0.281430
vn 0.721632 0.074833 -0.688220
vn 0.713077 0.668525 0.211177
vn 0.692565 0.201763 0.692565
vn -0.999820 -0.013389 -0.013408
vn 0.698834 0.048419 -0.713643
vn 0.724783 0.063670 -0.686029
vn 0.494009 0.865374 0.084157
vn 0.437471 0.858601 0.267254
vn -0.826098 0.488217 0.281437
vn -0.826098 0.488216 0.281437
vn -0.826098 0.488217 0.281437
vn -0.492576 0.866194 0.084128
vn -0.438577 0.859001 0.264135
vn -0.266840 0.001972 0.963739
vn 0.000000 -0.000000 1.000000
vn -0.023844 -0.488212 0.872399
vn -0.023844 -0.488212 0.872399
vn -0.023844 -0.488212 0.872399
vn -0.583792 0.596566 0.550723
vn -0.834645 0.391626 0.387294
vn -0.834645 0.391626 0.387295
vn -0.834645 0.391626 0.387294
vn -0.834645 0.391626 0.387295
vn -0.692565 0.201763 -0.692565
vn -0.258194 0.258195 -0.930952
vn -0.930952 0.258195 -0.258194
vn 0.633292 -0.444838 0.633293
vn 0.193647 -0.507365 0.839692
vn 0.043237 -0.998129 0.043237
vn 0.043237 -0.998129 0.043237
vn 0.043237 -0.998129 0.043237
vn 0.043237 -0.998129 0.043237
vn 0.839692 -0.507365 0.193647
vn -0.938265 -0.214607 0.271297
vn -0.870088 -0.434934 0.231905
vn -0.023844 0.488216 0.872397
vn -0.023844 0.488216 0.872397
vn -0.023844 0.488216 0.872397
vn -0.903776 -0.183057 0.386884
vn -0.903776 -0.183057 0.386884
vn -0.903776 -0.183057 0.386884
vn 0.090281 -0.490194 0.866925
vn 0.255857 -0.251448 0.933441
vn 0.933441 -0.251448 0.255857
vn 0.866925 -0.490194 0.090280
vn 0.720860 0.040278 -0.691910
vn 0.699683 0.051958 -0.712562
vn -0.951333 0.307537 -0.019684
vn -0.953837 -0.022193 0.299506
vn 0.693266 -0.196886 0.693266
vn 0.577975 0.576099 0.577975
vn -0.686085 0.721762 0.091363
vn -0.686085 0.721762 0.091363
vn -0.686085 0.721762 0.091363
vn -0.389462 0.834649 0.389462
vn -0.200127 0.682191 0.703253
vn -0.264135 0.859001 0.438577
vn -0.577350 0.577351 -0.577350
vn -0.692565 0.692565 -0.201762
vn -0.201762 0.692565 -0.692565
vn -0.101521 -0.183056 0.977847
vn -0.101521 -0.183056 0.977847
vn -0.101521 -0.183056 0.977847
vn -0.846976 -0.350065 0.400108
vn -0.846976 -0.350065 0.400108
vn -0.698628 -0.170756 0.694811
vn 0.116172 0.721768 0.682316
vn 0.116172 0.721768 0.682316
vn 0.116172 0.721768 0.682316
vn 0.696192 0.069199 -0.714512
vn -0.700273 0.713866 -0.003693
vn -0.725145 -0.094059 0.682142
vn -0.866985 -0.090400 0.490067
vn -0.866985 -0.090400 0.490067
vn -0.866985 -0.090400 0.490067
vn -0.866985 -0.090400 0.490067
vn -0.869404 -0.020568 0.493674
vn -0.873718 -0.453791 -0.175185
vn -0.873718 -0.453791 -0.175185
vn -0.873718 -0.453791 -0.175185
vn 0.000000 0.291690 0.956513
vn -0.237555 0.264515 0.934665
vn 0.291690 -0.000000 0.956513
vn 0.956513 -0.000000 0.291690
vn 0.722941 0.047910 -0.689247
vn -0.084128 0.866194 0.492576
vn -0.000036 0.672864 0.739767
vn -0.000084 0.869265 0.494346
vn -0.400109 -0.350066 0.846975
vn -0.400109 -0.350066 0.846975
vn -0.231905 -0.434934 0.870088
vn -0.269020 -0.215834 0.938640
vn -0.258195 0.930952 -0.258194
vn -0.873718 0.453791 -0.175187
vn -0.873718 0.453791 -0.175187
vn -0.873718 0.453791 -0.175187
vn 0.707107 -0.000000 0.707107
vn -0.697695 -0.453791 0.554343
vn -0.697695 -0.453791 0.554342
vn -0.697695 -0.453791 0.554342
vn 0.972103 0.000000 -0.234556
vn 0.972103 0.000000 -0.234556
vn 0.972103 0.000000 -0.234556
vn -0.729403 -0.555824 -0.398786
vn -0.691639 0.014433 0.722099
vn -0.826124 -0.286558 -0.485185
vn -0.573341 -0.775365 -0.264742
vn 0.712562 0.051958 -0.699683
vn 0.713643 0.048419 -0.698834
vn 0.711728 0.046125 -0.700939
vn 0.713307 0.059714 -0.698303
vn 0.714392 0.062425 -0.696956
vn 0.720512 0.055969 -0.691180
vn 0.678218 0.032072 -0.734160
vn 0.673561 0.047071 -0.737631
vn 0.704720 0.055257 -0.707330
vn 0.707330 0.055257 -0.704720
vn 0.714512 0.069199 -0.696192
vn -0.681139 0.703514 0.202777
vn -0.900734 0.423163 0.098044
vn -0.864960 0.494348 0.086390
vn -0.864960 0.494348 0.086390
vn -0.865171 0.460396 0.198784
vn -0.370037 -0.924297 -0.093526
vn 0.930952 0.258195 0.258195
vn 0.258195 0.258195 0.930952
vn -0.855515 0.025624 -0.517144
vn -0.811889 0.319842 -0.488403
vn -0.000000 -0.491351 0.870962
vn -0.000000 -0.243684 0.969855
vn -0.697693 0.453790 0.554346
vn -0.697693 0.453790 0.554346
vn -0.697693 0.453790 0.554346
vn -0.702166 0.585961 -0.404490
vn -0.291690 0.956513 0.000000
vn 0.000000 0.956513 -0.291689
vn 0.136189 -0.936272 0.323802
vn -0.097618 -0.986363 0.132512
vn -0.311296 -0.024341 0.950001
vn -0.491075 -0.011417 0.871042
vn -0.489367 -0.091053 0.867312
vn -0.489367 -0.091053 0.867312
vn -0.489367 -0.091053 0.867312
vn -0.489367 -0.091053 0.867312
vn -0.489367 -0.091053 0.867312
vn 0.346319 -0.797909 0.493361
vn -0.534758 0.800115 -0.271753
vn 0.514233 -0.585933 0.626296
vn -0.322793 0.941118 -0.100508
vn 0.625575 -0.320359 0.711355
vn -0.866686 -0.089883 0.490689
vn -0.808970 -0.092821 0.580475
vn -0.810825 -0.092749 0.577894
vn -0.866686 -0.089883 0.490689
vn -0.866686 -0.089883 0.490689
vn -0.046695 0.990948 0.125861
vn 0.185251 0.929685 0.318384
vn 0.642415 0.287623 0.710335
vn 0.671146 -0.010097 0.741256
vn 0.388764 0.780505 0.489565
vn 0.545615 0.559357 0.624039
vn -0.258194 0.930952 0.258194
vn 0.255715 0.932320 -0.255715
vn 0.000000 1.000000 -0.000000
vn 0.019247 -0.019383 0.999627
vn 0.084087 0.866177 0.492613
vn 0.211332 0.668889 0.712690
vn 0.263308 0.859101 0.438880
vn 0.712690 0.668888 0.211332
vn 0.692565 0.201763 0.692565
vn 0.492613 0.866176 0.084087
vn 0.438880 0.859100 0.263307
vn 0.938022 -0.211829 0.274304
vn 0.872158 -0.431379 0.230767
vn 0.274304 -0.211829 0.938023
vn 0.230766 -0.431379 0.872158
vn -0.943145 -0.097319 0.317817
vn -0.943145 -0.097319 0.317817
vn -0.943145 -0.097319 0.317817
vn -0.943145 -0.097319 0.317817
vn -0.287407 0.282612 0.915166
vn -0.677291 0.212256 0.704432
vn -0.700538 0.092296 0.707621
vn -0.488649 0.091723 0.867646
vn -0.488649 0.091723 0.867646
vn -0.488649 0.091723 0.867646
vn -0.488649 0.091723 0.867646
vn -0.488649 0.091723 0.867646
vn -0.488649 0.091723 0.867646
vn -0.447092 -0.657059 0.606945
vn -0.447092 -0.657059 0.606945
vn -0.447092 -0.657059 0.606945
vn -0.447092 -0.657059 0.606945
vn -0.572457 0.579788 0.579775
vn -0.206420 0.703614 0.679940
vn 0.396983 -0.342161 0.851663
vn 0.396983 -0.342161 0.851663
vn 0.697452 -0.164682 0.697453
vn 0.851663 -0.342161 0.396984
vn 0.851663 -0.342161 0.396984
vn -0.588907 -0.118531 0.799462
vn -0.588907 -0.118531 0.799462
vn -0.588907 -0.118531 0.799462
vn -0.588907 -0.118531 0.799462
vn -0.548755 -0.453793 0.702096
vn -0.548755 -0.453793 0.702096
vn -0.548755 -0.453793 0.702096
vn 0.389462 0.834649 0.389461
vn 0.578035 0.575978 0.578035
vn 0.588895 0.118531 -0.799471
vn 0.588895 0.118531 -0.799471
vn 0.588895 0.118531 -0.799471
vn 0.588895 0.118531 -0.799471
vn 0.624260 -0.694974 0.356807
vn 0.624260 -0.694974 0.356807
vn 0.624260 -0.694974 0.356807
vn 0.624260 -0.694974 0.356807
vn 0.000000 0.956513 0.291689
vn 0.291690 0.956513 0.000000
vn 0.956513 0.000000 0.291690
vn 0.291690 0.000000 0.956513
vn -0.526260 0.461148 0.714418
vn -0.526260 0.461148 0.714418
vn -0.526260 0.461148 0.714418
vn -0.526260 0.461148 0.714418
vn -0.548751 0.453790 0.702101
vn -0.548751 0.453790 0.702101
vn -0.548751 0.453790 0.702101
vn -0.023887 -0.097319 0.994967
vn -0.023887 -0.097319 0.994967
vn -0.023887 -0.097319 0.994967
vn -0.023887 -0.097319 0.994967
vn 0.004735 0.715760 0.698331
vn 0.707107 -0.000000 0.707107
vn 0.182159 -0.453790 0.872292
vn 0.182159 -0.453790 0.872292
vn 0.182159 -0.453790 0.872292
vn 0.525855 0.694975 0.490394
vn 0.525855 0.694975 0.490393
vn 0.525855 0.694975 0.490394
vn 0.525855 0.694975 0.490394
vn 0.258195 0.930952 0.258194
vn 0.930952 0.258195 0.258194
vn 0.028316 0.313678 0.949107
vn 0.258194 0.258195 0.930952
vn 0.226783 0.000002 -0.973945
vn 0.226783 0.000002 -0.973945
vn 0.226783 0.000002 -0.973945
vn -0.094794 0.439160 0.893394
vn -0.085399 0.495404 0.864455
vn -0.085399 0.495404 0.864455
vn -0.085399 0.495404 0.864455
vn -0.095430 0.435206 0.895259
vn -0.805138 -0.000000 -0.593087
vn -0.805138 -0.000000 -0.593087
vn -0.805138 -0.000000 -0.593087
vn -0.805138 -0.000000 -0.593087
vn 0.182159 0.453790 0.872292
vn 0.182159 0.453790 0.872292
vn 0.182159 0.453790 0.872292
vn 0.000000 -1.000000 0.000000
vn 0.000000 -1.000000 0.000000
vn 0.000000 -1.000000 0.000000
vn 0.000000 -1.000000 0.000000
vn -0.946577 0.000000 0.322477
vn -0.946577 0.000000 0.322477
vn -0.946577 0.000000 0.322477
vn -0.946577 0.000000 0.322477
vn -0.490131 -0.563074 0.665372
vn -0.490131 -0.563074 0.665372
vn -0.490131 -0.563074 0.665372
vn -0.490131 -0.563074 0.665372
vn 0.201762 0.692565 0.692565
vn 0.692565 0.692565 0.201762
vn 0.692565 0.201763 0.692565
vn -0.593088 0.000000 0.805138
vn -0.593088 0.000000 0.805138
vn -0.593088 0.000000 0.805138
vn -0.593088 0.000000 0.805138
vn 0.575057 -0.699910 0.423598
vn 0.575057 -0.699910 0.423598
vn 0.575057 -0.699910 0.423598
vn 0.575057 -0.699910 0.423598
vn 0.577350 0.577351 0.577350
vn -0.490131 0.563074 0.665371
vn -0.490131 0.563074 0.665371
vn -0.490131 0.563074 0.665371
vn -0.490131 0.563074 0.665371
vn 0.000000 1.000000 -0.000023
vn 0.000000 1.000000 -0.000023
vn 0.000000 1.000000 -0.000023
vn 0.000000 1.000000 -0.000023
vn -0.027320 0.000000 0.999627
vn -0.027320 0.000000 0.999627
vn -0.027320 0.000000 0.999627
vn -0.027320 0.000000 0.999627
vn 0.805138 -0.000000 0.593088
vn 0.805138 -0.000000 0.593088
vn 0.805138 -0.000000 0.593088
vn 0.805138 -0.000000 0.593088
vn -0.805139 0.000000 -0.593086
vn -0.805139 0.000000 -0.593086
vn -0.805139 0.000000 -0.593086
vn -0.805139 0.000000 -0.593086
vn 0.000000 -1.000000 -0.000013
vn 0.000000 -1.000000 -0.000013
vn 0.000000 -1.000000 -0.000013
vn 0.000000 -1.000000 -0.000013
vn -0.946577 0.000000 0.322478
vn -0.946577 0.000000 0.322478
vn -0.946577 0.000000 0.322478
vn -0.946577 0.000000 0.322478
vn -0.490131 -0.563074 0.665372
vn -0.490131 -0.563074 0.665372
vn -0.490131 -0.563074 0.665372
vn -0.490131 -0.563074 0.665372
vn -0.593088 0.000000 0.805138
vn -0.593088 0.000000 0.805138
vn -0.593088 0.000000 0.805138
vn -0.593088 0.000000 0.805138
vn 0.575055 -0.699906 0.423607
vn 0.575055 -0.699906 0.423607
vn 0.575055 -0.699906 0.423607
vn 0.575055 -0.699906 0.423607
vn -0.486957 0.093275 0.868431
vn -0.486957 0.093275 0.868431
vn -0.486957 0.093275 0.868431
vn -0.486957 0.093275 0.868431
vn -0.486957 0.093275 0.868431
vn -0.486957 0.093275 0.868431
vn -0.486957 0.093275 0.868431
vn -0.486957 0.093275 0.868431
vn -0.488485 0.050265 0.871123
vn -0.490131 0.563074 0.665371
vn -0.490131 0.563074 0.665371
vn -0.490131 0.563074 0.665371
vn -0.490131 0.563074 0.665371
vn -0.027320 0.000000 0.999627
vn -0.027320 0.000000 0.999627
vn -0.027320 0.000000 0.999627
vn -0.027320 0.000000 0.999627
vn 0.575055 0.699907 0.423606
vn 0.575055 0.699907 0.423605
vn 0.575055 0.699907 0.423606
vn 0.575055 0.699907 0.423605
vn -0.805139 0.000000 -0.593086
vn -0.805139 0.000000 -0.593086
vn -0.805139 0.000000 -0.593086
vn -0.805139 0.000000 -0.593086
vn -0.910863 0.308637 0.273994
vn -0.910863 0.308637 0.273994
vn -0.910863 0.308637 0.273994
vn -0.910863 0.308637 0.273994
vn -0.579719 -0.211124 0.786989
vn -0.579719 -0.211124 0.786989
vn -0.579719 -0.211124 0.786989
vn -0.579719 -0.211124 0.786989
vn -0.549588 0.375907 0.746087
vn -0.549588 0.375907 0.746087
vn -0.549588 0.375907 0.746087
vn -0.549588 0.375907 0.746087
vn 0.419013 -0.648573 0.635437
vn 0.419013 -0.648573 0.635438
vn 0.419013 -0.648573 0.635437
vn 0.419013 -0.648573 0.635437
vn -0.328650 0.832427 0.446155
vn -0.328650 0.832427 0.446155
vn -0.328650 0.832427 0.446155
vn -0.328650 0.832427 0.446155
vn 0.008394 0.308636 0.951143
vn 0.008394 0.308636 0.951143
vn 0.008394 0.308636 0.951143
vn 0.008394 0.308636 0.951143
vn 0.805139 0.000000 0.593086
vn 0.805139 0.000000 0.593086
vn 0.805139 0.000000 0.593086
vn 0.805139 0.000000 0.593086
vn -0.149470 -0.770658 -0.619471
vn -0.149470 -0.770658 -0.619471
vn -0.149470 -0.770658 -0.619471
vn -0.149470 -0.770658 -0.619471
vn -0.525854 -0.694971 -0.490400
vn -0.525854 -0.694971 -0.490400
vn -0.525854 -0.694971 -0.490400
vn -0.525854 -0.694971 -0.490400
vn -0.525854 -0.694971 -0.490400
vn -0.980485 0.000000 -0.196592
vn -0.980485 0.000000 -0.196592
vn -0.980485 0.000000 -0.196592
vn -0.980485 0.000000 -0.196592
vn -0.981445 0.135639 0.135528
vn -0.940208 0.112941 0.321329
vn -0.981445 0.135639 0.135528
vn -0.981445 0.135639 0.135528
vn -0.847643 -0.489562 0.204526
vn -0.847643 -0.489562 0.204526
vn -0.847643 -0.489562 0.204527
vn -0.847643 -0.489562 0.204527
vn -0.972103 0.000000 0.234556
vn -0.972103 0.000000 0.234556
vn -0.972103 0.000000 0.234556
vn -0.972103 0.000000 0.234556
vn 0.070299 -0.992951 -0.095432
vn 0.070299 -0.992951 -0.095432
vn 0.070299 -0.992951 -0.095432
vn 0.070299 -0.992951 -0.095432
vn 0.070299 -0.992951 -0.095432
vn 0.149471 -0.770659 0.619470
vn 0.149471 -0.770659 0.619470
vn 0.149471 -0.770659 0.619470
vn 0.149471 -0.770659 0.619470
vn -0.847643 0.489562 0.204526
vn -0.847643 0.489562 0.204526
vn -0.847643 0.489562 0.204527
vn -0.847643 0.489562 0.204527
vn -0.624260 0.694973 -0.356808
vn -0.624260 0.694973 -0.356808
vn -0.624260 0.694973 -0.356808
vn -0.624260 0.694973 -0.356808
vn -0.624260 0.694973 -0.356808
vn -0.782947 0.000000 0.622088
vn -0.782947 0.000000 0.622088
vn -0.782947 0.000000 0.622088
vn -0.782947 0.000000 0.622088
vn -0.849187 -0.136086 -0.510257
vn -0.228417 -0.973310 0.022200
vn 0.234557 0.000000 0.972102
vn 0.234557 0.000000 0.972102
vn 0.234557 0.000000 0.972102
vn 0.234557 0.000000 0.972103
vn -0.070298 0.992950 0.095434
vn -0.070298 0.992950 0.095434
vn -0.070298 0.992950 0.095434
vn -0.070298 0.992950 0.095434
vn -0.177926 0.983919 0.015653
vn 0.659096 -0.168290 0.732988
vn -0.575055 -0.699907 -0.423605
vn -0.575055 -0.699907 -0.423605
vn -0.575055 -0.699907 -0.423605
vn -0.575055 -0.699907 -0.423605
vn -0.575055 -0.699907 -0.423605
vn -0.853362 0.308938 0.419917
vn -0.837273 0.386654 0.386617
vn -0.620648 -0.770654 -0.144530
vn -0.620648 -0.770654 -0.144530
vn -0.620648 -0.770654 -0.144530
vn -0.620648 -0.770654 -0.144530
vn -0.973946 -0.000000 -0.226782
vn -0.973946 -0.000000 -0.226782
vn -0.973946 -0.000000 -0.226782
vn -0.973946 -0.000000 -0.226782
vn -0.615811 0.000000 0.787894
vn -0.615811 0.000000 0.787894
vn -0.615811 0.000000 0.787894
vn -0.615811 0.000000 0.787894
vn -0.197746 -0.489563 0.849249
vn -0.197746 -0.489563 0.849249
vn -0.197746 -0.489563 0.849249
vn -0.197746 -0.489563 0.849249
vn -0.575056 -0.699906 -0.423605
vn -0.575056 -0.699906 -0.423606
vn -0.575056 -0.699906 -0.423605
vn -0.575056 -0.699906 -0.423605
vn -0.575056 -0.699906 -0.423605
vn 0.575055 0.699907 0.423606
vn 0.575055 0.699907 0.423606
vn 0.575055 0.699907 0.423606
vn 0.575055 0.699907 0.423606
vn 0.575055 0.699907 0.423606
vn -0.226781 0.000000 0.973946
vn -0.226781 0.000000 0.973946
vn -0.226781 0.000000 0.973946
vn -0.226781 0.000000 0.973946
vn 0.620647 -0.770660 0.144503
vn 0.620647 -0.770660 0.144503
vn 0.620647 -0.770660 0.144503
vn 0.620647 -0.770660 0.144503
vn -0.197746 0.489563 0.849249
vn -0.197746 0.489563 0.849249
vn -0.197746 0.489563 0.849249
vn -0.197746 0.489563 0.849249
vn 0.204420 0.000000 0.978883
vn 0.204420 0.000000 0.978883
vn 0.204420 0.000000 0.978883
vn 0.204420 0.000000 0.978883
vn -0.575058 0.699908 -0.423601
vn -0.575058 0.699908 -0.423601
vn -0.575058 0.699908 -0.423601
vn -0.575058 0.699908 -0.423600
vn -0.575058 0.699908 -0.423600
vn 0.000000 1.000000 0.000000
vn 0.000000 1.000000 0.000000
vn 0.000000 1.000000 0.000000
vn 0.000000 1.000000 0.000000
vn 0.805138 0.000000 0.593088
vn 0.805138 0.000000 0.593088
vn 0.805138 0.000000 0.593088
vn 0.805138 0.000000 0.593088
vn -0.731099 -0.648574 -0.211769
vn -0.731099 -0.648574 -0.211769
vn -0.731099 -0.648574 -0.211769
vn -0.731099 -0.648574 -0.211769
vn -0.731099 -0.648574 -0.211769
vn -0.222945 -0.926658 0.302656
vn -0.222945 -0.926658 0.302656
vn -0.222945 -0.926658 0.302656
vn -0.222945 -0.926658 0.302656
vn -0.222945 -0.926658 0.302656
vn -0.419013 0.648575 -0.635436
vn -0.419013 0.648575 -0.635436
vn -0.419013 0.648575 -0.635436
vn -0.419013 0.648575 -0.635436
vn -0.419013 0.648575 -0.635436
vn -0.805139 0.000000 -0.593086
vn -0.805139 0.000000 -0.593086
vn -0.805139 0.000000 -0.593086
vn -0.805139 0.000000 -0.593086
vn -0.805139 0.000000 -0.593086
vn 0.222949 0.926654 -0.302665
vn 0.222949 0.926654 -0.302665
vn 0.222949 0.926654 -0.302665
vn 0.222949 0.926654 -0.302665
vn 0.731099 0.648574 0.211769
vn 0.731099 0.648574 0.211769
vn 0.731099 0.648574 0.211769
vn 0.731099 0.648574 0.211769
vn 0.731099 0.648574 0.211769
vn -0.234556 0.000000 -0.972103
vn -0.234556 0.000000 -0.972103
vn -0.234556 0.000000 -0.972103
vn -0.234556 0.000000 -0.972103
vn 0.805138 0.000001 0.593088
vn 0.805138 0.000001 0.593088
vn 0.805138 0.000001 0.593088
vn 0.805138 0.000001 0.593088
vn 0.805138 0.000001 0.593088
vn 0.805138 0.000001 0.593088
vn -0.486999 -0.093692 0.868363
vn -0.486999 -0.093692 0.868363
vn -0.486999 -0.093692 0.868363
vn -0.486999 -0.093692 0.868363
vn -0.486999 -0.093692 0.868363
vn -0.486999 -0.093692 0.868363
vn -0.486999 -0.093692 0.868363
vn -0.575059 0.699902 -0.423608
vn -0.575060 0.699902 -0.423608
vn -0.575059 0.699902 -0.423608
vn -0.575060 0.699902 -0.423608
vn -0.575059 0.699902 -0.423608
vn -0.575060 0.699902 -0.423608
vn 0.000000 -1.000000 0.000022
vn 0.000000 -1.000000 0.000022
vn 0.000000 -1.000000 0.000022
vn 0.000000 -1.000000 0.000022
vn -0.620646 0.770657 -0.144521
vn -0.620646 0.770657 -0.144521
vn -0.620646 0.770657 -0.144521
vn -0.620646 0.770657 -0.144521
vn -0.620646 0.770657 -0.144521
vn 0.000000 1.000000 0.000000
vn 0.000000 1.000000 0.000000
vn 0.000000 1.000000 0.000000
vn 0.000000 1.000000 0.000000
vn 0.000000 1.000000 0.000000
vn 0.973946 -0.000000 0.226782
vn 0.973946 -0.000000 0.226782
vn 0.973946 -0.000000 0.226782
vn 0.973946 -0.000000 0.226782
vn -0.378056 0.406078 0.831970
vn -0.378056 0.406078 0.831970
vn -0.378056 0.406078 0.831970
vn -0.378056 0.406078 0.831970
vn -0.378056 0.406078 0.831970
vn -0.378056 0.406078 0.831970
vn -0.378056 0.406078 0.831970
vn 0.549587 -0.375908 -0.746088
vn 0.549587 -0.375908 -0.746088
vn 0.549587 -0.375908 -0.746088
vn 0.549587 -0.375908 -0.746088
vn 0.549587 -0.375908 -0.746088
vn 0.000000 -1.000000 -0.000004
vn 0.000000 -1.000000 -0.000004
vn 0.000000 -1.000000 -0.000004
vn 0.000000 -1.000000 -0.000004
vn 0.000000 -1.000000 -0.000004
vn -0.149472 0.770661 -0.619467
vn -0.149472 0.770661 -0.619467
vn -0.149472 0.770661 -0.619467
vn -0.149472 0.770661 -0.619467
vn -0.149472 0.770661 -0.619467
vn -0.149472 0.770661 -0.619467
vn 0.000000 1.000000 0.000000
vn 0.000000 1.000000 0.000000
vn 0.000000 1.000000 0.000000
vn 0.000000 1.000000 0.000000
vn 0.000000 1.000000 0.000000
vn 0.000000 1.000000 0.000000
vn 0.149470 0.770657 0.619473
vn 0.149470 0.770657 0.619473
vn 0.149470 0.770657 0.619473
vn 0.149470 0.770657 0.619473
vn 0.149470 0.770657 0.619473
vn 0.620646 0.770658 0.144515
vn 0.620646 0.770658 0.144515
vn 0.620646 0.770658 0.144515
vn 0.620646 0.770658 0.144515
vn 0.620646 0.770658 0.144515
vn 0.620646 0.770658 0.144515
vn -0.864881 0.086234 0.494515
vn -0.864881 0.086234 0.494515
vn -0.864881 0.086234 0.494515
vn -0.864881 0.086234 0.494515
vn -0.864881 0.086234 0.494515
vn -0.864881 0.086234 0.494515
vn -0.864881 0.086234 0.494515
vn -0.864881 0.086234 0.494515
vn -0.135400 0.134424 0.981630
vn -0.135400 0.134424 0.981630
vn -0.135400 0.134424 0.981630
vn -0.135400 0.134424 0.981630
vn -0.135400 0.134424 0.981630
vn -0.135400 0.134424 0.981630
vn -0.956513 -0.291690 -0.000000
vn -0.956513 0.000000 -0.291690
vn -0.291690 -0.000000 -0.956513
vn -0.707107 0.000000 -0.707107
vn -0.932776 -0.254881 -0.254881
vn -0.254881 -0.254881 -0.932776
vn -0.693138 -0.197786 -0.693138
s 1
g snowman:pCube15
usemtl initialShadingGroup
f 4/1/1 7/2/2 8/3/3 5/4/4
f 11/14/5 9/9/6 10/5/7 27/11/8
f 14/25/9 12/428/10 13/429/11 382/24/12
f 16/20/13 15/23/14 14/25/9 382/24/12
f 10/5/7 8/3/3 7/2/2 30/6/15
f 17/130/16 13/429/11 12/428/10 29/131/17
f 15/23/14 16/20/13 11/14/5 28/21/18
f 14/25/9 15/23/14 22/262/19 21/263/20 12/264/10
f 4/1/1 6/433/21 23/434/22 7/2/2
f 387/286/23 1/287/24 24/288/25 25/289/26 56/290/27 51/291/28 18/292/29 6/293/21 4/294/1 5/295/4 26/296/30 386/297/31 392/298/32
f 31/265/33 22/262/19 15/23/14 28/21/18 45/266/34
f 39/27/35 33/26/36 38/299/37 32/300/38 21/301/39 22/302/40 31/31/41
f 11/14/5 27/11/8 35/17/42 28/21/18
f 36/10/43 27/11/8 10/5/7 30/6/15
f 37/267/44 29/268/17 12/264/10 21/263/20 32/269/45
f 33/26/36 39/27/35 40/28/46 42/29/47
f 41/453/48 38/454/37 33/455/36 42/456/47
f 6/433/21 18/435/29 43/436/49 23/434/22
f 44/437/50 30/6/15 7/2/2 23/434/22
f 49/30/51 40/28/46 39/27/35 31/31/52 45/32/53
f 32/457/54 38/454/37 41/453/48 48/133/55 37/132/44
f 46/458/56 41/453/48 42/456/47 50/459/57
f 42/29/47 40/28/46 47/33/58 50/34/57
f 52/270/59 45/266/34 28/21/18 35/17/42 66/271/60
f 25/111/26 24/112/25 3/113/61 63/114/62
f 43/436/49 18/435/29 51/438/28 64/439/63
f 36/10/43 30/6/15 44/437/50 65/441/64
f 47/33/58 40/28/46 49/30/51 57/35/65
f 48/133/55 41/453/48 46/458/56 58/134/66
f 44/437/50 23/434/22 43/436/49 68/440/67
f 54/16/68 35/17/42 27/11/8 36/10/43
f 59/36/69 49/30/51 45/32/53 52/37/70 67/38/71
f 46/458/56 50/459/57 55/460/72 61/461/73
f 55/39/72 50/34/57 47/33/58 62/40/74
f 64/439/63 51/438/28 56/442/27 76/443/75
f 56/146/27 25/111/26 63/114/62 76/147/75
f 74/272/76 66/271/60 35/17/42 54/16/68 77/273/77
f 54/16/68 36/10/43 65/441/64 77/446/77
f 83/303/78 72/43/79 67/38/71 52/37/80 66/304/81 74/305/82 84/306/83
f 47/33/58 57/35/65 69/42/84 62/40/74
f 70/135/85 58/134/66 46/458/56 61/461/73
f 71/41/86 57/35/65 49/30/51 59/36/69
f 59/36/69 67/38/71 72/43/79 343/44/87 344/45/88 252/46/89
f 73/47/90 55/39/72 62/40/74 78/48/91
f 61/461/73 55/460/72 73/462/90 79/463/92
f 69/42/84 57/35/65 71/41/86 93/49/93
f 80/445/94 65/441/64 44/437/50 68/440/67
f 43/436/49 64/439/63 81/444/95 68/440/67
f 82/145/96 63/114/62 3/113/61 20/126/97
f 78/48/91 62/40/74 69/42/84 94/57/98
f 70/135/85 61/461/73 79/463/92 95/136/99
f 84/274/100 74/272/76 77/273/77 99/275/101 112/276/102
s off
f 85/58/103 86/77/104 87/59/105
s 1
f 76/147/75 63/114/62 82/145/96 111/161/106
f 81/444/95 64/439/63 76/443/75 111/447/106
f 77/446/77 65/441/64 80/445/94 99/449/101
f 88/307/107 105/308/108 79/309/92 73/47/90 78/48/91 104/310/109
f 72/464/79 83/465/78 89/466/110 377/467/111 283/468/112 286/469/113 348/470/114 343/471/115
s off
f 90/61/116 91/78/117 92/68/118
f 96/402/119 97/92/120 98/401/121
s 1
f 128/472/122 89/466/110 83/465/78 84/473/123 112/474/124
f 82/145/96 20/126/97 34/125/125 130/159/126
f 80/445/94 68/440/67 81/444/95 131/448/127
s off
f 100/525/128 101/508/129 102/488/130
s 1
f 106/314/131 104/310/109 78/48/91 94/57/98 129/315/132
s off
f 108/70/133 109/90/134 110/71/135
s 1
f 113/62/136 93/49/93 71/41/86 119/56/137 366/63/138 328/64/139 329/65/140 333/66/141
f 69/42/84 93/49/93 114/67/142 94/57/98
f 115/311/143 95/312/99 79/309/92 105/308/108 107/313/144
s off
f 116/73/145 117/91/146 118/74/147
s 1
f 119/56/137 120/55/148 121/76/149
f 105/538/150 88/539/151 124/540/152 122/541/153 107/542/154
f 88/175/155 104/176/156 106/177/157 123/178/158 124/179/152
s off
f 125/506/159 126/523/160 127/531/161
s 1
f 115/137/143 107/542/154 122/541/153 143/138/162
f 123/178/158 106/177/157 129/180/163 142/181/164
s off
f 132/532/165 133/524/166 134/505/167
s 1
f 135/543/168 122/541/153 124/540/152 141/544/169
f 124/179/152 123/178/158 136/182/170 141/183/169
f 137/277/171 112/276/102 99/275/101 145/278/172 161/279/173
s off
f 138/84/174 139/98/175 140/85/176
s 1
f 34/125/125 53/124/177 144/158/178 130/159/126
f 145/451/172 99/449/101 80/445/94 131/448/127
f 146/173/179 111/161/106 82/145/96 130/159/126
f 81/444/95 111/447/106 146/450/179 131/448/127
f 136/182/170 123/178/158 142/181/164 163/186/180
f 143/138/162 122/541/153 135/543/168 164/139/181
f 144/281/178 53/283/177 60/284/182 147/285/183 160/282/184
s off
f 149/87/185 150/99/186 151/88/187
s 1
f 152/316/188 129/315/132 94/57/98 114/67/142 178/317/189
f 153/478/190 89/466/110 128/472/122 187/489/191
s off
f 154/521/192 155/529/193 156/535/194
s 1
f 157/79/195 114/67/142 93/49/93 113/62/136 372/80/196 337/81/197 338/82/198 339/83/199
f 135/543/168 141/544/169 158/545/200 174/546/201
f 158/187/200 141/183/169 136/182/170 173/188/202
f 169/334/203 162/335/204 137/336/205 161/337/206 160/338/207 147/339/208 159/340/209
f 165/184/210 142/181/164 129/180/163 152/185/211
s off
f 166/536/212 167/530/213 168/522/214
f 170/94/215 171/103/216 172/95/217
s 1
f 137/336/218 162/335/204 175/490/219 128/472/122 112/474/124
f 176/155/220 159/156/209 147/157/221 60/123/182 75/122/222
f 179/140/223 164/139/181 135/543/168 174/546/201
f 136/182/170 163/186/180 180/193/224 173/188/202
f 181/189/225 163/186/180 142/181/164 165/184/210
f 175/490/219 162/335/204 169/334/203 198/511/226
f 169/171/203 159/156/209 176/155/220 198/170/226
f 182/280/227 144/281/178 160/282/184 161/279/173 145/278/172
s off
f 183/97/228 184/104/229 185/110/230
s 1
f 186/318/231 178/317/189 114/67/142 157/79/195 200/319/232 208/320/233
f 182/452/227 145/451/172 131/448/127 146/450/179
f 130/159/126 144/158/178 182/172/227 146/173/179
f 188/194/234 158/187/200 173/188/202 196/195/235
f 174/546/201 158/545/200 188/547/234 197/548/236
s off
f 190/549/237 191/108/238 192/107/239
s 1
f 165/184/210 152/185/211 178/190/240 186/191/241 199/192/242
s off
f 193/390/243 194/389/244 195/391/245
s 1
f 179/140/223 174/546/201 197/548/236 217/141/246
f 196/195/235 173/188/202 180/193/224 216/207/247
f 181/189/225 165/184/210 199/192/242 357/201/248 233/202/249 230/203/250 227/204/251 229/205/252 356/206/253
s off
f 201/226/254 202/227/255 203/228/256
s 1
f 205/510/257 204/491/258 153/478/190 187/489/191
f 128/472/122 175/490/219 206/509/259 187/489/191
f 207/154/260 176/155/220 75/122/222 103/121/261
f 210/321/262 208/320/233 200/319/232 226/322/263 236/323/264
f 186/551/265 208/552/266 210/553/267 211/554/268 199/555/242
f 188/194/234 196/195/235 212/341/269 197/342/236
s off
f 213/232/270 214/231/271 215/235/272
s 1
f 200/515/232 204/491/258 205/510/257 226/528/263
f 206/509/259 175/490/219 198/511/226 246/526/273
f 198/170/226 176/155/220 207/154/260 246/169/273
s off
f 218/233/274 219/230/275 220/229/276
f 222/238/277 223/239/278 224/240/279
s 10
f 227/204/280 228/223/281 229/205/282
f 230/203/283 228/223/281 227/204/280
s 1
f 297/115/284 221/116/285 225/117/286 189/118/287 177/119/288 148/120/289 103/121/261 75/122/222 60/123/182 53/124/177 34/125/125 20/126/97 3/113/61 24/112/25 1/127/24 2/128/290 19/129/291 17/130/16 29/131/17 37/132/44 48/133/55 58/134/66 70/135/85 95/136/99 115/137/143 143/138/162 164/139/181 179/140/223 217/141/246 231/142/292 278/143/293 307/144/294
f 232/208/295 216/207/247 180/193/224 350/197/296 222/209/297 224/210/298 378/211/299
s 10
f 233/360/300 228/361/281 230/362/283
s 1
f 207/154/260 103/121/261 148/120/289 261/153/301
f 205/510/257 187/489/191 206/509/259 260/527/302
s 10
f 234/217/303 228/223/281 235/218/304
s 1
f 211/554/268 210/553/267 236/556/305 259/557/306
s off
f 237/237/307 238/234/308 239/236/309
s 10
f 235/218/304 228/223/281 240/219/310
s 1
f 196/195/235 216/207/247 241/343/311 212/341/269
f 242/344/312 217/345/246 197/342/236 212/341/269
s 10
f 243/365/313 228/361/281 244/363/314
s 1
f 199/555/242 211/554/268 245/558/315 360/559/316 251/560/317 249/367/318 247/561/319 243/562/320 244/563/321 357/564/248
s 10
f 247/366/322 228/361/281 243/365/313
f 240/219/310 228/223/281 248/220/323
f 249/367/324 228/361/281 247/366/322
f 248/220/323 228/223/281 250/221/325
f 251/560/326 228/361/281 249/367/324
s 1
f 71/41/86 59/36/69 252/46/89 355/50/327 354/51/328 361/52/329 310/53/330 311/54/331 120/55/148 119/56/137
s 10
f 253/368/332 228/223/281 254/370/333
f 255/575/334 228/361/281 256/576/335
f 254/370/333 228/223/281 257/371/336
f 258/574/337 228/361/281 255/575/334
f 257/371/336 228/223/281 258/372/337
s 1
f 241/343/311 216/207/247 232/208/295 269/346/338
f 231/348/292 217/345/246 242/344/312 270/349/339
f 242/344/312 212/341/269 241/343/311 274/347/340
f 245/558/315 211/554/268 259/557/306 275/567/341
f 262/324/342 236/323/264 226/322/263 265/325/343 276/326/344
f 148/120/289 177/119/288 263/152/345 261/153/301
f 206/509/259 246/526/273 264/533/346 260/527/302
f 264/168/346 246/169/273 207/154/260 261/153/301
f 265/534/343 226/528/263 205/510/257 260/527/302
f 263/329/345 177/331/288 189/332/287 268/333/347 277/330/348
f 189/118/287 225/117/286 266/150/349 268/151/350
f 267/565/351 259/557/306 236/556/305 262/566/352
s off
f 87/59/353 86/77/354 91/78/355 90/61/356
s 1
f 245/558/315 272/568/357 271/569/358 359/570/359 253/571/360 254/572/361 257/573/362 258/574/363 255/575/364 256/576/365 360/559/316
s off
f 86/77/366 85/58/367 98/401/368 97/92/369
s 1
f 269/346/338 232/208/295 273/224/370 287/350/371
f 273/224/370 271/569/358 272/568/357 287/350/371
f 267/565/351 262/566/352 276/578/372 279/579/373 288/580/374
f 279/165/375 277/166/376 268/151/350 266/150/349 288/164/374
f 231/348/292 270/349/339 278/353/293
s off
f 86/77/377 97/92/378 101/93/379 91/78/380
f 280/246/381 281/247/382 282/242/383
s 1
f 279/327/384 276/326/344 265/325/343 293/328/385 263/329/345 277/330/348
s off
f 283/468/386 284/603/387 285/604/388 286/469/389
f 96/402/390 98/401/391 285/400/392 284/403/393
s 1
f 241/343/311 269/346/338 289/351/394 274/347/340
f 290/352/395 270/349/339 242/344/312 274/347/340
f 291/148/396 266/150/349 225/117/286 221/116/285
f 259/557/306 267/565/351 292/577/397 275/567/341
f 293/167/385 264/168/346 261/153/301 263/152/345
f 260/527/302 264/533/346 293/537/385 265/534/343
s off
f 92/68/398 91/78/399 101/93/400 100/100/401
f 294/243/402 295/248/403 296/249/404
f 97/507/405 96/486/406 102/488/407 101/508/408
s 1
f 278/353/293 270/349/339 290/352/395 307/356/294
f 289/351/394 269/346/338 287/350/371 308/354/409
f 292/577/397 267/565/351 288/580/374 309/590/410
f 288/164/374 266/150/349 291/148/396 309/163/410
s off
f 298/252/411 299/596/412 300/256/413
f 301/404/414 100/100/415 102/406/416 302/407/417
s 1
f 290/352/395 274/347/340 289/351/394 317/355/418
f 291/148/396 221/116/285 297/115/284 319/149/419
f 303/586/420 275/567/341 292/577/397 318/591/421
s off
f 304/416/422 305/261/423 306/598/424
s 1
f 303/586/420 308/354/409 287/350/371 272/568/357 381/585/425 380/592/426 304/593/427 306/594/428 370/587/429
s off
f 310/53/430 110/71/431 116/73/432 311/54/433
f 312/258/434 313/597/435 314/255/436
f 315/373/437 127/374/438 108/70/439 316/72/440
f 110/71/441 109/90/442 117/91/443 116/73/444
f 109/90/445 108/70/446 127/374/447 126/101/448
s 1
f 289/351/394 308/354/409 320/357/449 317/355/418
f 321/358/450 307/356/294 290/352/395 317/355/418
f 297/115/284 307/144/294 321/160/450 319/149/419
f 320/357/449 308/354/409 303/586/420 318/591/421
f 292/577/397 309/590/410 322/595/451 318/591/421
f 322/162/451 309/163/410 291/148/396 319/149/419
s off
f 109/90/452 126/101/453 133/102/454 117/91/455
f 323/375/456 125/376/457 127/374/458 315/373/459
s 1
f 324/359/460 320/357/449 318/591/421 322/595/451
f 319/149/419 321/160/450 324/174/460 322/162/451
f 324/359/460 321/358/450 317/355/418 320/357/449
s off
f 118/74/461 117/91/462 133/102/463 132/378/464
f 325/377/465 118/74/466 132/378/467 326/379/468
f 126/523/469 125/506/470 134/505/471 133/524/472
f 327/480/473 134/505/474 125/506/475 323/481/476
f 328/64/477 140/85/478 149/87/479 329/65/480
f 330/383/481 156/384/482 138/84/483 331/86/484
f 140/85/485 139/98/486 150/99/487 149/87/488
f 139/98/489 138/84/490 156/384/491 155/105/492
f 139/98/493 155/105/494 167/106/495 150/99/496
f 332/385/497 154/386/498 156/384/499 330/383/500
s 1
f 153/478/190 204/491/258 113/492/136 333/493/141 334/494/501 335/495/502 336/496/503 332/497/504 330/498/505 331/499/506 366/500/138 119/501/137 121/502/149 325/503/507 326/504/508 367/479/509
s off
f 151/88/510 150/99/511 167/106/512 166/408/513
f 155/529/514 154/521/515 168/522/516 167/530/517
f 335/409/518 166/408/519 168/410/520 336/411/521
f 337/81/522 172/95/523 183/97/524 338/82/525
f 172/95/526 171/103/527 184/104/528 183/97/529
f 171/103/530 170/94/531 192/107/532 191/108/533
f 171/103/534 191/108/535 194/109/536 184/104/537
f 190/414/538 192/107/539 341/413/540 342/415/541
f 185/387/542 184/388/543 194/389/544 193/390/545
f 191/108/546 190/549/547 195/391/548 194/109/549
f 190/549/550 342/550/551 345/394/552 195/391/553
f 346/418/554 201/226/555 203/228/556 347/421/557
f 85/58/558 87/59/559 344/45/560 343/44/561 348/60/562
f 203/228/563 202/227/564 214/231/565 213/232/566
s 1
f 349/196/567 350/197/296 180/193/224 163/186/180 181/189/225 209/198/568 346/199/569 347/200/570
s off
f 202/227/571 201/226/572 220/229/573 219/230/574
f 202/227/575 219/230/576 238/234/577 214/231/578
f 286/399/579 285/400/580 98/401/581 85/58/582 348/60/583
f 351/420/584 218/233/585 220/229/586 352/417/587
f 215/235/588 214/231/589 238/234/590 237/237/591
f 90/61/592 92/68/593 353/69/594 354/51/595 355/50/596
f 219/230/597 218/233/598 239/236/599 238/234/600
s 10
f 229/205/282 228/223/281 234/217/303 356/206/601
f 244/363/314 228/361/281 233/360/300 357/364/602
s off
f 358/599/603 239/236/604 218/233/605 351/600/606
f 92/68/607 100/100/608 301/404/609 353/405/610
s 10
f 250/221/325 228/223/281 253/368/332 359/369/611
f 256/576/335 228/361/281 251/560/326 360/559/612
s off
f 108/70/613 110/71/614 310/53/615 361/52/616 316/72/617
s 1
f 362/213/618 271/212/358 273/224/370 232/208/295 378/211/299 379/225/619
s off
f 363/245/620 280/246/621 282/242/622 364/241/623
f 364/241/624 282/242/625 294/243/626 365/244/627
f 282/242/628 281/247/629 295/248/630 294/243/631
f 281/247/632 280/246/633 300/256/634 299/596/635
f 138/84/636 140/85/637 328/64/638 366/63/639 331/86/640
f 132/378/641 134/380/642 327/381/643 367/382/644 326/379/645
f 281/247/646 299/596/647 313/597/648 295/248/649
f 368/253/650 298/252/651 300/256/652 369/257/653
f 296/249/654 295/248/655 313/597/656 312/258/657
f 299/596/658 298/252/659 314/255/660 313/597/661
f 149/87/662 151/88/663 334/89/664 333/66/665 329/65/666
f 151/88/667 166/408/668 335/409/669 334/89/670
f 154/521/671 332/497/672 336/496/673 168/522/674
f 170/94/675 172/95/676 337/81/677 372/80/678 373/96/679
f 374/412/680 341/413/681 192/107/682 170/94/683 373/96/684
f 183/396/685 185/387/686 340/393/687 339/397/688 338/398/689
f 344/45/690 87/59/691 90/61/692 355/50/693 252/46/694
f 185/387/695 193/390/696 375/392/697 340/393/698
f 375/392/699 193/390/700 195/391/701 345/394/702 376/395/703
f 347/601/704 203/228/705 213/232/706 349/602/707
f 96/486/708 284/487/709 283/468/710 377/467/711 302/477/712 102/488/713
s 1
f 353/475/714 301/476/715 302/477/716 377/467/111 89/466/110 153/478/190 367/479/509 327/480/717 323/481/718 315/482/719 316/483/720 361/484/329 354/485/328
s off
f 116/73/721 118/74/722 325/75/723 121/76/724 120/55/725 311/54/726
f 369/257/727 300/256/728 280/246/729 363/245/730
f 294/243/731 296/249/732 380/250/733 381/251/734 365/244/735
f 380/250/736 296/249/737 312/258/738 305/261/739 304/416/740
f 298/252/741 368/253/742 371/254/743 314/255/744
s 1
f 374/512/745 373/513/746 372/514/747 113/492/136 204/491/258 200/515/232 157/516/195 339/517/748 340/518/749 375/519/750 376/520/751
s off
f 341/605/752 374/512/753 376/520/754 345/606/755 342/607/756
f 352/417/757 220/229/758 201/226/759 346/418/760 209/419/761
f 213/232/762 215/235/763 223/239/764 222/238/765 350/426/766 349/427/767
f 215/235/768 237/237/769 379/422/770 378/423/771 224/240/772 223/239/773
f 237/237/774 239/236/775 358/424/776 362/425/777 379/422/778
f 312/258/779 314/255/780 371/254/781 370/259/782 306/260/783 305/261/784
s 1
f 271/212/358 362/213/618 358/214/785 351/215/786 352/216/787 209/198/568 181/189/225 356/206/253 234/217/788 235/218/789 240/219/790 248/220/791 250/221/792 359/222/359
f 369/581/793 363/582/794 364/583/795 365/584/796 381/585/425 272/568/357 245/558/315 275/567/341 303/586/420 370/587/429 371/588/797 368/589/798
f 383/7/799 8/3/3 10/5/7 9/9/6
f 11/14/5 16/20/13 384/15/800 9/9/6
f 385/430/801 13/429/11 17/130/16 19/129/291
f 382/24/12 13/429/11 385/430/801 388/22/802
f 384/15/800 16/20/13 382/24/12 388/22/802
f 5/4/4 8/3/3 383/7/799 26/8/30
f 383/7/799 9/9/6 384/15/800 390/13/803
f 385/430/801 19/129/291 2/128/290 389/431/804
f 384/15/800 388/22/802 391/18/805 390/13/803
f 391/18/805 388/22/802 385/430/801 389/431/804
f 386/12/31 26/8/30 383/7/799 390/13/803
f 2/128/290 1/127/24 387/432/23 389/431/804
f 392/19/32 391/18/805 389/431/804 387/432/23
f 390/13/803 391/18/805 392/19/32 386/12/31
