# This file uses centimeters as units for non-parametric coordinates.

mtllib Winter_Hat.mtl
g default
v -0.195935 0.098552 -0.246871
v -0.248936 0.096011 -0.167735
v -0.269681 0.089883 -0.181493
v -0.292642 0.085474 -0.091494
v -0.317029 0.077518 -0.099185
v -0.269681 0.162254 -0.172205
v -0.195935 0.162728 -0.238085
v -0.180862 0.103431 -0.228338
v -0.103009 0.103700 -0.289135
v -0.307702 0.072248 -0.007009
v -0.317029 0.160218 -0.089136
v -0.333344 0.061981 -0.007904
v -0.103009 0.162959 -0.280109
v -0.095085 0.107837 -0.267465
v -0.248936 0.156935 -0.158225
v -0.180862 0.154040 -0.218873
v -0.292642 0.159404 -0.081713
v 0.000000 0.105250 -0.303434
v -0.229523 0.188020 -0.180103
v -0.333344 0.155934 0.003159
v -0.166758 0.176153 -0.234768
v -0.292642 0.057472 0.077480
v -0.095085 0.152102 -0.257679
v -0.269820 0.202438 -0.110842
v 0.000000 0.162952 -0.294316
v -0.317029 0.044666 0.083459
v 0.000000 0.109215 -0.280810
v -0.087670 0.168495 -0.269462
v -0.307702 0.160493 0.003352
v -0.186702 0.251850 -0.199909
v -0.135647 0.240319 -0.243507
v -0.317029 0.149587 0.095668
v 0.000000 0.151372 -0.270872
v -0.219481 0.266421 -0.143801
v -0.283705 0.217373 -0.033744
v -0.071314 0.232951 -0.270951
v 0.095085 0.107837 -0.267465
v 0.000000 0.165794 -0.281308
v -0.269681 0.027658 0.165943
v 0.103009 0.103700 -0.289135
v -0.230776 0.282313 -0.080878
v -0.248936 0.042888 0.153686
v -0.124468 0.302894 -0.206311
v 0.000000 0.230450 -0.280310
v -0.090431 0.294076 -0.233708
v 0.095085 0.152102 -0.257679
v -0.292642 0.159868 0.088681
v 0.087670 0.168495 -0.269462
v -0.269820 0.231148 0.043762
v 0.103009 0.162959 -0.280109
v -0.146321 0.314435 -0.171091
v -0.269681 0.142207 0.179349
v -0.047542 0.288262 -0.251048
v 0.071314 0.232951 -0.270951
v 0.180863 0.103431 -0.228338
v -0.195934 0.013290 0.231404
v -0.219481 0.297901 -0.017399
v -0.153851 0.327009 -0.131654
v 0.195935 0.098552 -0.246871
v 0.000000 0.286479 -0.256972
v -0.180862 0.030496 0.214101
v 0.047543 0.288262 -0.251048
v -0.248936 0.157851 0.165845
v 0.166758 0.176153 -0.234768
v -0.229523 0.242650 0.114091
v 0.180863 0.154040 -0.218873
v -0.146321 0.339975 -0.091370
v 0.195935 0.162728 -0.238085
v 0.135647 0.240319 -0.243507
v -0.195934 0.135224 0.245768
v -0.048679 0.330009 -0.215462
v -0.186702 0.311477 0.039713
v -0.026404 0.322093 -0.225873
v -0.066808 0.336188 -0.202229
v 0.248936 0.096011 -0.167735
v -0.103009 0.003809 0.273702
v 0.090431 0.294076 -0.233708
v 0.000000 0.322297 -0.228128
v -0.074219 0.347166 -0.185663
v 0.269681 0.089883 -0.181493
v -0.124468 0.351413 -0.054966
v -0.095085 0.022297 0.253144
v -0.166758 0.251159 0.170136
v 0.229523 0.188020 -0.180103
v -0.180862 0.155367 0.227304
v 0.026405 0.322093 -0.225873
v 0.186702 0.251850 -0.199909
v 0.248936 0.156935 -0.158225
v -0.073100 0.363841 -0.152359
v 0.124468 0.302894 -0.206312
v -0.103009 0.130403 0.288648
v 0.269681 0.162254 -0.172205
v -0.135647 0.321975 0.085021
v -0.090431 0.360732 -0.025586
v 0.048679 0.330009 -0.215462
v -0.050676 0.375935 -0.126710
v 0.292642 0.085474 -0.091494
v 0.000000 0.000493 0.288296
v 0.317029 0.077518 -0.099185
v 0.000000 0.019424 0.266613
v 0.146321 0.314435 -0.171091
v 0.066808 0.336188 -0.202229
v 0.219482 0.266421 -0.143801
v -0.087670 0.256337 0.206223
v -0.095085 0.153451 0.266931
v 0.269820 0.202438 -0.110842
v -0.047542 0.366543 -0.006861
v 0.292642 0.159404 -0.081713
v 0.000000 0.128667 0.303433
v -0.071314 0.328560 0.114026
v 0.074220 0.347166 -0.185663
v -0.011953 0.454969 -0.295603
v -0.031294 0.460775 -0.286243
v 0.000000 0.479753 -0.274024
v 0.317029 0.160218 -0.089136
v 0.095085 0.022297 0.253144
v -0.038682 0.470170 -0.271099
v 0.011954 0.454969 -0.295603
v 0.307702 0.072248 -0.007009
v -0.011135 0.383814 -0.111566
v -0.031294 0.479566 -0.255955
v 0.153851 0.327009 -0.131654
v 0.031294 0.460775 -0.286243
v 0.073101 0.363841 -0.152358
v 0.103009 0.003809 0.273702
v 0.060957 0.372869 -0.132832
v 0.333344 0.061981 -0.007904
v 0.032721 0.381392 -0.116646
v 0.000000 0.368779 -0.000100
v -0.011953 0.485372 -0.246596
v 0.038682 0.470170 -0.271099
v 0.230777 0.282313 -0.080878
v 0.011954 0.485372 -0.246596
v 0.031294 0.479566 -0.255955
v 0.180863 0.030496 0.214101
v 0.000000 0.258071 0.218675
v 0.292642 0.057472 0.077480
v 0.000000 0.152724 0.280597
v 0.146321 0.339975 -0.091370
v 0.124468 0.351413 -0.054966
v 0.283706 0.217373 -0.033744
v 0.000000 0.330810 0.124028
v 0.090431 0.360732 -0.025586
v 0.047543 0.366543 -0.006861
v 0.307702 0.160493 0.003352
v 0.195935 0.013290 0.231404
v 0.317029 0.044666 0.083459
v 0.333344 0.155934 0.003159
v 0.248936 0.042888 0.153686
v 0.071314 0.328560 0.114026
v 0.103009 0.130403 0.288648
v 0.269681 0.027658 0.165943
v 0.219481 0.297901 -0.017399
v 0.095085 0.153451 0.266931
v 0.317029 0.149587 0.095668
v 0.135647 0.321975 0.085021
v 0.186702 0.311477 0.039713
v 0.195935 0.135224 0.245768
v 0.087670 0.256337 0.206222
v 0.269820 0.231148 0.043762
v 0.269681 0.142207 0.179349
v 0.292642 0.159868 0.088681
v 0.180863 0.155367 0.227304
v 0.166758 0.251159 0.170136
v 0.229523 0.242650 0.114091
v 0.248936 0.157851 0.165845
v -0.036788 0.336726 -0.276523
v -0.096313 0.356334 -0.245774
v -0.101270 0.375036 -0.266781
v -0.038682 0.355165 -0.298278
v -0.031294 0.324446 -0.247375
v -0.081929 0.341730 -0.220544
v -0.078032 0.356183 -0.165969
v -0.096313 0.395922 -0.281913
v -0.036788 0.377635 -0.311184
v -0.101270 0.369695 -0.177130
v -0.119050 0.388060 -0.196023
v -0.125176 0.407188 -0.215819
v 0.031294 0.324446 -0.247375
v 0.036789 0.336726 -0.276523
v 0.038682 0.355165 -0.298278
v -0.119050 0.425511 -0.234551
v -0.081929 0.417706 -0.290325
v -0.031294 0.402505 -0.314828
v 0.036789 0.377635 -0.311184
v -0.101270 0.442303 -0.250677
v 0.031294 0.402505 -0.314828
v -0.059525 0.439603 -0.291755
v -0.022736 0.428650 -0.309455
v -0.081929 0.397660 -0.133716
v -0.096313 0.419786 -0.146271
v 0.081929 0.341730 -0.220544
v 0.096314 0.356334 -0.245775
v -0.073577 0.457326 -0.263114
v 0.022737 0.428650 -0.309455
v -0.101270 0.439340 -0.164856
v 0.101270 0.375036 -0.266781
v -0.096313 0.455100 -0.187190
v 0.096314 0.395922 -0.281913
v -0.081929 0.466900 -0.211030
v 0.081929 0.417706 -0.290325
v -0.059525 0.475048 -0.234474
v 0.059525 0.439603 -0.291755
v -0.031294 0.414944 -0.106885
v -0.036788 0.439394 -0.115524
v 0.101270 0.369695 -0.177130
v 0.119051 0.388060 -0.196023
v 0.078033 0.356183 -0.165969
v -0.038682 0.459211 -0.133359
v 0.125177 0.407188 -0.215819
v -0.036788 0.473386 -0.157918
v 0.119051 0.425511 -0.234551
v 0.031294 0.414944 -0.106885
v -0.022736 0.486001 -0.216774
v -0.031294 0.482101 -0.186527
v 0.073577 0.457326 -0.263114
v 0.101270 0.442303 -0.250677
v 0.081929 0.397660 -0.133716
v 0.036789 0.439394 -0.115524
v 0.096314 0.419786 -0.146271
v 0.022737 0.486001 -0.216774
v 0.059525 0.475048 -0.234474
v 0.038682 0.459211 -0.133359
v 0.101270 0.439340 -0.164856
v 0.031294 0.482101 -0.186527
v 0.081929 0.466900 -0.211030
v 0.036789 0.473386 -0.157918
v 0.096314 0.455100 -0.187190
vt 0.483868 0.343563
vt 0.111714 0.109398
vt 0.060054 0.140918
vt 0.463075 0.376066
vt 0.493665 0.307525
vt 0.504962 0.307811
vt 0.131347 0.147129
vt 0.181956 0.129880
vt 0.081213 0.172050
vt 0.984569 0.498746
vt 0.350575 0.426275
vt 0.491798 0.270934
vt 0.503129 0.268181
vt 0.232898 0.119444
vt 0.950554 0.509123
vt 0.927475 0.689674
vt 0.927162 0.639385
vt 0.185101 0.144363
vt 0.966501 0.439496
vt 0.310292 0.421911
vt 0.535663 0.458179
vt 0.910852 0.673703
vt 0.914099 0.629298
vt 0.478594 0.236643
vt 0.489023 0.230926
vt 0.544645 0.465173
vt 0.901071 0.715857
vt 0.934545 0.450886
vt 0.235353 0.134572
vt 0.875049 0.651110
vt 0.878369 0.615932
vt 0.522695 0.507380
vt 0.877226 0.579074
vt 0.284606 0.113244
vt 0.531879 0.509705
vt 0.866474 0.684125
vt 0.883594 0.754367
vt 0.272627 0.406974
vt 0.942945 0.381414
vt 0.463863 0.198849
vt 0.455225 0.207219
vt 0.564731 0.518916
vt 0.911045 0.396015
vt 0.286447 0.129080
vt 0.851759 0.714202
vt 0.808003 0.621182
vt 0.816926 0.608493
vt 0.827702 0.593782
vt 0.509494 0.557166
vt 0.520619 0.554480
vt 0.858074 0.787880
vt 0.798592 0.633006
vt 0.338265 0.111594
vt 0.611732 0.544489
vt 0.555865 0.555475
vt 0.241061 0.382691
vt 0.913685 0.326680
vt 0.429668 0.174380
vt 0.423580 0.184840
vt 0.830613 0.740271
vt 0.788111 0.643486
vt 0.339067 0.128646
vt 0.881164 0.346117
vt 0.619616 0.559892
vt 0.512511 0.598993
vt 0.498073 0.606672
vt 0.824946 0.815037
vt 0.775443 0.652043
vt 0.549993 0.591456
vt 0.393962 0.113991
vt 0.802818 0.587445
vt 0.793184 0.594721
vt 0.803693 0.760979
vt 0.813110 0.580706
vt 0.783281 0.599212
vt 0.218367 0.351487
vt 0.879650 0.276476
vt 0.389090 0.159367
vt 0.386092 0.171127
vt 0.625082 0.575296
vt 0.630003 0.536058
vt 0.393417 0.132209
vt 0.772913 0.605581
vt 0.846050 0.302631
vt 0.636829 0.547575
vt 0.760606 0.659376
vt 0.785483 0.834498
vt 0.509075 0.643198
vt 0.490238 0.656344
vt 0.644622 0.558493
vt 0.548047 0.626428
vt 0.764678 0.607875
vt 0.745856 0.612628
vt 0.629137 0.589717
vt 0.451295 0.120393
vt 0.771974 0.775537
vt 0.743992 0.663172
vt 0.651376 0.569044
vt 0.206438 0.316096
vt 0.841353 0.231078
vt 0.345375 0.155110
vt 0.345738 0.167250
vt 0.449065 0.139309
vt 0.807204 0.265913
vt 0.634049 0.603864
vt 0.551518 0.660232
vt 0.659300 0.576653
vt 0.512414 0.686294
vt 0.741604 0.845214
vt 0.488986 0.706173
vt 0.725995 0.664832
vt 0.736955 0.783359
vt 0.723217 0.612485
vt 0.509218 0.130628
vt 0.667043 0.586119
vt 0.640459 0.617213
vt 0.634443 0.484476
vt 0.768076 0.507797
vt 0.616750 0.468169
vt 0.305686 0.173526
vt 0.586727 0.073889
vt 0.778135 0.509789
vt 0.637398 0.472042
vt 0.206120 0.279459
vt 0.799270 0.189963
vt 0.786148 0.516785
vt 0.561496 0.692136
vt 0.635724 0.459729
vt 0.765207 0.235255
vt 0.505141 0.149367
vt 0.707966 0.662911
vt 0.700437 0.784290
vt 0.790327 0.527585
vt 0.629452 0.450519
vt 0.566157 0.145382
vt 0.523880 0.726989
vt 0.789953 0.539572
vt 0.619797 0.446322
vt 0.269083 0.189450
vt 0.645761 0.095890
vt 0.695675 0.846728
vt 0.217255 0.244442
vt 0.752109 0.154504
vt 0.660771 0.640661
vt 0.613245 0.672322
vt 0.674132 0.590990
vt 0.685161 0.598851
vt 0.497120 0.755202
vt 0.578440 0.721083
vt 0.690586 0.657145
vt 0.653780 0.701894
vt 0.700611 0.607432
vt 0.238829 0.213677
vt 0.700997 0.122994
vt 0.664482 0.777840
vt 0.620967 0.163379
vt 0.601908 0.745617
vt 0.560327 0.163516
vt 0.720749 0.208133
vt 0.544044 0.763974
vt 0.631053 0.764807
vt 0.650504 0.838278
vt 0.672626 0.184339
vt 0.516234 0.801625
vt 0.572685 0.795831
vt 0.613895 0.180177
vt 0.608751 0.821042
vt 0.546713 0.843054
vt 0.718558 0.498456
vt 0.789511 0.437823
vt 0.782668 0.450097
vt 0.701704 0.503749
vt 0.630042 0.519071
vt 0.788593 0.584700
vt 0.776960 0.461706
vt 0.685425 0.504986
vt 0.769388 0.593655
vt 0.819501 0.450889
vt 0.810384 0.460307
vt 0.644407 0.542099
vt 0.710657 0.458465
vt 0.696289 0.463376
vt 0.802116 0.469631
vt 0.772077 0.474174
vt 0.744553 0.475820
vt 0.683004 0.467270
vt 0.794002 0.480203
vt 0.669640 0.470286
vt 0.768510 0.489203
vt 0.748668 0.493615
vt 0.750971 0.598211
vt 0.844452 0.471834
vt 0.659129 0.561474
vt 0.698869 0.420963
vt 0.785735 0.493503
vt 0.654799 0.472210
vt 0.833335 0.478536
vt 0.686695 0.427958
vt 0.822447 0.486069
vt 0.675724 0.435093
vt 0.811156 0.495210
vt 0.664457 0.442679
vt 0.798965 0.505384
vt 0.651441 0.450998
vt 0.730822 0.598830
vt 0.863256 0.502586
vt 0.674225 0.576170
vt 0.680166 0.387933
vt 0.851100 0.508052
vt 0.671009 0.399488
vt 0.837843 0.513922
vt 0.662337 0.410449
vt 0.617113 0.340732
vt 0.807063 0.524116
vt 0.823047 0.519401
vt 0.641733 0.435195
vt 0.652956 0.422020
vt 0.649459 0.353682
vt 0.611254 0.354387
vt 0.646678 0.368473
vt 0.808455 0.546536
vt 0.625205 0.426838
vt 0.606280 0.369520
vt 0.643104 0.381689
vt 0.601473 0.406380
vt 0.631592 0.409814
vt 0.602491 0.386757
vt 0.638149 0.395067
vt 0.623576 0.525586
vt 0.735400 0.489570
vt 0.764671 0.413115
vt 0.810155 0.572147
vt 0.845471 0.549342
vt 0.827416 0.549805
vt 0.861589 0.545546
vt 0.603243 0.427597
vt 0.875389 0.539045
vt 0.608494 0.448891
vt 0.689747 0.587439
vt 0.689382 0.375964
vt 0.709400 0.595326
vt 0.887222 0.530452
vt 0.875232 0.497909
vt 0.714358 0.414237
vt 0.856974 0.465933
vt 0.758111 0.512210
vt 0.652318 0.495752
vt 0.726061 0.453015
vt 0.830222 0.440524
vt 0.669267 0.502370
vt 0.744569 0.459427
vt 0.797531 0.423393
vt 0.747977 0.443604
vt 0.754884 0.427727
vt 0.664811 0.199517
vt 0.587726 0.876670
vt 0.712495 0.221773
vt 0.636961 0.899611
vt 0.756687 0.247996
vt 0.631496 0.688878
vt 0.674652 0.649711
vt 0.690869 0.909756
vt 0.229707 0.205836
vt 0.262382 0.179373
vt 0.206504 0.239357
vt 0.678912 0.710548
vt 0.705743 0.714672
vt 0.194645 0.277387
vt 0.301993 0.161966
vt 0.798324 0.277779
vt 0.599481 0.652570
vt 0.649578 0.629510
vt 0.745691 0.907892
vt 0.772948 0.529469
vt 0.732891 0.714667
vt 0.195179 0.317056
vt 0.525051 0.057851
vt 0.590760 0.630572
vt 0.836052 0.313654
vt 0.759049 0.709928
vt 0.797829 0.892672
vt 0.586493 0.606532
vt 0.208241 0.355291
vt 0.462287 0.046815
vt 0.783056 0.700454
vt 0.586366 0.581049
vt 0.869557 0.355821
vt 0.843453 0.865656
vt 0.803623 0.686881
vt 0.232910 0.388968
vt 0.589394 0.554637
vt 0.399449 0.042302
vt 0.843020 0.576892
vt 0.603987 0.503696
vt 0.602697 0.525696
vt 0.820248 0.669497
vt 0.897855 0.403717
vt 0.879845 0.829325
vt 0.595175 0.528431
vt 0.832238 0.649193
vt 0.267142 0.415204
vt 0.337945 0.044008
vt 0.843739 0.601884
vt 0.840093 0.626356
vt 0.576460 0.482519
vt 0.905756 0.786338
vt 0.920186 0.455840
vt 0.307963 0.431318
vt 0.278363 0.051434
vt 0.913523 0.583178
vt 0.923873 0.588692
vt 0.042222 0.217298
vt 0.935105 0.510340
vt 0.921201 0.739115
vt 0.220734 0.064094
vt 0.032440 0.205388
vt 0.087741 0.185602
vt 0.011248 0.177305
vt 0.438980 0.410076
vt 0.351586 0.436114
vt 0.135850 0.161301
vt 0.433013 0.402187
vt 0.165379 0.084010
vt 0.471586 0.381845
vt 0.494203 0.346757
vn 0.243213 -0.967569 0.068253
vn -0.744159 -0.221740 -0.630126
vn -0.520237 -0.212263 -0.827223
vn 0.160215 -0.978533 0.129631
vn 0.319947 -0.946977 -0.029470
vn -0.905755 -0.233013 -0.353997
vn -0.735938 0.367064 -0.568911
vn -0.908633 0.289709 -0.300757
vn -0.501718 0.440530 -0.744455
vn -0.264652 -0.200792 -0.943208
vn 0.078470 -0.983586 0.162482
vn 0.372168 -0.914113 -0.160900
vn -0.968555 -0.247444 -0.025924
vn -0.975850 0.216870 0.026152
vn -0.248490 0.497439 -0.831148
vn -0.569299 0.733220 -0.371870
vn -0.377722 0.822160 -0.425886
vn -0.704776 0.682118 -0.194953
vn 0.000000 -0.196100 -0.980584
vn -0.000000 -0.984884 0.173217
vn -0.166059 0.935546 -0.311735
vn -0.743823 0.189048 -0.641084
vn -0.536755 0.019413 -0.843515
vn 0.380639 -0.871225 -0.309970
vn -0.915860 -0.262979 0.303385
vn -0.275081 -0.096407 -0.956575
vn -0.857952 0.357248 -0.369179
vn 0.000000 0.519634 -0.854389
vn -0.759212 0.649094 0.047697
vn -0.644965 0.394149 -0.654727
vn -0.468721 0.268713 -0.841484
vn 0.000000 0.981965 -0.189063
vn -0.242591 0.187687 -0.951800
vn -0.922311 0.153382 0.354706
vn 0.000000 -0.134420 -0.990925
vn -0.735154 0.536231 -0.414734
vn -0.871565 0.485304 -0.069677
vn -0.078470 -0.983586 0.162483
vn 0.264653 -0.200790 -0.943209
vn -0.762220 -0.277219 0.584953
vn 0.337141 -0.826081 -0.451582
vn 0.000000 0.160634 -0.987014
vn 0.248490 0.497438 -0.831149
vn -0.722177 0.621785 0.303058
vn -0.731559 0.661908 -0.163400
vn -0.482530 0.607984 -0.630492
vn -0.347418 0.526638 -0.775857
vn -0.179424 0.473143 -0.862521
vn 0.166058 0.935545 -0.311737
vn 0.275080 -0.096406 -0.956576
vn -0.795126 0.567005 0.215127
vn -0.553856 0.704885 -0.443149
vn -0.766112 0.102299 0.634514
vn -0.000000 0.456357 -0.889797
vn 0.242592 0.187688 -0.951800
vn -0.160216 -0.978533 0.129633
vn 0.520238 -0.212261 -0.827223
vn -0.540016 -0.288372 0.790711
vn 0.249963 -0.788050 -0.562580
vn -0.653159 0.754538 0.063679
vn -0.556828 0.792393 -0.249111
vn -0.604788 0.597052 0.527029
vn 0.501719 0.440527 -0.744456
vn 0.179425 0.473144 -0.862521
vn 0.536755 0.019413 -0.843515
vn 0.377723 0.822160 -0.425886
vn -0.647902 0.612288 0.453130
vn -0.489267 0.869035 -0.073461
vn 0.468720 0.268712 -0.841484
vn -0.541863 0.065270 0.837929
vn -0.514462 0.126480 -0.848134
vn -0.728521 0.258778 -0.634264
vn -0.523968 0.815161 0.246921
vn -0.279861 -0.003015 -0.960036
vn -0.795101 0.454400 -0.401665
vn -0.243214 -0.967568 0.068253
vn 0.744158 -0.221739 -0.630127
vn -0.279058 -0.294843 0.913890
vn 0.132983 -0.763521 -0.631943
vn 0.347416 0.526638 -0.775857
vn -0.000000 -0.029788 -0.999556
vn -0.430863 0.576717 0.694085
vn -0.832311 0.551347 -0.057235
vn 0.735937 0.367062 -0.568912
vn 0.279862 -0.003018 -0.960036
vn -0.400810 0.914173 0.060330
vn -0.453533 0.634271 0.626105
vn 0.743823 0.189048 -0.641083
vn 0.569300 0.733219 -0.371870
vn 0.514462 0.126473 -0.848135
vn 0.644965 0.394149 -0.654727
vn -0.666501 0.737553 0.108593
vn -0.440533 0.837162 0.324176
vn 0.482529 0.607985 -0.630492
vn -0.279751 0.043428 0.959090
vn -0.363149 0.851419 0.378429
vn -0.270800 0.948750 0.162917
vn 0.728520 0.258779 -0.634265
vn -0.319947 -0.946977 -0.029471
vn 0.905755 -0.233013 -0.353997
vn 0.000000 -0.296997 0.954879
vn -0.000000 -0.754959 -0.655772
vn -0.223176 0.563799 0.795187
vn 0.908633 0.289710 -0.300757
vn 0.553855 0.704886 -0.443147
vn 0.735154 0.536232 -0.414733
vn 0.795102 0.454400 -0.401663
vn 0.857952 0.357248 -0.369177
vn -0.232530 0.643616 0.729170
vn 0.704776 0.682118 -0.194952
vn -0.151262 0.964139 0.218072
vn -0.185484 0.869976 0.456879
vn -0.094078 0.895718 0.434557
vn 0.000000 0.036252 0.999343
vn 0.811570 0.575887 -0.098536
vn 0.556827 0.792394 -0.249110
vn -0.102676 0.539034 -0.836002
vn -0.286290 0.631536 -0.720556
vn -0.000000 0.855608 -0.517624
vn -0.132983 -0.763520 -0.631943
vn 0.279058 -0.294843 0.913890
vn -0.370253 0.789189 -0.489993
vn 0.102676 0.539034 -0.836002
vn -0.372167 -0.914113 -0.160901
vn 0.968555 -0.247445 -0.025923
vn -0.292162 0.925753 -0.240046
vn 0.731558 0.661909 -0.163399
vn 0.286289 0.631535 -0.720556
vn 0.975850 0.216871 0.026153
vn 0.000001 0.559433 0.828875
vn 0.007918 0.970387 0.241424
vn 0.000000 0.875730 0.482801
vn -0.106528 0.989681 -0.095828
vn 0.370253 0.789189 -0.489994
vn 0.279751 0.043428 0.959090
vn 0.871565 0.485305 -0.069676
vn 0.106528 0.989681 -0.095828
vn 0.292163 0.925753 -0.240046
vn -0.249963 -0.788050 -0.562580
vn 0.540016 -0.288372 0.790711
vn 0.000001 0.646163 0.763199
vn -0.380639 -0.871225 -0.309970
vn 0.915860 -0.262979 0.303385
vn 0.395263 0.916530 0.061154
vn 0.497245 0.864325 -0.075429
vn 0.701093 0.707429 0.089518
vn 0.524116 0.813760 0.251192
vn 0.759211 0.649094 0.047698
vn 0.653159 0.754538 0.063680
vn 0.134293 0.965466 0.223251
vn 0.281375 0.945561 0.163534
vn 0.242202 0.882800 0.402496
vn -0.337141 -0.826081 -0.451582
vn 0.762220 -0.277219 0.584953
vn 0.185485 0.869975 0.456879
vn 0.541863 0.065270 0.837929
vn 0.523968 0.815161 0.246922
vn 0.223176 0.563800 0.795187
vn 0.922311 0.153382 0.354706
vn 0.795126 0.567005 0.215128
vn 0.363149 0.851419 0.378429
vn 0.232530 0.643616 0.729169
vn 0.766112 0.102299 0.634514
vn 0.722176 0.621786 0.303058
vn 0.647902 0.612288 0.453130
vn 0.430862 0.576718 0.694085
vn 0.453533 0.634271 0.626106
vn 0.604788 0.597053 0.527028
vn -0.237818 -0.839815 -0.488010
vn -0.679266 -0.691016 -0.247174
vn -0.747852 -0.443130 -0.494321
vn -0.257999 -0.627989 -0.734211
vn -0.202405 -0.944892 -0.257315
vn -0.570430 -0.820538 -0.036420
vn -0.708806 -0.094108 -0.699098
vn -0.247272 -0.309105 -0.918320
vn -0.753589 -0.534168 0.383104
vn -0.924740 -0.317877 0.209310
vn -0.999960 0.004901 -0.007472
vn 0.202404 -0.944892 -0.257315
vn 0.237817 -0.839814 -0.488011
vn 0.257998 -0.627989 -0.734212
vn -0.909453 0.345274 -0.231693
vn -0.569561 0.246738 -0.784041
vn -0.204108 0.048402 -0.977751
vn 0.247272 -0.309105 -0.918320
vn -0.711153 0.590397 -0.381698
vn 0.204108 0.048402 -0.977751
vn -0.413143 0.486495 -0.769828
vn -0.149824 0.342033 -0.927667
vn -0.612958 -0.196516 0.765287
vn -0.740601 0.171617 0.649660
vn 0.570430 -0.820538 -0.036419
vn 0.679265 -0.691016 -0.247176
vn -0.519360 0.722850 -0.455800
vn 0.149824 0.342033 -0.927667
vn -0.743314 0.501619 0.442564
vn 0.747853 -0.443129 -0.494321
vn -0.644290 0.737267 0.203295
vn 0.708806 -0.094108 -0.699098
vn -0.510725 0.859724 0.005928
vn 0.569561 0.246738 -0.784041
vn -0.391727 0.909993 -0.135876
vn 0.413143 0.486494 -0.769829
vn -0.227486 0.030381 0.973307
vn -0.264668 0.466215 0.844153
vn 0.762890 -0.531528 0.368073
vn 0.924740 -0.317877 0.209309
vn -0.250995 0.744061 0.619172
vn 0.999960 0.004902 -0.007472
vn -0.214131 0.898456 0.383307
vn 0.909453 0.345274 -0.231693
vn 0.215401 0.051165 0.975184
vn -0.139686 0.989521 0.036552
vn -0.174710 0.966179 0.189671
vn 0.519360 0.722850 -0.455799
vn 0.711153 0.590397 -0.381697
vn 0.624232 -0.164554 0.763712
vn 0.264668 0.466215 0.844153
vn 0.740601 0.171617 0.649660
vn 0.139687 0.989521 0.036552
vn 0.391728 0.909993 -0.135875
vn 0.250995 0.744061 0.619172
vn 0.743314 0.501619 0.442564
vn 0.174710 0.966179 0.189670
vn 0.510725 0.859724 0.005927
vn 0.214131 0.898457 0.383306
vn 0.644289 0.737267 0.203294
s 1
g polySurface30
usemtl unwrapChekcerShaderSG
f 2/1/1 3/325/2 1/324/3 8/4/4
f 4/5/5 5/6/6 3/325/2 2/1/1
f 6/7/7 3/2/2 5/323/6 11/8/8
f 7/9/9 1/3/3 3/2/2 6/7/7
f 8/4/4 1/324/3 9/319/10 14/322/11
f 5/6/6 4/5/5 10/12/12 12/13/13
f 11/8/8 5/323/6 12/315/13 20/14/14
f 13/316/15 9/318/10 1/3/3 7/9/9
f 7/9/9 6/7/7 15/321/16 16/317/17
f 17/18/18 15/321/16 6/7/7 11/8/8
f 14/11/11 9/320/10 18/308/19 27/20/20
f 13/316/15 7/9/9 16/317/17 23/312/21
f 16/17/17 15/16/16 19/22/22 21/23/23
f 12/13/13 10/12/12 22/24/24 26/25/25
f 23/311/21 16/17/17 21/23/23 28/310/26
f 24/27/27 19/22/22 15/16/16 17/314/18
f 9/10/10 13/15/15 25/28/28 18/19/19
f 29/29/29 17/18/18 11/8/8 20/14/14
f 21/23/23 19/22/22 30/30/30 31/31/31
f 25/28/28 13/15/15 23/313/21 33/307/32
f 28/310/26 21/23/23 31/31/31 36/33/33
f 12/315/13 26/309/25 32/34/34 20/14/14
f 33/32/32 23/21/21 28/26/26 38/35/35
f 19/22/22 24/27/27 34/36/36 30/30/30
f 35/37/37 24/27/27 17/314/18 29/306/29
f 37/38/38 27/20/20 18/308/19 40/301/39
f 39/40/40 26/25/25 22/24/24 42/41/41
f 38/35/35 28/26/26 36/305/33 44/42/42
f 40/39/39 18/19/19 25/28/28 50/43/43
f 29/29/29 20/14/14 32/34/34 47/44/44
f 24/27/27 35/37/37 41/45/45 34/36/36
f 31/31/31 30/30/30 43/304/46 45/303/47
f 36/33/33 31/31/31 45/303/47 53/293/48
f 25/28/28 33/307/32 46/297/49 50/43/43
f 33/32/32 38/35/35 48/50/50 46/49/49
f 49/51/51 35/37/37 29/306/29 47/298/44
f 30/30/30 34/36/36 51/300/52 43/304/46
f 26/309/25 39/302/40 52/53/53 32/34/34
f 44/42/42 36/305/33 53/294/48 60/299/54
f 38/35/35 44/42/42 54/55/55 48/50/50
f 55/56/56 37/38/38 40/301/39 59/290/57
f 56/58/58 39/40/40 42/41/41 61/59/59
f 57/60/60 41/45/45 35/37/37 49/51/51
f 34/36/36 41/45/45 58/296/61 51/300/52
f 47/44/44 32/34/34 52/53/53 63/62/62
f 59/57/57 40/39/39 50/43/43 68/63/63
f 62/291/64 54/55/55 44/42/42 60/299/54
f 46/49/49 48/50/50 64/65/65 66/66/66
f 65/67/67 49/51/51 47/298/44 63/288/62
f 50/43/43 46/297/49 66/287/66 68/63/63
f 67/289/68 58/296/61 41/45/45 57/60/60
f 48/50/50 54/55/55 69/69/69 64/65/65
f 39/302/40 56/292/58 70/70/70 52/53/53
f 71/71/71 45/47/47 43/46/46 74/72/72
f 72/73/73 57/60/60 49/51/51 65/67/67
f 73/74/74 53/48/48 45/47/47 71/71/71
f 74/72/72 43/46/46 51/52/52 79/75/75
f 75/76/76 55/56/56 59/290/57 80/283/77
f 76/78/78 56/58/58 61/59/59 82/79/79
f 54/55/55 62/291/64 77/286/80 69/69/69
f 78/81/81 60/54/54 53/295/48 73/229/74
f 63/62/62 52/53/53 70/70/70 85/82/82
f 79/75/75 51/52/52 58/61/61 173/83/83
f 80/77/77 59/57/57 68/63/63 92/84/84
f 60/54/54 78/81/81 86/85/85 62/64/64
f 81/285/86 67/289/68 57/60/60 72/73/73
f 83/87/87 65/67/67 63/288/62 85/281/82
f 66/66/66 64/65/65 84/88/88 88/89/89
f 62/64/64 86/85/85 95/90/90 77/80/80
f 64/65/65 69/69/69 87/91/91 84/88/88
f 68/63/63 66/287/66 88/279/89 92/84/84
f 89/92/92 67/68/68 81/86/86 96/93/93
f 69/69/69 77/286/80 90/282/94 87/91/91
f 56/292/58 76/284/78 91/95/95 70/70/70
f 93/96/96 72/73/73 65/67/67 83/87/87
f 94/280/97 81/285/86 72/73/73 93/96/96
f 77/80/80 95/90/90 102/98/98 90/94/94
f 97/99/99 75/76/76 80/283/77 99/276/100
f 98/101/101 76/78/78 82/79/79 100/102/102
f 85/82/82 70/70/70 91/95/95 105/103/103
f 99/100/100 80/77/77 92/84/84 115/104/104
f 87/91/91 90/282/94 101/278/105 103/106/106
f 90/94/94 102/98/98 111/107/107 101/105/105
f 84/88/88 87/91/91 103/106/106 106/108/108
f 104/109/109 83/87/87 85/281/82 105/273/103
f 88/89/89 84/88/88 106/108/108 108/110/110
f 107/275/111 94/280/97 93/96/96 110/112/112
f 96/93/93 94/97/97 107/111/111 120/113/113
f 92/84/84 88/279/89 108/270/110 115/104/104
f 76/284/78 98/277/101 109/114/114 91/95/95
f 110/112/112 93/96/96 83/87/87 104/109/109
f 101/105/105 111/107/107 208/115/115 122/116/116
f 112/246/117 113/118/118 114/274/119
f 98/101/101 100/102/102 116/120/120 125/269/121
f 113/118/118 117/122/122 114/274/119
f 118/123/123 112/117/117 114/119/119
f 119/124/124 97/99/99 99/276/100 127/268/125
f 117/122/122 121/126/126 114/274/119
f 103/106/106 101/278/105 122/271/116 132/127/127
f 123/128/128 118/123/123 114/119/119
f 127/125/125 99/100/100 115/104/104 148/129/129
f 105/103/103 91/95/95 109/114/114 138/130/130
f 129/267/131 107/275/111 110/112/112 142/132/132
f 121/126/126 130/133/133 114/274/119
f 131/134/134 123/128/128 114/119/119
f 109/114/114 98/277/101 125/121/121 151/135/135
f 106/108/108 103/106/106 132/127/127 141/136/136
f 130/133/133 133/137/137 114/274/119
f 134/138/138 131/134/134 114/119/119
f 133/238/137 134/138/138 114/119/119
f 125/269/121 116/120/120 135/139/139 146/264/140
f 136/141/141 104/109/109 105/273/103 138/262/130
f 137/142/142 119/124/124 127/268/125 147/265/143
f 140/144/144 139/272/145 124/146/146 126/147/147
f 108/110/110 106/108/108 141/136/136 145/148/148
f 142/132/132 110/112/112 104/109/109 136/141/141
f 132/127/127 122/271/116 139/145/145 153/149/149
f 144/150/150 143/261/151 128/152/152
f 115/104/104 108/270/110 145/259/148 148/129/129
f 146/264/140 135/139/139 149/153/153 152/263/154
f 150/155/155 144/266/150 129/267/131 142/132/132
f 137/142/142 147/265/143 152/263/154 149/153/153
f 151/135/135 125/121/121 146/140/140 158/156/156
f 153/149/149 139/145/145 140/260/144 157/157/157
f 154/158/158 138/130/130 109/114/114 151/135/135
f 155/159/159 147/143/143 127/125/125 148/129/129
f 141/136/136 132/127/127 153/149/149 160/160/160
f 156/161/161 143/151/151 144/266/150 150/155/155
f 157/157/157 140/260/144 143/151/151 156/161/161
f 136/141/141 138/262/130 154/258/158 159/162/162
f 158/156/156 146/140/140 152/154/154 161/163/163
f 142/132/132 136/141/141 159/162/162 150/155/155
f 145/148/148 141/136/136 160/160/160 162/164/164
f 161/163/163 152/154/154 147/143/143 155/159/159
f 155/159/159 148/129/129 145/259/148 162/257/164
f 160/160/160 153/149/149 157/157/157 165/165/165
f 163/166/166 154/158/158 151/135/135 158/156/156
f 159/162/162 154/258/158 163/256/166 164/167/167
f 164/167/167 156/161/161 150/155/155 159/162/162
f 165/165/165 157/157/157 156/161/161 164/167/167
f 162/164/164 160/160/160 165/165/165 166/168/168
f 161/163/163 155/159/159 162/257/164 166/255/168
f 166/255/168 163/166/166 158/156/156 161/163/163
f 164/167/167 163/256/166 166/168/168 165/165/165
f 167/254/169 168/170/170 169/171/171 170/253/172
f 171/231/173 172/252/174 168/170/170 167/254/169
f 170/253/172 169/171/171 174/175/175 175/251/176
f 172/252/174 176/249/177 177/178/178 168/170/170
f 173/83/83 58/61/61 67/68/68 89/92/92
f 168/170/170 177/178/178 178/179/179 169/171/171
f 179/248/180 171/230/173 167/169/169 180/181/181
f 180/181/181 167/169/169 170/172/172 181/182/182
f 169/171/171 178/179/179 182/183/183 174/175/175
f 175/251/176 174/175/175 183/184/184 184/185/185
f 181/182/182 170/172/172 175/176/176 185/186/186
f 174/175/175 182/183/183 186/187/187 183/184/184
f 185/186/186 175/176/176 184/250/185 187/188/188
f 184/185/185 183/184/184 188/189/189 189/190/190
f 176/249/177 190/245/191 191/192/192 177/178/178
f 192/244/193 179/248/180 180/181/181 193/194/194
f 183/184/184 186/187/187 194/195/195 188/189/189
f 187/188/188 184/250/185 189/247/190 195/196/196
f 177/178/178 191/192/192 196/197/197 178/179/179
f 193/194/194 180/181/181 181/182/182 197/198/198
f 96/93/93 81/86/86 94/97/97
f 178/179/179 196/197/197 198/199/199 182/183/183
f 197/198/198 181/182/182 185/186/186 199/200/200
f 189/190/190 188/189/189 113/118/118 112/246/117
f 182/183/183 198/199/199 200/201/201 186/187/187
f 199/200/200 185/186/186 187/188/188 201/202/202
f 188/189/189 194/195/195 117/122/122 113/118/118
f 195/196/196 189/247/190 112/117/117 118/123/123
f 186/187/187 200/201/201 202/203/203 194/195/195
f 201/202/202 187/188/188 195/196/196 203/204/204
f 96/93/93 120/113/113 204/205/205 190/191/191
f 194/195/195 202/203/203 121/126/126 117/122/122
f 203/204/204 195/196/196 118/123/123 123/128/128
f 190/245/191 204/243/205 205/206/206 191/192/192
f 206/240/207 192/244/193 193/194/194 207/208/208
f 120/113/113 107/111/111 129/131/131
f 191/192/192 205/206/206 209/209/209 196/197/197
f 207/208/208 193/194/194 197/198/198 210/210/210
f 139/272/145 122/116/116 208/115/115 124/146/146
f 196/197/197 209/209/209 211/211/211 198/199/199
f 210/210/210 197/198/198 199/200/200 212/212/212
f 120/113/113 128/152/152 213/241/213 204/205/205
f 202/203/203 214/214/214 130/133/133 121/126/126
f 198/199/199 211/211/211 215/215/215 200/201/201
f 216/216/216 203/204/204 123/128/128 131/134/134
f 200/201/201 215/215/215 214/214/214 202/203/203
f 212/212/212 199/200/200 201/202/202 217/217/217
f 129/131/131 144/150/150 128/152/152 120/113/113
f 217/217/217 201/202/202 203/204/204 216/216/216
f 128/152/152 126/147/147 218/239/218 213/241/213
f 143/261/151 140/144/144 126/147/147 128/152/152
f 204/243/205 213/242/213 219/237/219 205/206/206
f 218/218/218 206/240/207 207/208/208 220/220/220
f 214/214/214 221/221/221 133/137/137 130/133/133
f 222/222/222 216/216/216 131/134/134 134/138/138
f 221/236/221 222/222/222 134/138/138 133/238/137
f 205/206/206 219/237/219 223/235/223 209/209/209
f 213/213/213 218/218/218 220/220/220 219/219/219
f 220/220/220 207/208/208 210/210/210 224/224/224
f 215/215/215 225/234/225 221/221/221 214/214/214
f 226/226/226 217/217/217 216/216/216 222/222/222
f 209/209/209 223/235/223 227/233/227 211/211/211
f 211/211/211 227/233/227 225/234/225 215/215/215
f 224/224/224 210/210/210 212/212/212 228/228/228
f 228/228/228 212/212/212 217/217/217 226/226/226
f 225/225/225 226/226/226 222/222/222 221/236/221
f 219/219/219 220/220/220 224/224/224 223/223/223
f 227/227/227 228/228/228 226/226/226 225/225/225
f 223/223/223 224/224/224 228/228/228 227/227/227
f 73/229/74 171/173/173 179/180/180 86/85/85 78/81/81
f 74/72/72 172/174/174 171/232/173 73/74/74 71/71/71
f 86/85/85 179/180/180 192/193/193 102/98/98 95/90/90
f 173/83/83 176/177/177 172/174/174 74/72/72 79/75/75
f 96/93/93 190/191/191 176/177/177 173/83/83 89/92/92
f 102/98/98 192/193/193 206/207/207 208/115/115 111/107/107
f 126/147/147 124/146/146 208/115/115 206/207/207 218/239/218
