%YAML 1.1
%TAG !u! tag:unity3d.com,2011:
--- !u!114 &11400000
MonoBehaviour:
  m_ObjectHideFlags: 0
  m_CorrespondingSourceObject: {fileID: 0}
  m_PrefabInstance: {fileID: 0}
  m_PrefabAsset: {fileID: 0}
  m_GameObject: {fileID: 0}
  m_Enabled: 1
  m_EditorHideFlags: 0
  m_Script: {fileID: 11500000, guid: dc234ab28a32840f5adfb84a075bc023, type: 3}
  m_Name: InkLibrary
  m_EditorClassIdentifier: 
  inkLibrary:
  - compileAutomatically: 0
    inkAsset: {fileID: 102900000, guid: 48e6fc9ba69cd9346852142c8bf2c0c5, type: 3}
    jsonAssetPath: {fileID: 0}
    jsonAsset: {fileID: 4900000, guid: 2679ca2525ab4db48b4f40c9a3acbda5, type: 3}
  - compileAutomatically: 0
    inkAsset: {fileID: 102900000, guid: 1460e815e969b43b8a83a7caa8b48c27, type: 3}
    jsonAssetPath: {fileID: 0}
    jsonAsset: {fileID: 4900000, guid: 6cf48bb6d89824cc69e35b43f9a1aca6, type: 3}
  pendingCompilationStack: []
  compilationStack: []
